Invoking command in '/home/jacky/ros2_ws/build/examples_rclpy_minimal_client': PYTHONPATH=/home/jacky/ros2_ws/build/examples_rclpy_minimal_client/prefix_override:/home/jacky/ros2_ws/install/examples_rclpy_minimal_client/lib/python3.10/site-packages:${PYTHONPATH} /usr/bin/python3 setup.py develop --uninstall --editable --build-directory /home/jacky/ros2_ws/build/examples_rclpy_minimal_client/build
Invoked command in '/home/jacky/ros2_ws/build/examples_rclpy_minimal_client' returned '0': PYTHONPATH=/home/jacky/ros2_ws/build/examples_rclpy_minimal_client/prefix_override:/home/jacky/ros2_ws/install/examples_rclpy_minimal_client/lib/python3.10/site-packages:${PYTHONPATH} /usr/bin/python3 setup.py develop --uninstall --editable --build-directory /home/jacky/ros2_ws/build/examples_rclpy_minimal_client/build
Invoking command in '/home/jacky/ros2_ws/src/examples/rclpy/services/minimal_client': PYTHONPATH=/home/jacky/ros2_ws/build/examples_rclpy_minimal_client/prefix_override:/home/jacky/ros2_ws/install/examples_rclpy_minimal_client/lib/python3.10/site-packages:${PYTHONPATH} /usr/bin/python3 setup.py egg_info --egg-base ../../../../../build/examples_rclpy_minimal_client build --build-base /home/jacky/ros2_ws/build/examples_rclpy_minimal_client/build install --record /home/jacky/ros2_ws/build/examples_rclpy_minimal_client/install.log --single-version-externally-managed
Invoked command in '/home/jacky/ros2_ws/src/examples/rclpy/services/minimal_client' returned '0': PYTHONPATH=/home/jacky/ros2_ws/build/examples_rclpy_minimal_client/prefix_override:/home/jacky/ros2_ws/install/examples_rclpy_minimal_client/lib/python3.10/site-packages:${PYTHONPATH} /usr/bin/python3 setup.py egg_info --egg-base ../../../../../build/examples_rclpy_minimal_client build --build-base /home/jacky/ros2_ws/build/examples_rclpy_minimal_client/build install --record /home/jacky/ros2_ws/build/examples_rclpy_minimal_client/install.log --single-version-externally-managed
