[4.340s] Invoking command in '/home/jacky/ros2_ws/src/examples/rclpy/services/minimal_client': PYTHONPATH=/home/jacky/ros2_ws/build/examples_rclpy_minimal_client/prefix_override:/home/jacky/ros2_ws/install/examples_rclpy_minimal_client/lib/python3.10/site-packages:${PYTHONPATH} /usr/bin/python3 setup.py egg_info --egg-base ../../../../../build/examples_rclpy_minimal_client build --build-base /home/jacky/ros2_ws/build/examples_rclpy_minimal_client/build install --record /home/jacky/ros2_ws/build/examples_rclpy_minimal_client/install.log --single-version-externally-managed
[4.576s] running egg_info
[4.577s] writing ../../../../../build/examples_rclpy_minimal_client/examples_rclpy_minimal_client.egg-info/PKG-INFO
[4.577s] writing dependency_links to ../../../../../build/examples_rclpy_minimal_client/examples_rclpy_minimal_client.egg-info/dependency_links.txt
[4.577s] writing entry points to ../../../../../build/examples_rclpy_minimal_client/examples_rclpy_minimal_client.egg-info/entry_points.txt
[4.577s] writing requirements to ../../../../../build/examples_rclpy_minimal_client/examples_rclpy_minimal_client.egg-info/requires.txt
[4.577s] writing top-level names to ../../../../../build/examples_rclpy_minimal_client/examples_rclpy_minimal_client.egg-info/top_level.txt
[4.580s] reading manifest file '../../../../../build/examples_rclpy_minimal_client/examples_rclpy_minimal_client.egg-info/SOURCES.txt'
[4.581s] writing manifest file '../../../../../build/examples_rclpy_minimal_client/examples_rclpy_minimal_client.egg-info/SOURCES.txt'
[4.581s] running build
[4.581s] running build_py
[4.582s] running install
[4.582s] /usr/lib/python3/dist-packages/setuptools/command/install.py:34: SetuptoolsDeprecationWarning: setup.py install is deprecated. Use build and pip and other standards-based tools.
[4.582s]   warnings.warn(
[4.582s] running install_lib
[4.584s] running install_data
[4.585s] running install_egg_info
[4.586s] removing '/home/jacky/ros2_ws/install/examples_rclpy_minimal_client/lib/python3.10/site-packages/examples_rclpy_minimal_client-0.15.1-py3.10.egg-info' (and everything under it)
[4.586s] Copying ../../../../../build/examples_rclpy_minimal_client/examples_rclpy_minimal_client.egg-info to /home/jacky/ros2_ws/install/examples_rclpy_minimal_client/lib/python3.10/site-packages/examples_rclpy_minimal_client-0.15.1-py3.10.egg-info
[4.587s] running install_scripts
[4.606s] Installing client script to /home/jacky/ros2_ws/install/examples_rclpy_minimal_client/lib/examples_rclpy_minimal_client
[4.606s] Installing client_async script to /home/jacky/ros2_ws/install/examples_rclpy_minimal_client/lib/examples_rclpy_minimal_client
[4.606s] Installing client_async_callback script to /home/jacky/ros2_ws/install/examples_rclpy_minimal_client/lib/examples_rclpy_minimal_client
[4.606s] Installing client_async_member_function script to /home/jacky/ros2_ws/install/examples_rclpy_minimal_client/lib/examples_rclpy_minimal_client
[4.606s] writing list of installed files to '/home/jacky/ros2_ws/build/examples_rclpy_minimal_client/install.log'
[4.899s] Invoked command in '/home/jacky/ros2_ws/src/examples/rclpy/services/minimal_client' returned '0': PYTHONPATH=/home/jacky/ros2_ws/build/examples_rclpy_minimal_client/prefix_override:/home/jacky/ros2_ws/install/examples_rclpy_minimal_client/lib/python3.10/site-packages:${PYTHONPATH} /usr/bin/python3 setup.py egg_info --egg-base ../../../../../build/examples_rclpy_minimal_client build --build-base /home/jacky/ros2_ws/build/examples_rclpy_minimal_client/build install --record /home/jacky/ros2_ws/build/examples_rclpy_minimal_client/install.log --single-version-externally-managed
