[2.290s] Invoking command in '/home/jacky/ros2_ws/build/examples_rclpy_minimal_action_client': PYTHONPATH=/home/jacky/ros2_ws/build/examples_rclpy_minimal_action_client/prefix_override:/home/jacky/ros2_ws/install/examples_rclpy_minimal_action_client/lib/python3.10/site-packages:${PYTHONPATH} /usr/bin/python3 setup.py develop --uninstall --editable --build-directory /home/jacky/ros2_ws/build/examples_rclpy_minimal_action_client/build
[2.613s] running develop
[2.613s] /usr/lib/python3/dist-packages/setuptools/command/easy_install.py:158: EasyInstallDeprecationWarning: easy_install command is deprecated. Use build and pip and other standards-based tools.
[2.613s]   warnings.warn(
[2.613s] /usr/lib/python3/dist-packages/setuptools/command/install.py:34: SetuptoolsDeprecationWarning: setup.py install is deprecated. Use build and pip and other standards-based tools.
[2.613s]   warnings.warn(
[2.660s] Removing /home/jacky/ros2_ws/install/examples_rclpy_minimal_action_client/lib/python3.10/site-packages/examples-rclpy-minimal-action-client.egg-link (link to .)
[3.160s] Invoked command in '/home/jacky/ros2_ws/build/examples_rclpy_minimal_action_client' returned '0': PYTHONPATH=/home/jacky/ros2_ws/build/examples_rclpy_minimal_action_client/prefix_override:/home/jacky/ros2_ws/install/examples_rclpy_minimal_action_client/lib/python3.10/site-packages:${PYTHONPATH} /usr/bin/python3 setup.py develop --uninstall --editable --build-directory /home/jacky/ros2_ws/build/examples_rclpy_minimal_action_client/build
[3.162s] Invoking command in '/home/jacky/ros2_ws/src/examples/rclpy/actions/minimal_action_client': PYTHONPATH=/home/jacky/ros2_ws/build/examples_rclpy_minimal_action_client/prefix_override:/home/jacky/ros2_ws/install/examples_rclpy_minimal_action_client/lib/python3.10/site-packages:${PYTHONPATH} /usr/bin/python3 setup.py egg_info --egg-base ../../../../../build/examples_rclpy_minimal_action_client build --build-base /home/jacky/ros2_ws/build/examples_rclpy_minimal_action_client/build install --record /home/jacky/ros2_ws/build/examples_rclpy_minimal_action_client/install.log --single-version-externally-managed
[3.675s] running egg_info
[3.675s] writing ../../../../../build/examples_rclpy_minimal_action_client/examples_rclpy_minimal_action_client.egg-info/PKG-INFO
[3.675s] writing dependency_links to ../../../../../build/examples_rclpy_minimal_action_client/examples_rclpy_minimal_action_client.egg-info/dependency_links.txt
[3.675s] writing entry points to ../../../../../build/examples_rclpy_minimal_action_client/examples_rclpy_minimal_action_client.egg-info/entry_points.txt
[3.676s] writing requirements to ../../../../../build/examples_rclpy_minimal_action_client/examples_rclpy_minimal_action_client.egg-info/requires.txt
[3.676s] writing top-level names to ../../../../../build/examples_rclpy_minimal_action_client/examples_rclpy_minimal_action_client.egg-info/top_level.txt
[3.676s] reading manifest file '../../../../../build/examples_rclpy_minimal_action_client/examples_rclpy_minimal_action_client.egg-info/SOURCES.txt'
[3.676s] writing manifest file '../../../../../build/examples_rclpy_minimal_action_client/examples_rclpy_minimal_action_client.egg-info/SOURCES.txt'
[3.676s] running build
[3.676s] running build_py
[3.677s] creating /home/jacky/ros2_ws/build/examples_rclpy_minimal_action_client/build
[3.677s] creating /home/jacky/ros2_ws/build/examples_rclpy_minimal_action_client/build/lib
[3.677s] creating /home/jacky/ros2_ws/build/examples_rclpy_minimal_action_client/build/lib/examples_rclpy_minimal_action_client
[3.677s] copying examples_rclpy_minimal_action_client/client_not_composable.py -> /home/jacky/ros2_ws/build/examples_rclpy_minimal_action_client/build/lib/examples_rclpy_minimal_action_client
[3.677s] copying examples_rclpy_minimal_action_client/client_asyncio.py -> /home/jacky/ros2_ws/build/examples_rclpy_minimal_action_client/build/lib/examples_rclpy_minimal_action_client
[3.677s] copying examples_rclpy_minimal_action_client/client.py -> /home/jacky/ros2_ws/build/examples_rclpy_minimal_action_client/build/lib/examples_rclpy_minimal_action_client
[3.677s] copying examples_rclpy_minimal_action_client/__init__.py -> /home/jacky/ros2_ws/build/examples_rclpy_minimal_action_client/build/lib/examples_rclpy_minimal_action_client
[3.678s] copying examples_rclpy_minimal_action_client/client_cancel.py -> /home/jacky/ros2_ws/build/examples_rclpy_minimal_action_client/build/lib/examples_rclpy_minimal_action_client
[3.678s] running install
[3.678s] running install_lib
[3.678s] creating /home/jacky/ros2_ws/install/examples_rclpy_minimal_action_client/lib/python3.10/site-packages/examples_rclpy_minimal_action_client
[3.678s] copying /home/jacky/ros2_ws/build/examples_rclpy_minimal_action_client/build/lib/examples_rclpy_minimal_action_client/client_not_composable.py -> /home/jacky/ros2_ws/install/examples_rclpy_minimal_action_client/lib/python3.10/site-packages/examples_rclpy_minimal_action_client
[3.678s] copying /home/jacky/ros2_ws/build/examples_rclpy_minimal_action_client/build/lib/examples_rclpy_minimal_action_client/client_asyncio.py -> /home/jacky/ros2_ws/install/examples_rclpy_minimal_action_client/lib/python3.10/site-packages/examples_rclpy_minimal_action_client
[3.679s] copying /home/jacky/ros2_ws/build/examples_rclpy_minimal_action_client/build/lib/examples_rclpy_minimal_action_client/client.py -> /home/jacky/ros2_ws/install/examples_rclpy_minimal_action_client/lib/python3.10/site-packages/examples_rclpy_minimal_action_client
[3.679s] copying /home/jacky/ros2_ws/build/examples_rclpy_minimal_action_client/build/lib/examples_rclpy_minimal_action_client/__init__.py -> /home/jacky/ros2_ws/install/examples_rclpy_minimal_action_client/lib/python3.10/site-packages/examples_rclpy_minimal_action_client
[3.679s] copying /home/jacky/ros2_ws/build/examples_rclpy_minimal_action_client/build/lib/examples_rclpy_minimal_action_client/client_cancel.py -> /home/jacky/ros2_ws/install/examples_rclpy_minimal_action_client/lib/python3.10/site-packages/examples_rclpy_minimal_action_client
[3.679s] byte-compiling /home/jacky/ros2_ws/install/examples_rclpy_minimal_action_client/lib/python3.10/site-packages/examples_rclpy_minimal_action_client/client_not_composable.py to client_not_composable.cpython-310.pyc
[3.679s] byte-compiling /home/jacky/ros2_ws/install/examples_rclpy_minimal_action_client/lib/python3.10/site-packages/examples_rclpy_minimal_action_client/client_asyncio.py to client_asyncio.cpython-310.pyc
[3.679s] byte-compiling /home/jacky/ros2_ws/install/examples_rclpy_minimal_action_client/lib/python3.10/site-packages/examples_rclpy_minimal_action_client/client.py to client.cpython-310.pyc
[3.679s] byte-compiling /home/jacky/ros2_ws/install/examples_rclpy_minimal_action_client/lib/python3.10/site-packages/examples_rclpy_minimal_action_client/__init__.py to __init__.cpython-310.pyc
[3.680s] byte-compiling /home/jacky/ros2_ws/install/examples_rclpy_minimal_action_client/lib/python3.10/site-packages/examples_rclpy_minimal_action_client/client_cancel.py to client_cancel.cpython-310.pyc
[3.680s] running install_data
[3.680s] running install_egg_info
[3.680s] Copying ../../../../../build/examples_rclpy_minimal_action_client/examples_rclpy_minimal_action_client.egg-info to /home/jacky/ros2_ws/install/examples_rclpy_minimal_action_client/lib/python3.10/site-packages/examples_rclpy_minimal_action_client-0.15.1-py3.10.egg-info
[3.680s] running install_scripts
[3.680s] Installing client script to /home/jacky/ros2_ws/install/examples_rclpy_minimal_action_client/lib/examples_rclpy_minimal_action_client
[3.680s] Installing client_asyncio script to /home/jacky/ros2_ws/install/examples_rclpy_minimal_action_client/lib/examples_rclpy_minimal_action_client
[3.681s] Installing client_cancel script to /home/jacky/ros2_ws/install/examples_rclpy_minimal_action_client/lib/examples_rclpy_minimal_action_client
[3.681s] Installing client_not_composable script to /home/jacky/ros2_ws/install/examples_rclpy_minimal_action_client/lib/examples_rclpy_minimal_action_client
[3.681s] writing list of installed files to '/home/jacky/ros2_ws/build/examples_rclpy_minimal_action_client/install.log'
[3.681s] /usr/lib/python3/dist-packages/setuptools/command/install.py:34: SetuptoolsDeprecationWarning: setup.py install is deprecated. Use build and pip and other standards-based tools.
[3.681s]   warnings.warn(
[5.124s] Invoked command in '/home/jacky/ros2_ws/src/examples/rclpy/actions/minimal_action_client' returned '0': PYTHONPATH=/home/jacky/ros2_ws/build/examples_rclpy_minimal_action_client/prefix_override:/home/jacky/ros2_ws/install/examples_rclpy_minimal_action_client/lib/python3.10/site-packages:${PYTHONPATH} /usr/bin/python3 setup.py egg_info --egg-base ../../../../../build/examples_rclpy_minimal_action_client build --build-base /home/jacky/ros2_ws/build/examples_rclpy_minimal_action_client/build install --record /home/jacky/ros2_ws/build/examples_rclpy_minimal_action_client/install.log --single-version-externally-managed
