[0.000000] (-) TimerEvent: {}
[0.000617] (-) JobUnselected: {'identifier': 'cpp_launch_example'}
[0.000665] (-) JobUnselected: {'identifier': 'py_launch_example'}
[0.000713] (launch_tutorial) JobQueued: {'identifier': 'launch_tutorial', 'dependencies': OrderedDict()}
[0.000733] (launch_tutorial) JobStarted: {'identifier': 'launch_tutorial'}
[0.099793] (-) TimerEvent: {}
[0.200040] (-) TimerEvent: {}
[0.300265] (-) TimerEvent: {}
[0.400511] (-) TimerEvent: {}
[0.500737] (-) TimerEvent: {}
[0.601023] (-) TimerEvent: {}
[0.601586] (launch_tutorial) Command: {'cmd': ['/usr/bin/python3', 'setup.py', 'egg_info', '--egg-base', '../../build/launch_tutorial', 'build', '--build-base', '/home/jacky/launch_ws/build/launch_tutorial/build', 'install', '--record', '/home/jacky/launch_ws/build/launch_tutorial/install.log', '--single-version-externally-managed'], 'cwd': '/home/jacky/launch_ws/src/launch_tutorial', 'env': {'LESSOPEN': '| /usr/bin/lesspipe %s', 'USER': 'jacky', 'LC_TIME': 'de_DE.UTF-8', 'XDG_SESSION_TYPE': 'wayland', 'SHLVL': '1', 'LD_LIBRARY_PATH': '/opt/ros/humble/opt/rviz_ogre_vendor/lib:/opt/ros/humble/lib/x86_64-linux-gnu:/opt/ros/humble/lib', 'HOME': '/home/jacky', 'OLDPWD': '/home/jacky/launch_ws/src', 'DESKTOP_SESSION': 'ubuntu', 'ROS_PYTHON_VERSION': '3', 'GNOME_SHELL_SESSION_MODE': 'ubuntu', 'GTK_MODULES': 'gail:atk-bridge', 'LC_MONETARY': 'de_DE.UTF-8', 'SYSTEMD_EXEC_PID': '1358', 'DBUS_SESSION_BUS_ADDRESS': 'unix:path=/run/user/1000/bus', 'COLORTERM': 'truecolor', '_colcon_cd_root': '/opt/ros/humble/', 'IM_CONFIG_PHASE': '1', 'WAYLAND_DISPLAY': 'wayland-0', 'COLCON_PREFIX_PATH': '/home/jacky/launch_ws/install', 'ROS_DISTRO': 'humble', 'LOGNAME': 'jacky', '_': '/usr/bin/colcon', 'ROS_VERSION': '2', 'XDG_SESSION_CLASS': 'user', 'USERNAME': 'jacky', 'TERM': 'xterm-256color', 'GNOME_DESKTOP_SESSION_ID': 'this-is-deprecated', 'ROS_LOCALHOST_ONLY': '0', 'PATH': '/opt/ros/humble/bin:/home/jacky/.local/bin:/usr/local/sbin:/usr/local/bin:/usr/sbin:/usr/bin:/sbin:/bin:/usr/games:/usr/local/games:/snap/bin:/snap/bin', 'SESSION_MANAGER': 'local/Alienware-m15-JK:@/tmp/.ICE-unix/1337,unix/Alienware-m15-JK:/tmp/.ICE-unix/1337', 'XDG_MENU_PREFIX': 'gnome-', 'LC_ADDRESS': 'de_DE.UTF-8', 'GNOME_TERMINAL_SCREEN': '/org/gnome/Terminal/screen/eaf51b88_26c8_4713_8c6e_694726cd732c', 'GNOME_SETUP_DISPLAY': ':1', 'XDG_RUNTIME_DIR': '/run/user/1000', 'DISPLAY': ':0', 'LANG': 'en_US.UTF-8', 'XDG_CURRENT_DESKTOP': 'ubuntu:GNOME', 'LC_TELEPHONE': 'de_DE.UTF-8', 'XMODIFIERS': '@im=ibus', 'XDG_SESSION_DESKTOP': 'ubuntu', 'XAUTHORITY': '/run/user/1000/.mutter-Xwaylandauth.HNBVD2', 'LS_COLORS': 'rs=0:di=01;34:ln=01;36:mh=00:pi=40;33:so=01;35:do=01;35:bd=40;33;01:cd=40;33;01:or=40;31;01:mi=00:su=37;41:sg=30;43:ca=30;41:tw=30;42:ow=34;42:st=37;44:ex=01;32:*.tar=01;31:*.tgz=01;31:*.arc=01;31:*.arj=01;31:*.taz=01;31:*.lha=01;31:*.lz4=01;31:*.lzh=01;31:*.lzma=01;31:*.tlz=01;31:*.txz=01;31:*.tzo=01;31:*.t7z=01;31:*.zip=01;31:*.z=01;31:*.dz=01;31:*.gz=01;31:*.lrz=01;31:*.lz=01;31:*.lzo=01;31:*.xz=01;31:*.zst=01;31:*.tzst=01;31:*.bz2=01;31:*.bz=01;31:*.tbz=01;31:*.tbz2=01;31:*.tz=01;31:*.deb=01;31:*.rpm=01;31:*.jar=01;31:*.war=01;31:*.ear=01;31:*.sar=01;31:*.rar=01;31:*.alz=01;31:*.ace=01;31:*.zoo=01;31:*.cpio=01;31:*.7z=01;31:*.rz=01;31:*.cab=01;31:*.wim=01;31:*.swm=01;31:*.dwm=01;31:*.esd=01;31:*.jpg=01;35:*.jpeg=01;35:*.mjpg=01;35:*.mjpeg=01;35:*.gif=01;35:*.bmp=01;35:*.pbm=01;35:*.pgm=01;35:*.ppm=01;35:*.tga=01;35:*.xbm=01;35:*.xpm=01;35:*.tif=01;35:*.tiff=01;35:*.png=01;35:*.svg=01;35:*.svgz=01;35:*.mng=01;35:*.pcx=01;35:*.mov=01;35:*.mpg=01;35:*.mpeg=01;35:*.m2v=01;35:*.mkv=01;35:*.webm=01;35:*.webp=01;35:*.ogm=01;35:*.mp4=01;35:*.m4v=01;35:*.mp4v=01;35:*.vob=01;35:*.qt=01;35:*.nuv=01;35:*.wmv=01;35:*.asf=01;35:*.rm=01;35:*.rmvb=01;35:*.flc=01;35:*.avi=01;35:*.fli=01;35:*.flv=01;35:*.gl=01;35:*.dl=01;35:*.xcf=01;35:*.xwd=01;35:*.yuv=01;35:*.cgm=01;35:*.emf=01;35:*.ogv=01;35:*.ogx=01;35:*.aac=00;36:*.au=00;36:*.flac=00;36:*.m4a=00;36:*.mid=00;36:*.midi=00;36:*.mka=00;36:*.mp3=00;36:*.mpc=00;36:*.ogg=00;36:*.ra=00;36:*.wav=00;36:*.oga=00;36:*.opus=00;36:*.spx=00;36:*.xspf=00;36:', 'GNOME_TERMINAL_SERVICE': ':1.224', 'SSH_AGENT_LAUNCHER': 'gnome-keyring', 'SSH_AUTH_SOCK': '/run/user/1000/keyring/ssh', 'AMENT_PREFIX_PATH': '/home/jacky/launch_ws/install/launch_tutorial:/home/jacky/launch_ws/install/py_launch_example:/home/jacky/launch_ws/install/cpp_launch_example:/opt/ros/humble', 'SHELL': '/bin/bash', 'LC_NAME': 'de_DE.UTF-8', 'QT_ACCESSIBILITY': '1', 'GDMSESSION': 'ubuntu', 'LESSCLOSE': '/usr/bin/lesspipe %s %s', 'LC_MEASUREMENT': 'de_DE.UTF-8', 'LC_IDENTIFICATION': 'de_DE.UTF-8', 'QT_IM_MODULE': 'ibus', 'PWD': '/home/jacky/launch_ws/build/launch_tutorial', 'LC_ALL': 'en_US.UTF-8', 'XDG_CONFIG_DIRS': '/etc/xdg/xdg-ubuntu:/etc/xdg', 'XDG_DATA_DIRS': '/usr/share/ubuntu:/usr/local/share/:/usr/share/:/var/lib/snapd/desktop', 'PYTHONPATH': '/home/jacky/launch_ws/build/launch_tutorial/prefix_override:/home/jacky/launch_ws/install/launch_tutorial/lib/python3.10/site-packages:/home/jacky/launch_ws/install/launch_tutorial/lib/python3.10/site-packages:/home/jacky/launch_ws/install/py_launch_example/lib/python3.10/site-packages:/opt/ros/humble/lib/python3.10/site-packages:/opt/ros/humble/local/lib/python3.10/dist-packages', 'LC_NUMERIC': 'de_DE.UTF-8', 'LC_PAPER': 'de_DE.UTF-8', 'COLCON': '1', 'VTE_VERSION': '6800', 'CMAKE_PREFIX_PATH': '/home/jacky/launch_ws/install/cpp_launch_example'}, 'shell': False}
[0.701127] (-) TimerEvent: {}
[0.786835] (launch_tutorial) StdoutLine: {'line': b'running egg_info\n'}
[0.787305] (launch_tutorial) StdoutLine: {'line': b'writing ../../build/launch_tutorial/UNKNOWN.egg-info/PKG-INFO\n'}
[0.787478] (launch_tutorial) StdoutLine: {'line': b'writing dependency_links to ../../build/launch_tutorial/UNKNOWN.egg-info/dependency_links.txt\n'}
[0.787611] (launch_tutorial) StdoutLine: {'line': b'writing top-level names to ../../build/launch_tutorial/UNKNOWN.egg-info/top_level.txt\n'}
[0.788287] (launch_tutorial) StdoutLine: {'line': b"reading manifest file '../../build/launch_tutorial/UNKNOWN.egg-info/SOURCES.txt'\n"}
[0.788929] (launch_tutorial) StdoutLine: {'line': b"writing manifest file '../../build/launch_tutorial/UNKNOWN.egg-info/SOURCES.txt'\n"}
[0.789022] (launch_tutorial) StdoutLine: {'line': b'running build\n'}
[0.789092] (launch_tutorial) StdoutLine: {'line': b'running install\n'}
[0.789201] (launch_tutorial) StderrLine: {'line': b'/usr/lib/python3/dist-packages/setuptools/command/install.py:34: SetuptoolsDeprecationWarning: setup.py install is deprecated. Use build and pip and other standards-based tools.\n'}
[0.789277] (launch_tutorial) StderrLine: {'line': b'  warnings.warn(\n'}
[0.789366] (launch_tutorial) StdoutLine: {'line': b'running install_data\n'}
[0.789992] (launch_tutorial) StdoutLine: {'line': b'running install_egg_info\n'}
[0.791706] (launch_tutorial) StdoutLine: {'line': b"removing '/home/jacky/launch_ws/install/launch_tutorial/lib/python3.10/site-packages/UNKNOWN-0.0.0-py3.10.egg-info' (and everything under it)\n"}
[0.791897] (launch_tutorial) StdoutLine: {'line': b'Copying ../../build/launch_tutorial/UNKNOWN.egg-info to /home/jacky/launch_ws/install/launch_tutorial/lib/python3.10/site-packages/UNKNOWN-0.0.0-py3.10.egg-info\n'}
[0.792368] (launch_tutorial) StdoutLine: {'line': b'running install_scripts\n'}
[0.801200] (-) TimerEvent: {}
[0.808403] (launch_tutorial) StdoutLine: {'line': b"writing list of installed files to '/home/jacky/launch_ws/build/launch_tutorial/install.log'\n"}
[0.831011] (launch_tutorial) CommandEnded: {'returncode': 0}
[0.879311] (launch_tutorial) JobEnded: {'identifier': 'launch_tutorial', 'rc': 0}
[0.879894] (-) EventReactorShutdown: {}
