Invoking command in '/home/jacky/ros2_ws/src/learning_tf2_cpp/build/learning_tf2_cpp': CMAKE_PREFIX_PATH=${CMAKE_PREFIX_PATH}:/home/jacky/ros2_ws/install/cpp_srvcli:/home/jacky/ros2_ws/install/cpp_pubsub:/home/jacky/ros2_ws/install/py_srvcli:/home/jacky/ros2_ws/install/py_pubsub:/home/jacky/ros2_ws/install/my_py_package:/home/jacky/ros2_ws/install/launch_testing_examples:/home/jacky/ros2_ws/install/examples_rclpy_pointcloud_publisher:/home/jacky/ros2_ws/install/examples_rclpy_minimal_subscriber:/home/jacky/ros2_ws/install/examples_rclpy_minimal_service:/home/jacky/ros2_ws/install/examples_rclpy_minimal_publisher:/home/jacky/ros2_ws/install/examples_rclpy_minimal_client:/home/jacky/ros2_ws/install/examples_rclpy_minimal_action_server:/home/jacky/ros2_ws/install/examples_rclpy_minimal_action_client:/home/jacky/ros2_ws/install/examples_rclpy_guard_conditions:/home/jacky/ros2_ws/install/examples_rclpy_executors:/opt/ros/humble /usr/bin/cmake --build /home/jacky/ros2_ws/src/learning_tf2_cpp/build/learning_tf2_cpp -- -j16 -l16
Invoked command in '/home/jacky/ros2_ws/src/learning_tf2_cpp/build/learning_tf2_cpp' returned '0': CMAKE_PREFIX_PATH=${CMAKE_PREFIX_PATH}:/home/jacky/ros2_ws/install/cpp_srvcli:/home/jacky/ros2_ws/install/cpp_pubsub:/home/jacky/ros2_ws/install/py_srvcli:/home/jacky/ros2_ws/install/py_pubsub:/home/jacky/ros2_ws/install/my_py_package:/home/jacky/ros2_ws/install/launch_testing_examples:/home/jacky/ros2_ws/install/examples_rclpy_pointcloud_publisher:/home/jacky/ros2_ws/install/examples_rclpy_minimal_subscriber:/home/jacky/ros2_ws/install/examples_rclpy_minimal_service:/home/jacky/ros2_ws/install/examples_rclpy_minimal_publisher:/home/jacky/ros2_ws/install/examples_rclpy_minimal_client:/home/jacky/ros2_ws/install/examples_rclpy_minimal_action_server:/home/jacky/ros2_ws/install/examples_rclpy_minimal_action_client:/home/jacky/ros2_ws/install/examples_rclpy_guard_conditions:/home/jacky/ros2_ws/install/examples_rclpy_executors:/opt/ros/humble /usr/bin/cmake --build /home/jacky/ros2_ws/src/learning_tf2_cpp/build/learning_tf2_cpp -- -j16 -l16
Invoking command in '/home/jacky/ros2_ws/src/learning_tf2_cpp/build/learning_tf2_cpp': CMAKE_PREFIX_PATH=${CMAKE_PREFIX_PATH}:/home/jacky/ros2_ws/install/cpp_srvcli:/home/jacky/ros2_ws/install/cpp_pubsub:/home/jacky/ros2_ws/install/py_srvcli:/home/jacky/ros2_ws/install/py_pubsub:/home/jacky/ros2_ws/install/my_py_package:/home/jacky/ros2_ws/install/launch_testing_examples:/home/jacky/ros2_ws/install/examples_rclpy_pointcloud_publisher:/home/jacky/ros2_ws/install/examples_rclpy_minimal_subscriber:/home/jacky/ros2_ws/install/examples_rclpy_minimal_service:/home/jacky/ros2_ws/install/examples_rclpy_minimal_publisher:/home/jacky/ros2_ws/install/examples_rclpy_minimal_client:/home/jacky/ros2_ws/install/examples_rclpy_minimal_action_server:/home/jacky/ros2_ws/install/examples_rclpy_minimal_action_client:/home/jacky/ros2_ws/install/examples_rclpy_guard_conditions:/home/jacky/ros2_ws/install/examples_rclpy_executors:/opt/ros/humble /usr/bin/cmake --install /home/jacky/ros2_ws/src/learning_tf2_cpp/build/learning_tf2_cpp
Invoked command in '/home/jacky/ros2_ws/src/learning_tf2_cpp/build/learning_tf2_cpp' returned '0': CMAKE_PREFIX_PATH=${CMAKE_PREFIX_PATH}:/home/jacky/ros2_ws/install/cpp_srvcli:/home/jacky/ros2_ws/install/cpp_pubsub:/home/jacky/ros2_ws/install/py_srvcli:/home/jacky/ros2_ws/install/py_pubsub:/home/jacky/ros2_ws/install/my_py_package:/home/jacky/ros2_ws/install/launch_testing_examples:/home/jacky/ros2_ws/install/examples_rclpy_pointcloud_publisher:/home/jacky/ros2_ws/install/examples_rclpy_minimal_subscriber:/home/jacky/ros2_ws/install/examples_rclpy_minimal_service:/home/jacky/ros2_ws/install/examples_rclpy_minimal_publisher:/home/jacky/ros2_ws/install/examples_rclpy_minimal_client:/home/jacky/ros2_ws/install/examples_rclpy_minimal_action_server:/home/jacky/ros2_ws/install/examples_rclpy_minimal_action_client:/home/jacky/ros2_ws/install/examples_rclpy_guard_conditions:/home/jacky/ros2_ws/install/examples_rclpy_executors:/opt/ros/humble /usr/bin/cmake --install /home/jacky/ros2_ws/src/learning_tf2_cpp/build/learning_tf2_cpp
