[0.636s] Invoking command in '/home/jacky/ros2_ws/build/cpp_pubsub': AMENT_PREFIX_PATH=/home/jacky/ros2_ws/install/tutorial_interfaces:${AMENT_PREFIX_PATH} CMAKE_PREFIX_PATH=/home/jacky/ros2_ws/install/tutorial_interfaces:/opt/ros/humble LD_LIBRARY_PATH=/home/jacky/ros2_ws/install/tutorial_interfaces/lib:${LD_LIBRARY_PATH} PYTHONPATH=/home/jacky/ros2_ws/install/tutorial_interfaces/local/lib/python3.10/dist-packages:${PYTHONPATH} /usr/bin/cmake /home/jacky/ros2_ws/src/cpp_pubsub -DCMAKE_INSTALL_PREFIX=/home/jacky/ros2_ws/install/cpp_pubsub
[0.875s] -- The C compiler identification is GNU 11.4.0
[1.018s] -- The CXX compiler identification is GNU 11.4.0
[1.043s] -- Detecting C compiler ABI info
[1.267s] -- Detecting C compiler ABI info - done
[1.291s] -- Check for working C compiler: /usr/bin/cc - skipped
[1.291s] -- Detecting C compile features
[1.291s] -- Detecting C compile features - done
[1.294s] -- Detecting CXX compiler ABI info
[1.507s] -- Detecting CXX compiler ABI info - done
[1.523s] -- Check for working CXX compiler: /usr/bin/c++ - skipped
[1.524s] -- Detecting CXX compile features
[1.526s] -- Detecting CXX compile features - done
[1.529s] -- Found ament_cmake: 1.3.5 (/opt/ros/humble/share/ament_cmake/cmake)
[2.180s] -- Found Python3: /usr/bin/python3.10 (found version "3.10.12") found components: Interpreter 
[2.347s] -- Found rclcpp: 16.0.6 (/opt/ros/humble/share/rclcpp/cmake)
[2.413s] -- Found rosidl_generator_c: 3.1.5 (/opt/ros/humble/share/rosidl_generator_c/cmake)
[2.421s] -- Found rosidl_adapter: 3.1.5 (/opt/ros/humble/share/rosidl_adapter/cmake)
[2.434s] -- Found rosidl_generator_cpp: 3.1.5 (/opt/ros/humble/share/rosidl_generator_cpp/cmake)
[2.455s] -- Using all available rosidl_typesupport_c: rosidl_typesupport_fastrtps_c;rosidl_typesupport_introspection_c
[2.485s] -- Using all available rosidl_typesupport_cpp: rosidl_typesupport_fastrtps_cpp;rosidl_typesupport_introspection_cpp
[2.585s] -- Found rmw_implementation_cmake: 6.1.1 (/opt/ros/humble/share/rmw_implementation_cmake/cmake)
[2.589s] -- Found rmw_fastrtps_cpp: 6.2.4 (/opt/ros/humble/share/rmw_fastrtps_cpp/cmake)
[2.744s] -- Found OpenSSL: /usr/lib/x86_64-linux-gnu/libcrypto.so (found version "3.0.2")  
[2.781s] -- Found FastRTPS: /opt/ros/humble/include  
[2.843s] -- Using RMW implementation 'rmw_fastrtps_cpp' as default
[2.855s] -- Looking for pthread.h
[2.989s] -- Looking for pthread.h - found
[2.989s] -- Performing Test CMAKE_HAVE_LIBC_PTHREAD
[3.122s] -- Performing Test CMAKE_HAVE_LIBC_PTHREAD - Success
[3.124s] -- Found Threads: TRUE  
[3.357s] -- Found tutorial_interfaces: 0.0.0 (/home/jacky/ros2_ws/install/tutorial_interfaces/share/tutorial_interfaces/cmake)
[3.536s] -- Found ament_lint_auto: 0.12.8 (/opt/ros/humble/share/ament_lint_auto/cmake)
[3.652s] -- Added test 'cppcheck' to perform static code analysis on C / C++ code
[3.652s] -- Configured cppcheck include dirs: 
[3.652s] -- Configured cppcheck exclude dirs and/or files: 
[3.653s] -- Added test 'lint_cmake' to check CMake code style
[3.655s] -- Added test 'uncrustify' to check C / C++ code style
[3.655s] -- Configured uncrustify additional arguments: 
[3.655s] -- Added test 'xmllint' to check XML markup files
[3.657s] -- Configuring done
[3.682s] -- Generating done
[3.685s] -- Build files have been written to: /home/jacky/ros2_ws/build/cpp_pubsub
