[0.000000] (-) TimerEvent: {}
[0.000265] (-) JobUnselected: {'identifier': 'action_tutorials_cpp'}
[0.000295] (-) JobUnselected: {'identifier': 'action_tutorials_interfaces'}
[0.000320] (-) JobUnselected: {'identifier': 'cpp_parameter_event_handler'}
[0.000517] (-) JobUnselected: {'identifier': 'cpp_parameters'}
[0.000734] (-) JobUnselected: {'identifier': 'cpp_pubsub'}
[0.000780] (-) JobUnselected: {'identifier': 'cpp_srvcli'}
[0.000892] (-) JobUnselected: {'identifier': 'examples_rclcpp_async_client'}
[0.000939] (-) JobUnselected: {'identifier': 'examples_rclcpp_cbg_executor'}
[0.001019] (-) JobUnselected: {'identifier': 'examples_rclcpp_minimal_action_client'}
[0.001038] (-) JobUnselected: {'identifier': 'examples_rclcpp_minimal_action_server'}
[0.001055] (-) JobUnselected: {'identifier': 'examples_rclcpp_minimal_client'}
[0.001084] (-) JobUnselected: {'identifier': 'examples_rclcpp_minimal_composition'}
[0.001101] (-) JobUnselected: {'identifier': 'examples_rclcpp_minimal_publisher'}
[0.001167] (-) JobUnselected: {'identifier': 'examples_rclcpp_minimal_service'}
[0.001185] (-) JobUnselected: {'identifier': 'examples_rclcpp_minimal_subscriber'}
[0.001201] (-) JobUnselected: {'identifier': 'examples_rclcpp_minimal_timer'}
[0.001229] (-) JobUnselected: {'identifier': 'examples_rclcpp_multithreaded_executor'}
[0.001245] (-) JobUnselected: {'identifier': 'examples_rclcpp_wait_set'}
[0.001304] (-) JobUnselected: {'identifier': 'examples_rclpy_executors'}
[0.001355] (-) JobUnselected: {'identifier': 'examples_rclpy_guard_conditions'}
[0.001400] (-) JobUnselected: {'identifier': 'examples_rclpy_minimal_action_client'}
[0.001417] (-) JobUnselected: {'identifier': 'examples_rclpy_minimal_action_server'}
[0.001448] (-) JobUnselected: {'identifier': 'examples_rclpy_minimal_client'}
[0.001465] (-) JobUnselected: {'identifier': 'examples_rclpy_minimal_publisher'}
[0.001525] (-) JobUnselected: {'identifier': 'examples_rclpy_minimal_service'}
[0.001573] (-) JobUnselected: {'identifier': 'examples_rclpy_minimal_subscriber'}
[0.001589] (-) JobUnselected: {'identifier': 'examples_rclpy_pointcloud_publisher'}
[0.001605] (-) JobUnselected: {'identifier': 'launch_testing_examples'}
[0.001634] (-) JobUnselected: {'identifier': 'learning_tf2_cpp'}
[0.001650] (-) JobUnselected: {'identifier': 'learning_tf2_py'}
[0.001743] (-) JobUnselected: {'identifier': 'more_interfaces'}
[0.001762] (-) JobUnselected: {'identifier': 'my_py_package'}
[0.001794] (-) JobUnselected: {'identifier': 'polygon_base'}
[0.001813] (-) JobUnselected: {'identifier': 'polygon_plugins'}
[0.001873] (-) JobUnselected: {'identifier': 'py_pubsub'}
[0.001891] (-) JobUnselected: {'identifier': 'py_srvcli'}
[0.001907] (-) JobUnselected: {'identifier': 'turtlesim'}
[0.001936] (-) JobUnselected: {'identifier': 'tutorial_interfaces'}
[0.001955] (my_package) JobQueued: {'identifier': 'my_package', 'dependencies': OrderedDict()}
[0.002015] (my_package) JobStarted: {'identifier': 'my_package'}
[0.045913] (my_package) JobProgress: {'identifier': 'my_package', 'progress': 'cmake'}
[0.046435] (my_package) JobProgress: {'identifier': 'my_package', 'progress': 'build'}
[0.047227] (my_package) Command: {'cmd': ['/usr/bin/cmake', '--build', '/home/jacky/ros2_ws/build/my_package', '--', '-j16', '-l16'], 'cwd': '/home/jacky/ros2_ws/build/my_package', 'env': OrderedDict([('LESSOPEN', '| /usr/bin/lesspipe %s'), ('USER', 'jacky'), ('LC_TIME', 'de_DE.UTF-8'), ('XDG_SESSION_TYPE', 'wayland'), ('SHLVL', '1'), ('LD_LIBRARY_PATH', '/opt/ros/humble/opt/rviz_ogre_vendor/lib:/opt/ros/humble/lib/x86_64-linux-gnu:/opt/ros/humble/lib'), ('HOME', '/home/jacky'), ('OLDPWD', '/home/jacky'), ('DESKTOP_SESSION', 'ubuntu'), ('ROS_PYTHON_VERSION', '3'), ('GNOME_SHELL_SESSION_MODE', 'ubuntu'), ('GTK_MODULES', 'gail:atk-bridge'), ('LC_MONETARY', 'de_DE.UTF-8'), ('SYSTEMD_EXEC_PID', '1343'), ('DBUS_SESSION_BUS_ADDRESS', 'unix:path=/run/user/1000/bus'), ('COLORTERM', 'truecolor'), ('_colcon_cd_root', '/opt/ros/humble/'), ('IM_CONFIG_PHASE', '1'), ('WAYLAND_DISPLAY', 'wayland-0'), ('ROS_DISTRO', 'humble'), ('LOGNAME', 'jacky'), ('_', '/usr/bin/colcon'), ('ROS_VERSION', '2'), ('XDG_SESSION_CLASS', 'user'), ('USERNAME', 'jacky'), ('TERM', 'xterm-256color'), ('GNOME_DESKTOP_SESSION_ID', 'this-is-deprecated'), ('ROS_LOCALHOST_ONLY', '0'), ('PATH', '/opt/ros/humble/bin:/home/jacky/.local/bin:/usr/local/sbin:/usr/local/bin:/usr/sbin:/usr/bin:/sbin:/bin:/usr/games:/usr/local/games:/snap/bin:/snap/bin'), ('SESSION_MANAGER', 'local/Alienware-m15-JK:@/tmp/.ICE-unix/1321,unix/Alienware-m15-JK:/tmp/.ICE-unix/1321'), ('XDG_MENU_PREFIX', 'gnome-'), ('LC_ADDRESS', 'de_DE.UTF-8'), ('GNOME_TERMINAL_SCREEN', '/org/gnome/Terminal/screen/eb284b01_a202_48e7_bc44_a69ed6bd1f8b'), ('GNOME_SETUP_DISPLAY', ':1'), ('XDG_RUNTIME_DIR', '/run/user/1000'), ('DISPLAY', ':0'), ('LANG', 'en_US.UTF-8'), ('XDG_CURRENT_DESKTOP', 'ubuntu:GNOME'), ('LC_TELEPHONE', 'de_DE.UTF-8'), ('XMODIFIERS', '@im=ibus'), ('XDG_SESSION_DESKTOP', 'ubuntu'), ('XAUTHORITY', '/run/user/1000/.mutter-Xwaylandauth.HYDZD2'), ('LS_COLORS', 'rs=0:di=01;34:ln=01;36:mh=00:pi=40;33:so=01;35:do=01;35:bd=40;33;01:cd=40;33;01:or=40;31;01:mi=00:su=37;41:sg=30;43:ca=30;41:tw=30;42:ow=34;42:st=37;44:ex=01;32:*.tar=01;31:*.tgz=01;31:*.arc=01;31:*.arj=01;31:*.taz=01;31:*.lha=01;31:*.lz4=01;31:*.lzh=01;31:*.lzma=01;31:*.tlz=01;31:*.txz=01;31:*.tzo=01;31:*.t7z=01;31:*.zip=01;31:*.z=01;31:*.dz=01;31:*.gz=01;31:*.lrz=01;31:*.lz=01;31:*.lzo=01;31:*.xz=01;31:*.zst=01;31:*.tzst=01;31:*.bz2=01;31:*.bz=01;31:*.tbz=01;31:*.tbz2=01;31:*.tz=01;31:*.deb=01;31:*.rpm=01;31:*.jar=01;31:*.war=01;31:*.ear=01;31:*.sar=01;31:*.rar=01;31:*.alz=01;31:*.ace=01;31:*.zoo=01;31:*.cpio=01;31:*.7z=01;31:*.rz=01;31:*.cab=01;31:*.wim=01;31:*.swm=01;31:*.dwm=01;31:*.esd=01;31:*.jpg=01;35:*.jpeg=01;35:*.mjpg=01;35:*.mjpeg=01;35:*.gif=01;35:*.bmp=01;35:*.pbm=01;35:*.pgm=01;35:*.ppm=01;35:*.tga=01;35:*.xbm=01;35:*.xpm=01;35:*.tif=01;35:*.tiff=01;35:*.png=01;35:*.svg=01;35:*.svgz=01;35:*.mng=01;35:*.pcx=01;35:*.mov=01;35:*.mpg=01;35:*.mpeg=01;35:*.m2v=01;35:*.mkv=01;35:*.webm=01;35:*.webp=01;35:*.ogm=01;35:*.mp4=01;35:*.m4v=01;35:*.mp4v=01;35:*.vob=01;35:*.qt=01;35:*.nuv=01;35:*.wmv=01;35:*.asf=01;35:*.rm=01;35:*.rmvb=01;35:*.flc=01;35:*.avi=01;35:*.fli=01;35:*.flv=01;35:*.gl=01;35:*.dl=01;35:*.xcf=01;35:*.xwd=01;35:*.yuv=01;35:*.cgm=01;35:*.emf=01;35:*.ogv=01;35:*.ogx=01;35:*.aac=00;36:*.au=00;36:*.flac=00;36:*.m4a=00;36:*.mid=00;36:*.midi=00;36:*.mka=00;36:*.mp3=00;36:*.mpc=00;36:*.ogg=00;36:*.ra=00;36:*.wav=00;36:*.oga=00;36:*.opus=00;36:*.spx=00;36:*.xspf=00;36:'), ('GNOME_TERMINAL_SERVICE', ':1.138'), ('SSH_AGENT_LAUNCHER', 'gnome-keyring'), ('SSH_AUTH_SOCK', '/run/user/1000/keyring/ssh'), ('AMENT_PREFIX_PATH', '/opt/ros/humble'), ('SHELL', '/bin/bash'), ('LC_NAME', 'de_DE.UTF-8'), ('QT_ACCESSIBILITY', '1'), ('GDMSESSION', 'ubuntu'), ('LESSCLOSE', '/usr/bin/lesspipe %s %s'), ('LC_MEASUREMENT', 'de_DE.UTF-8'), ('LC_IDENTIFICATION', 'de_DE.UTF-8'), ('QT_IM_MODULE', 'ibus'), ('PWD', '/home/jacky/ros2_ws/build/my_package'), ('LC_ALL', 'en_US.UTF-8'), ('XDG_CONFIG_DIRS', '/etc/xdg/xdg-ubuntu:/etc/xdg'), ('XDG_DATA_DIRS', '/usr/share/ubuntu:/usr/local/share/:/usr/share/:/var/lib/snapd/desktop'), ('PYTHONPATH', '/opt/ros/humble/lib/python3.10/site-packages:/opt/ros/humble/local/lib/python3.10/dist-packages'), ('LC_NUMERIC', 'de_DE.UTF-8'), ('LC_PAPER', 'de_DE.UTF-8'), ('COLCON', '1'), ('VTE_VERSION', '6800'), ('CMAKE_PREFIX_PATH', '/opt/ros/humble')]), 'shell': False}
[0.099780] (-) TimerEvent: {}
[0.102018] (my_package) StdoutLine: {'line': b'[ 25%] Built target my_node\n'}
[0.102932] (my_package) StdoutLine: {'line': b'[ 50%] Built target gtest_main\n'}
[0.103053] (my_package) StdoutLine: {'line': b'[ 75%] Built target gtest\n'}
[0.115409] (my_package) StdoutLine: {'line': b'\x1b[35m\x1b[1mConsolidate compiler generated dependencies of target my_package_tutorial_test\x1b[0m\n'}
[0.131538] (my_package) StdoutLine: {'line': b'[ 87%] \x1b[32m\x1b[1mLinking CXX executable my_package_tutorial_test\x1b[0m\n'}
[0.157168] (my_package) StderrLine: {'line': b'/usr/bin/ld: cannot find -lname_of_local_library: No such file or directory\n'}
[0.181735] (my_package) StderrLine: {'line': b'collect2: error: ld returned 1 exit status\n'}
[0.184011] (my_package) StderrLine: {'line': b'gmake[2]: *** [CMakeFiles/my_package_tutorial_test.dir/build.make:124: my_package_tutorial_test] Error 1\n'}
[0.184361] (my_package) StderrLine: {'line': b'gmake[1]: *** [CMakeFiles/Makefile2:184: CMakeFiles/my_package_tutorial_test.dir/all] Error 2\n'}
[0.184716] (my_package) StderrLine: {'line': b'gmake: *** [Makefile:146: all] Error 2\n'}
[0.187560] (my_package) CommandEnded: {'returncode': 2}
[0.199863] (-) TimerEvent: {}
[0.278301] (my_package) JobEnded: {'identifier': 'my_package', 'rc': 2}
[0.288718] (-) EventReactorShutdown: {}
