[1m============================= test session starts ==============================[0m
platform linux -- Python 3.10.12, pytest-6.2.5, py-1.10.0, pluggy-0.13.0
cachedir: /home/jacky/ros2_ws/build/learning_tf2_py/.pytest_cache
rootdir: /home/jacky/ros2_ws/src/learning_tf2_py
plugins: ament-pep257-0.12.8, ament-xmllint-0.12.8, ament-copyright-0.12.8, ament-lint-0.12.8, ament-flake8-0.12.8, launch-testing-1.0.4, launch-testing-ros-0.19.6, timeout-2.1.0, mock-3.6.1, repeat-0.9.1, colcon-core-0.15.0, rerunfailures-10.2, cov-3.0.0
[1mcollecting ... [0m[1m
collected 3 items                                                              [0m

test/test_copyright.py [33ms[0m[32m                                                 [ 33%][0m
test/test_flake8.py [31mF[0m[31m                                                    [ 66%][0m
test/test_pep257.py [32m.[0m[31m                                                    [100%][0m

=================================== FAILURES ===================================
[31m[1m_________________________________ test_flake8 __________________________________[0m
[1m[31mtest/test_flake8.py[0m:23: in test_flake8
    [94massert[39;49;00m rc == [94m0[39;49;00m, \
[1m[31mE   AssertionError: Found 8 code style errors / warnings:[0m
[1m[31mE     ./setup.py:2:1: I100 Import statements are in the wrong order. 'from glob import glob' should be before 'import os'[0m
[1m[31mE     ./setup.py:3:1: I201 Missing newline between import groups. 'from setuptools import find_packages, setup' is identified as Third Party and 'from glob import glob' is identified as Stdlib.[0m
[1m[31mE     ./setup.py:11:7: E131 continuation line unaligned for hanging indent[0m
[1m[31mE     ./setup.py:14:100: E501 line too long (108 > 99 characters)[0m
[1m[31mE     ./setup.py:28:1: W293 blank line contains whitespace[0m
[1m[31mE     ./launch/turtle_tf2_sensor_message.launch.py:39:7: W292 no newline at end of file[0m
[1m[31mE     ./learning_tf2_py/turtle_tf2_message_broadcaster.py:74:5: E265 block comment should start with '# '[0m
[1m[31mE     ./learning_tf2_py/turtle_tf2_message_broadcaster.py:75:5: E265 block comment should start with '# '[0m
[1m[31mE   assert 1 == 0[0m
----------------------------- Captured stdout call -----------------------------

./setup.py:2:1: I100 Import statements are in the wrong order. 'from glob import glob' should be before 'import os'
from glob import glob
^

./setup.py:3:1: I201 Missing newline between import groups. 'from setuptools import find_packages, setup' is identified as Third Party and 'from glob import glob' is identified as Stdlib.
from setuptools import find_packages, setup
^

./setup.py:11:7: E131 continuation line unaligned for hanging indent
      data_files=[
      ^

./setup.py:14:100: E501 line too long (108 > 99 characters)
        (os.path.join('share', package_name, 'launch'), glob(os.path.join('launch', '*launch.[pxy][yma]*')))
                                                                                                   ^

./setup.py:28:1: W293 blank line contains whitespace
 
^

./launch/turtle_tf2_sensor_message.launch.py:39:7: W292 no newline at end of file
    ])      ^

./learning_tf2_py/turtle_tf2_message_broadcaster.py:74:5: E265 block comment should start with '# '
    #Initialize the Twist messages of turtle3
    ^

./learning_tf2_py/turtle_tf2_message_broadcaster.py:75:5: E265 block comment should start with '# '
    #turtle3 move along a circle
    ^

1     E131 continuation line unaligned for hanging indent
2     E265 block comment should start with '# '
1     E501 line too long (108 > 99 characters)
1     I100 Import statements are in the wrong order. 'from glob import glob' should be before 'import os'
1     I201 Missing newline between import groups. 'from setuptools import find_packages, setup' is identified as Third Party and 'from glob import glob' is identified as Stdlib.
1     W292 no newline at end of file
1     W293 blank line contains whitespace

7 files checked
8 errors

'E'-type errors: 4
'I'-type errors: 2
'W'-type errors: 2

Checked files:

* ./setup.py
* ./launch/turtle_tf2_sensor_message.launch.py
* ./learning_tf2_py/turtle_tf2_message_broadcaster.py
* ./learning_tf2_py/__init__.py
* ./test/test_flake8.py
* ./test/test_copyright.py
* ./test/test_pep257.py
----------------------------- Captured stderr call -----------------------------
option --max-complexity: please update from optparse string `type=` to argparse callable `type=` -- this will be an error in the future
option --application-import-names: please update from optparse string `type=` to argparse callable `type=` -- this will be an error in the future
option --application-package-names: please update from optparse string `type=` to argparse callable `type=` -- this will be an error in the future
option --import-order-style: please update from optparse string `type=` to argparse callable `type=` -- this will be an error in the future
option --quotes: please update from optparse string `type=` to argparse callable `type=` -- this will be an error in the future
option --inline-quotes: please update from optparse string `type=` to argparse callable `type=` -- this will be an error in the future
option --multiline-quotes: please update from optparse string `type=` to argparse callable `type=` -- this will be an error in the future
option --docstring-quotes: please update from optparse string `type=` to argparse callable `type=` -- this will be an error in the future
--- generated xml file: /home/jacky/ros2_ws/build/learning_tf2_py/pytest.xml ---
=========================== short test summary info ============================
FAILED test/test_flake8.py::test_flake8 - AssertionError: Found 8 code style ...
[31m============== [31m[1m1 failed[0m, [32m1 passed[0m, [33m1 skipped[0m, [33m2 warnings[0m[31m in 0.29s[0m[31m ==============[0m
