Invoking command in '/home/jacky/ros2_ws/build/examples_rclcpp_minimal_publisher': CMAKE_PREFIX_PATH=/opt/ros/humble /usr/bin/cmake /home/jacky/ros2_ws/src/examples/rclcpp/topics/minimal_publisher -DCMAKE_INSTALL_PREFIX=/home/jacky/ros2_ws/install/examples_rclcpp_minimal_publisher
Invoked command in '/home/jacky/ros2_ws/build/examples_rclcpp_minimal_publisher' returned '0': CMAKE_PREFIX_PATH=/opt/ros/humble /usr/bin/cmake /home/jacky/ros2_ws/src/examples/rclcpp/topics/minimal_publisher -DCMAKE_INSTALL_PREFIX=/home/jacky/ros2_ws/install/examples_rclcpp_minimal_publisher
Invoking command in '/home/jacky/ros2_ws/build/examples_rclcpp_minimal_publisher': CMAKE_PREFIX_PATH=/opt/ros/humble /usr/bin/cmake --build /home/jacky/ros2_ws/build/examples_rclcpp_minimal_publisher -- -j16 -l16
Invoked command in '/home/jacky/ros2_ws/build/examples_rclcpp_minimal_publisher' returned '0': CMAKE_PREFIX_PATH=/opt/ros/humble /usr/bin/cmake --build /home/jacky/ros2_ws/build/examples_rclcpp_minimal_publisher -- -j16 -l16
Invoking command in '/home/jacky/ros2_ws/build/examples_rclcpp_minimal_publisher': CMAKE_PREFIX_PATH=/opt/ros/humble /usr/bin/cmake --install /home/jacky/ros2_ws/build/examples_rclcpp_minimal_publisher
Invoked command in '/home/jacky/ros2_ws/build/examples_rclcpp_minimal_publisher' returned '0': CMAKE_PREFIX_PATH=/opt/ros/humble /usr/bin/cmake --install /home/jacky/ros2_ws/build/examples_rclcpp_minimal_publisher
