[0mCMake Error: The source directory "/home/jacky/ros2_ws/ros_tutorials/turtlesim" does not exist.
Specify --help for usage, or press the help button on the CMake GUI.[0m
gmake: *** [Makefile:2504: cmake_check_build_system] Error 1
