digraph G {
"world" -> "turtle1"[label=" Broadcaster: default_authority\nAverage rate: 62.696\nBuffer length: 5.024\nMost recent transform: 1699029883.485441\nOldest transform: 1699029878.461178\n"];
"world" -> "turtle2"[label=" Broadcaster: default_authority\nAverage rate: 62.696\nBuffer length: 5.024\nMost recent transform: 1699029883.48544\nOldest transform: 1699029878.461227\n"];
edge [style=invis];
 subgraph cluster_legend { style=bold; color=black; label ="view_frames Result";
"Recorded at time: 1699029883.4902842"[ shape=plaintext ] ;
}->"world";
}