-- Found ament_cmake: 1.3.5 (/opt/ros/humble/share/ament_cmake/cmake)
-- Found rclcpp: 16.0.6 (/opt/ros/humble/share/rclcpp/cmake)
-- Found rosidl_generator_c: 3.1.5 (/opt/ros/humble/share/rosidl_generator_c/cmake)
-- Found rosidl_adapter: 3.1.5 (/opt/ros/humble/share/rosidl_adapter/cmake)
-- Found rosidl_generator_cpp: 3.1.5 (/opt/ros/humble/share/rosidl_generator_cpp/cmake)
-- Using all available rosidl_typesupport_c: rosidl_typesupport_fastrtps_c;rosidl_typesupport_introspection_c
-- Using all available rosidl_typesupport_cpp: rosidl_typesupport_fastrtps_cpp;rosidl_typesupport_introspection_cpp
-- Found rmw_implementation_cmake: 6.1.1 (/opt/ros/humble/share/rmw_implementation_cmake/cmake)
-- Found rmw_fastrtps_cpp: 6.2.4 (/opt/ros/humble/share/rmw_fastrtps_cpp/cmake)
-- Using RMW implementation 'rmw_fastrtps_cpp' as default
-- Found ament_cmake_gtest: 1.3.5 (/opt/ros/humble/share/ament_cmake_gtest/cmake)
-- Found gtest sources under '/opt/ros/humble/src/gtest_vendor': C++ tests using 'Google Test' will be built
-- Configuring done
-- Generating done
-- Build files have been written to: /home/jacky/ros2_test_ws/build/test_cpp
[35m[1mConsolidate compiler generated dependencies of target gtest_main[0m
[35m[1mConsolidate compiler generated dependencies of target gtest[0m
[ 50%] Built target gtest_main
[ 66%] Built target gtest
[35m[1mConsolidate compiler generated dependencies of target test_cpp_tutorial_test[0m
[100%] Built target test_cpp_tutorial_test
-- Install configuration: ""
-- Up-to-date: /home/jacky/ros2_test_ws/install/test_cpp/share/ament_index/resource_index/package_run_dependencies/test_cpp
-- Up-to-date: /home/jacky/ros2_test_ws/install/test_cpp/share/ament_index/resource_index/parent_prefix_path/test_cpp
-- Up-to-date: /home/jacky/ros2_test_ws/install/test_cpp/share/test_cpp/environment/ament_prefix_path.sh
-- Installing: /home/jacky/ros2_test_ws/install/test_cpp/share/test_cpp/environment/ament_prefix_path.dsv
-- Up-to-date: /home/jacky/ros2_test_ws/install/test_cpp/share/test_cpp/environment/path.sh
-- Installing: /home/jacky/ros2_test_ws/install/test_cpp/share/test_cpp/environment/path.dsv
-- Up-to-date: /home/jacky/ros2_test_ws/install/test_cpp/share/test_cpp/local_setup.bash
-- Up-to-date: /home/jacky/ros2_test_ws/install/test_cpp/share/test_cpp/local_setup.sh
-- Up-to-date: /home/jacky/ros2_test_ws/install/test_cpp/share/test_cpp/local_setup.zsh
-- Installing: /home/jacky/ros2_test_ws/install/test_cpp/share/test_cpp/local_setup.dsv
-- Installing: /home/jacky/ros2_test_ws/install/test_cpp/share/test_cpp/package.dsv
-- Up-to-date: /home/jacky/ros2_test_ws/install/test_cpp/share/ament_index/resource_index/packages/test_cpp
-- Up-to-date: /home/jacky/ros2_test_ws/install/test_cpp/share/test_cpp/cmake/test_cppConfig.cmake
-- Up-to-date: /home/jacky/ros2_test_ws/install/test_cpp/share/test_cpp/cmake/test_cppConfig-version.cmake
-- Up-to-date: /home/jacky/ros2_test_ws/install/test_cpp/share/test_cpp/package.xml
