9

https://web.whatsapp.com/
https://web.whatsapp.com/serviceworker.js
true
{0775d732-d63c-43fc-afbc-a2e18539369b}
0
1696943366683837
1696943366685899
1696943365996131
0
true
#

https://discourse.ros.org/
https://discourse.ros.org/service-worker.js
true
{4d64c9a4-3fff-4726-82d0-7697f3c4c0b7}
0
1696944426884301
1696944426884413
1696944426734592
0
true
#

https://forums.developer.nvidia.com/
https://forums.developer.nvidia.com/service-worker.js
true
{5320be7b-768c-4655-a4d4-49242ad649ec}
0
1696945086196287
1696945086196685
1696945085912277
0
true
#

https://anime1.me/
https://anime1.me/service-worker.js
true
{5b9307b5-13ae-4e90-9378-df6f98089107}
0
1698174881277332
1698174881277457
1698174881243822
0
true
#

https://www.quora.com/
https://www.quora.com/sw.js
false
{bfb2f3de-b5fa-4ada-bc45-2bfca42c5c44}
0
1698926532088268
1698926532094149
1698926531999960
0
true
#

https://blog.csdn.net/
https://blog.csdn.net/sw.js
false
{3cdb2aa2-6c62-4c70-a493-42fc19f4a739}
0
1698964930653310
1698964930653652
1698964930632001
0
true
#

https://discuss.python.org/
https://discuss.python.org/service-worker.js
true
{0dab5fd6-bbf4-498e-b21c-6468668b5856}
0
1698966189626742
1698966189626863
1698966189491685
0
true
#

https://www.evolver.bio/
https://www.evolver.bio/service-worker.js
true
{b75f57b4-b94b-4a6f-ac3a-1395e12ba4bf}
0
1699012025338761
1699012025338873
1699012025168561
0
true
#

https://get-help.robotigniteacademy.com/
https://get-help.robotigniteacademy.com/service-worker.js
true
{1b7b1e46-38fd-4b8f-80fc-7d6556a9ad5d}
0
1699093893687034
1699093893687237
1699093893032890
0
true
#

https://community.platformio.org/
https://community.platformio.org/service-worker.js
true
{669378f6-0763-4bfa-9291-bed53c621e9d}
0
1699118088866765
1699118088866891
1699118088579420
0
true
#

https://www.researchgate.net/publication/
https://www.researchgate.net/publication/lite.worker.js
true
{cdb6fdce-c277-4b42-9f10-42159de77ab4}
0
1699134062286772
1699134062287652
1699134062274760
0
true
#

https://www.wireshark.org/~partytown/
https://www.wireshark.org/~partytown/partytown-sw.js
true
{fde79ad8-0e6d-4f89-9f49-e0ef352e0f46}
0
1699528153064637
1699528153066481
1699528153035528
0
true
#

https://linuxize.com/
https://linuxize.com/sw.js
true
{bc2a09aa-e47a-419b-9423-eed711361207}
0
1699611914513519
1699611914514796
1699611913952155
0
true
#

https://forum.gitlab.com/
https://forum.gitlab.com/service-worker.js
true
{bcdbc03b-292c-44f7-97a3-b06f79e5a3b5}
0
1699730290564894
1699730290565065
1699730290397456
0
true
#
