[0.000000] (-) TimerEvent: {}
[0.000520] (-) JobUnselected: {'identifier': 'cpp_pubsub'}
[0.000552] (-) JobUnselected: {'identifier': 'cpp_srvcli'}
[0.000592] (-) JobUnselected: {'identifier': 'examples_rclcpp_async_client'}
[0.000658] (-) JobUnselected: {'identifier': 'examples_rclcpp_cbg_executor'}
[0.000729] (-) JobUnselected: {'identifier': 'examples_rclcpp_minimal_action_client'}
[0.000790] (-) JobUnselected: {'identifier': 'examples_rclcpp_minimal_action_server'}
[0.000805] (-) JobUnselected: {'identifier': 'examples_rclcpp_minimal_client'}
[0.000818] (-) JobUnselected: {'identifier': 'examples_rclcpp_minimal_composition'}
[0.000831] (-) JobUnselected: {'identifier': 'examples_rclcpp_minimal_publisher'}
[0.000845] (-) JobUnselected: {'identifier': 'examples_rclcpp_minimal_service'}
[0.000857] (-) JobUnselected: {'identifier': 'examples_rclcpp_minimal_subscriber'}
[0.000869] (-) JobUnselected: {'identifier': 'examples_rclcpp_minimal_timer'}
[0.000881] (-) JobUnselected: {'identifier': 'examples_rclcpp_multithreaded_executor'}
[0.000893] (-) JobUnselected: {'identifier': 'examples_rclcpp_wait_set'}
[0.000905] (-) JobUnselected: {'identifier': 'examples_rclpy_executors'}
[0.000917] (-) JobUnselected: {'identifier': 'examples_rclpy_guard_conditions'}
[0.000929] (-) JobUnselected: {'identifier': 'examples_rclpy_minimal_action_client'}
[0.000942] (-) JobUnselected: {'identifier': 'examples_rclpy_minimal_action_server'}
[0.000955] (-) JobUnselected: {'identifier': 'examples_rclpy_minimal_client'}
[0.000972] (-) JobUnselected: {'identifier': 'examples_rclpy_minimal_publisher'}
[0.000987] (-) JobUnselected: {'identifier': 'examples_rclpy_minimal_service'}
[0.001002] (-) JobUnselected: {'identifier': 'examples_rclpy_minimal_subscriber'}
[0.001016] (-) JobUnselected: {'identifier': 'examples_rclpy_pointcloud_publisher'}
[0.001032] (-) JobUnselected: {'identifier': 'launch_testing_examples'}
[0.001045] (-) JobUnselected: {'identifier': 'my_package'}
[0.001057] (-) JobUnselected: {'identifier': 'my_py_package'}
[0.001070] (-) JobUnselected: {'identifier': 'py_pubsub'}
[0.001082] (-) JobUnselected: {'identifier': 'py_srvcli'}
[0.001094] (-) JobUnselected: {'identifier': 'turtlesim'}
[0.001106] (-) JobUnselected: {'identifier': 'tutorial_interfaces'}
[0.001120] (more_interfaces) JobQueued: {'identifier': 'more_interfaces', 'dependencies': OrderedDict()}
[0.001136] (more_interfaces) JobStarted: {'identifier': 'more_interfaces'}
[0.060983] (more_interfaces) JobProgress: {'identifier': 'more_interfaces', 'progress': 'cmake'}
[0.061540] (more_interfaces) JobProgress: {'identifier': 'more_interfaces', 'progress': 'build'}
[0.062262] (more_interfaces) Command: {'cmd': ['/usr/bin/cmake', '--build', '/home/jacky/ros2_ws/build/more_interfaces', '--', '-j16', '-l16'], 'cwd': '/home/jacky/ros2_ws/build/more_interfaces', 'env': OrderedDict([('LESSOPEN', '| /usr/bin/lesspipe %s'), ('USER', 'jacky'), ('LC_TIME', 'de_DE.UTF-8'), ('XDG_SESSION_TYPE', 'wayland'), ('SHLVL', '1'), ('LD_LIBRARY_PATH', '/home/jacky/ros2_ws/install/tutorial_interfaces/lib:/home/jacky/ros2_ws/install/turtlesim/lib:/home/jacky/ros2_ws/install/more_interfaces/lib:/home/jacky/ros2_ws/install/examples_rclcpp_wait_set/lib:/home/jacky/ros2_ws/install/examples_rclcpp_minimal_subscriber/lib:/home/jacky/ros2_ws/install/examples_rclcpp_minimal_composition/lib:/opt/ros/humble/opt/rviz_ogre_vendor/lib:/opt/ros/humble/lib/x86_64-linux-gnu:/opt/ros/humble/lib'), ('HOME', '/home/jacky'), ('OLDPWD', '/home/jacky'), ('DESKTOP_SESSION', 'ubuntu'), ('ROS_PYTHON_VERSION', '3'), ('GNOME_SHELL_SESSION_MODE', 'ubuntu'), ('GTK_MODULES', 'gail:atk-bridge'), ('LC_MONETARY', 'de_DE.UTF-8'), ('SYSTEMD_EXEC_PID', '1297'), ('DBUS_SESSION_BUS_ADDRESS', 'unix:path=/run/user/1000/bus'), ('COLORTERM', 'truecolor'), ('_colcon_cd_root', '/opt/ros/humble/'), ('IM_CONFIG_PHASE', '1'), ('WAYLAND_DISPLAY', 'wayland-0'), ('COLCON_PREFIX_PATH', '/home/jacky/ros2_ws/install'), ('ROS_DISTRO', 'humble'), ('LOGNAME', 'jacky'), ('_', '/usr/bin/colcon'), ('ROS_VERSION', '2'), ('XDG_SESSION_CLASS', 'user'), ('USERNAME', 'jacky'), ('TERM', 'xterm-256color'), ('GNOME_DESKTOP_SESSION_ID', 'this-is-deprecated'), ('ROS_LOCALHOST_ONLY', '0'), ('PATH', '/opt/ros/humble/bin:/home/jacky/.local/bin:/usr/local/sbin:/usr/local/bin:/usr/sbin:/usr/bin:/sbin:/bin:/usr/games:/usr/local/games:/snap/bin:/snap/bin'), ('SESSION_MANAGER', 'local/Alienware-m15-JK:@/tmp/.ICE-unix/1271,unix/Alienware-m15-JK:/tmp/.ICE-unix/1271'), ('XDG_MENU_PREFIX', 'gnome-'), ('LC_ADDRESS', 'de_DE.UTF-8'), ('GNOME_TERMINAL_SCREEN', '/org/gnome/Terminal/screen/a57c4a2b_74fb_49ab_ab3e_1cf6e183e98b'), ('GNOME_SETUP_DISPLAY', ':1'), ('XDG_RUNTIME_DIR', '/run/user/1000'), ('DISPLAY', ':0'), ('LANG', 'en_US.UTF-8'), ('XDG_CURRENT_DESKTOP', 'ubuntu:GNOME'), ('LC_TELEPHONE', 'de_DE.UTF-8'), ('XMODIFIERS', '@im=ibus'), ('XDG_SESSION_DESKTOP', 'ubuntu'), ('XAUTHORITY', '/run/user/1000/.mutter-Xwaylandauth.XRV6C2'), ('LS_COLORS', 'rs=0:di=01;34:ln=01;36:mh=00:pi=40;33:so=01;35:do=01;35:bd=40;33;01:cd=40;33;01:or=40;31;01:mi=00:su=37;41:sg=30;43:ca=30;41:tw=30;42:ow=34;42:st=37;44:ex=01;32:*.tar=01;31:*.tgz=01;31:*.arc=01;31:*.arj=01;31:*.taz=01;31:*.lha=01;31:*.lz4=01;31:*.lzh=01;31:*.lzma=01;31:*.tlz=01;31:*.txz=01;31:*.tzo=01;31:*.t7z=01;31:*.zip=01;31:*.z=01;31:*.dz=01;31:*.gz=01;31:*.lrz=01;31:*.lz=01;31:*.lzo=01;31:*.xz=01;31:*.zst=01;31:*.tzst=01;31:*.bz2=01;31:*.bz=01;31:*.tbz=01;31:*.tbz2=01;31:*.tz=01;31:*.deb=01;31:*.rpm=01;31:*.jar=01;31:*.war=01;31:*.ear=01;31:*.sar=01;31:*.rar=01;31:*.alz=01;31:*.ace=01;31:*.zoo=01;31:*.cpio=01;31:*.7z=01;31:*.rz=01;31:*.cab=01;31:*.wim=01;31:*.swm=01;31:*.dwm=01;31:*.esd=01;31:*.jpg=01;35:*.jpeg=01;35:*.mjpg=01;35:*.mjpeg=01;35:*.gif=01;35:*.bmp=01;35:*.pbm=01;35:*.pgm=01;35:*.ppm=01;35:*.tga=01;35:*.xbm=01;35:*.xpm=01;35:*.tif=01;35:*.tiff=01;35:*.png=01;35:*.svg=01;35:*.svgz=01;35:*.mng=01;35:*.pcx=01;35:*.mov=01;35:*.mpg=01;35:*.mpeg=01;35:*.m2v=01;35:*.mkv=01;35:*.webm=01;35:*.webp=01;35:*.ogm=01;35:*.mp4=01;35:*.m4v=01;35:*.mp4v=01;35:*.vob=01;35:*.qt=01;35:*.nuv=01;35:*.wmv=01;35:*.asf=01;35:*.rm=01;35:*.rmvb=01;35:*.flc=01;35:*.avi=01;35:*.fli=01;35:*.flv=01;35:*.gl=01;35:*.dl=01;35:*.xcf=01;35:*.xwd=01;35:*.yuv=01;35:*.cgm=01;35:*.emf=01;35:*.ogv=01;35:*.ogx=01;35:*.aac=00;36:*.au=00;36:*.flac=00;36:*.m4a=00;36:*.mid=00;36:*.midi=00;36:*.mka=00;36:*.mp3=00;36:*.mpc=00;36:*.ogg=00;36:*.ra=00;36:*.wav=00;36:*.oga=00;36:*.opus=00;36:*.spx=00;36:*.xspf=00;36:'), ('GNOME_TERMINAL_SERVICE', ':1.146'), ('SSH_AGENT_LAUNCHER', 'gnome-keyring'), ('SSH_AUTH_SOCK', '/run/user/1000/keyring/ssh'), ('AMENT_PREFIX_PATH', '/home/jacky/ros2_ws/install/cpp_srvcli:/home/jacky/ros2_ws/install/cpp_pubsub:/home/jacky/ros2_ws/install/tutorial_interfaces:/home/jacky/ros2_ws/install/turtlesim:/home/jacky/ros2_ws/install/py_srvcli:/home/jacky/ros2_ws/install/py_pubsub:/home/jacky/ros2_ws/install/my_py_package:/home/jacky/ros2_ws/install/more_interfaces:/home/jacky/ros2_ws/install/launch_testing_examples:/home/jacky/ros2_ws/install/examples_rclpy_pointcloud_publisher:/home/jacky/ros2_ws/install/examples_rclpy_minimal_subscriber:/home/jacky/ros2_ws/install/examples_rclpy_minimal_service:/home/jacky/ros2_ws/install/examples_rclpy_minimal_publisher:/home/jacky/ros2_ws/install/examples_rclpy_minimal_client:/home/jacky/ros2_ws/install/examples_rclpy_minimal_action_server:/home/jacky/ros2_ws/install/examples_rclpy_minimal_action_client:/home/jacky/ros2_ws/install/examples_rclpy_guard_conditions:/home/jacky/ros2_ws/install/examples_rclpy_executors:/home/jacky/ros2_ws/install/examples_rclcpp_wait_set:/home/jacky/ros2_ws/install/examples_rclcpp_multithreaded_executor:/home/jacky/ros2_ws/install/examples_rclcpp_minimal_timer:/home/jacky/ros2_ws/install/examples_rclcpp_minimal_subscriber:/home/jacky/ros2_ws/install/examples_rclcpp_minimal_service:/home/jacky/ros2_ws/install/examples_rclcpp_minimal_publisher:/home/jacky/ros2_ws/install/examples_rclcpp_minimal_composition:/home/jacky/ros2_ws/install/examples_rclcpp_minimal_client:/home/jacky/ros2_ws/install/examples_rclcpp_minimal_action_server:/home/jacky/ros2_ws/install/examples_rclcpp_minimal_action_client:/home/jacky/ros2_ws/install/examples_rclcpp_cbg_executor:/home/jacky/ros2_ws/install/examples_rclcpp_async_client:/opt/ros/humble'), ('SHELL', '/bin/bash'), ('LC_NAME', 'de_DE.UTF-8'), ('QT_ACCESSIBILITY', '1'), ('GDMSESSION', 'ubuntu'), ('LESSCLOSE', '/usr/bin/lesspipe %s %s'), ('LC_MEASUREMENT', 'de_DE.UTF-8'), ('LC_IDENTIFICATION', 'de_DE.UTF-8'), ('QT_IM_MODULE', 'ibus'), ('PWD', '/home/jacky/ros2_ws/build/more_interfaces'), ('LC_ALL', 'en_US.UTF-8'), ('XDG_CONFIG_DIRS', '/etc/xdg/xdg-ubuntu:/etc/xdg'), ('XDG_DATA_DIRS', '/usr/share/ubuntu:/usr/local/share/:/usr/share/:/var/lib/snapd/desktop'), ('PYTHONPATH', '/home/jacky/ros2_ws/install/tutorial_interfaces/local/lib/python3.10/dist-packages:/home/jacky/ros2_ws/install/turtlesim/local/lib/python3.10/dist-packages:/home/jacky/ros2_ws/install/py_srvcli/lib/python3.10/site-packages:/home/jacky/ros2_ws/install/py_pubsub/lib/python3.10/site-packages:/home/jacky/ros2_ws/install/my_py_package/lib/python3.10/site-packages:/home/jacky/ros2_ws/install/more_interfaces/local/lib/python3.10/dist-packages:/home/jacky/ros2_ws/install/launch_testing_examples/lib/python3.10/site-packages:/home/jacky/ros2_ws/install/examples_rclpy_pointcloud_publisher/lib/python3.10/site-packages:/home/jacky/ros2_ws/install/examples_rclpy_minimal_subscriber/lib/python3.10/site-packages:/home/jacky/ros2_ws/install/examples_rclpy_minimal_service/lib/python3.10/site-packages:/home/jacky/ros2_ws/install/examples_rclpy_minimal_publisher/lib/python3.10/site-packages:/home/jacky/ros2_ws/install/examples_rclpy_minimal_client/lib/python3.10/site-packages:/home/jacky/ros2_ws/install/examples_rclpy_minimal_action_server/lib/python3.10/site-packages:/home/jacky/ros2_ws/install/examples_rclpy_minimal_action_client/lib/python3.10/site-packages:/home/jacky/ros2_ws/install/examples_rclpy_guard_conditions/lib/python3.10/site-packages:/home/jacky/ros2_ws/install/examples_rclpy_executors/lib/python3.10/site-packages:/opt/ros/humble/lib/python3.10/site-packages:/opt/ros/humble/local/lib/python3.10/dist-packages'), ('LC_NUMERIC', 'de_DE.UTF-8'), ('LC_PAPER', 'de_DE.UTF-8'), ('COLCON', '1'), ('VTE_VERSION', '6800'), ('CMAKE_PREFIX_PATH', '/home/jacky/ros2_ws/install/cpp_srvcli:/home/jacky/ros2_ws/install/cpp_pubsub:/home/jacky/ros2_ws/install/tutorial_interfaces:/home/jacky/ros2_ws/install/turtlesim:/home/jacky/ros2_ws/install/more_interfaces:/home/jacky/ros2_ws/install/examples_rclcpp_wait_set:/home/jacky/ros2_ws/install/examples_rclcpp_multithreaded_executor:/home/jacky/ros2_ws/install/examples_rclcpp_minimal_timer:/home/jacky/ros2_ws/install/examples_rclcpp_minimal_subscriber:/home/jacky/ros2_ws/install/examples_rclcpp_minimal_service:/home/jacky/ros2_ws/install/examples_rclcpp_minimal_publisher:/home/jacky/ros2_ws/install/examples_rclcpp_minimal_composition:/home/jacky/ros2_ws/install/examples_rclcpp_minimal_client:/home/jacky/ros2_ws/install/examples_rclcpp_minimal_action_server:/home/jacky/ros2_ws/install/examples_rclcpp_minimal_action_client:/home/jacky/ros2_ws/install/examples_rclcpp_cbg_executor:/home/jacky/ros2_ws/install/examples_rclcpp_async_client:/home/jacky/ros2_ws/install/py_srvcli:/home/jacky/ros2_ws/install/py_pubsub:/home/jacky/ros2_ws/install/my_py_package:/home/jacky/ros2_ws/install/launch_testing_examples:/home/jacky/ros2_ws/install/examples_rclpy_pointcloud_publisher:/home/jacky/ros2_ws/install/examples_rclpy_minimal_subscriber:/home/jacky/ros2_ws/install/examples_rclpy_minimal_service:/home/jacky/ros2_ws/install/examples_rclpy_minimal_publisher:/home/jacky/ros2_ws/install/examples_rclpy_minimal_client:/home/jacky/ros2_ws/install/examples_rclpy_minimal_action_server:/home/jacky/ros2_ws/install/examples_rclpy_minimal_action_client:/home/jacky/ros2_ws/install/examples_rclpy_guard_conditions:/home/jacky/ros2_ws/install/examples_rclpy_executors:/opt/ros/humble')]), 'shell': False}
[0.099747] (-) TimerEvent: {}
[0.118374] (more_interfaces) StdoutLine: {'line': b'[  2%] Built target more_interfaces__cpp\n'}
[0.118805] (more_interfaces) StdoutLine: {'line': b'[ 11%] Built target more_interfaces__rosidl_generator_c\n'}
[0.129391] (more_interfaces) StdoutLine: {'line': b'[ 11%] Built target ament_cmake_python_copy_more_interfaces\n'}
[0.141629] (more_interfaces) StdoutLine: {'line': b'[ 20%] Built target more_interfaces__rosidl_typesupport_introspection_cpp\n'}
[0.141882] (more_interfaces) StdoutLine: {'line': b'[ 31%] Built target more_interfaces__rosidl_typesupport_fastrtps_cpp\n'}
[0.142011] (more_interfaces) StdoutLine: {'line': b'[ 37%] Built target more_interfaces__rosidl_typesupport_cpp\n'}
[0.153523] (more_interfaces) StdoutLine: {'line': b'[ 62%] Built target more_interfaces__rosidl_typesupport_c\n'}
[0.153755] (more_interfaces) StdoutLine: {'line': b'[ 62%] Built target more_interfaces__rosidl_typesupport_introspection_c\n'}
[0.153871] (more_interfaces) StdoutLine: {'line': b'[ 62%] Built target more_interfaces__rosidl_typesupport_fastrtps_c\n'}
[0.155315] (more_interfaces) StdoutLine: {'line': b'\x1b[35m\x1b[1mConsolidate compiler generated dependencies of target subscribe_address_book\x1b[0m\n'}
[0.170503] (more_interfaces) StdoutLine: {'line': b'[ 68%] Built target publish_address_book\n'}
[0.175909] (more_interfaces) StdoutLine: {'line': b'[ 71%] \x1b[32mBuilding CXX object CMakeFiles/subscribe_address_book.dir/src/subscribe_address_book.cpp.o\x1b[0m\n'}
[0.177071] (more_interfaces) StdoutLine: {'line': b'[ 71%] Built target more_interfaces\n'}
[0.199835] (-) TimerEvent: {}
[0.201092] (more_interfaces) StdoutLine: {'line': b'[ 74%] Built target more_interfaces__py\n'}
[0.227928] (more_interfaces) StdoutLine: {'line': b'[ 80%] Built target more_interfaces__rosidl_generator_py\n'}
[0.253806] (more_interfaces) StdoutLine: {'line': b'[ 97%] Built target more_interfaces__rosidl_typesupport_fastrtps_c__pyext\n'}
[0.254074] (more_interfaces) StdoutLine: {'line': b'[ 97%] Built target more_interfaces__rosidl_typesupport_introspection_c__pyext\n'}
[0.254146] (more_interfaces) StdoutLine: {'line': b'[ 97%] Built target more_interfaces__rosidl_typesupport_c__pyext\n'}
[0.299939] (-) TimerEvent: {}
[0.364516] (more_interfaces) StdoutLine: {'line': b'running egg_info\n'}
[0.365047] (more_interfaces) StdoutLine: {'line': b'writing more_interfaces.egg-info/PKG-INFO\n'}
[0.365250] (more_interfaces) StdoutLine: {'line': b'writing dependency_links to more_interfaces.egg-info/dependency_links.txt\n'}
[0.365405] (more_interfaces) StdoutLine: {'line': b'writing top-level names to more_interfaces.egg-info/top_level.txt\n'}
[0.367208] (more_interfaces) StdoutLine: {'line': b"reading manifest file 'more_interfaces.egg-info/SOURCES.txt'\n"}
[0.367829] (more_interfaces) StdoutLine: {'line': b"writing manifest file 'more_interfaces.egg-info/SOURCES.txt'\n"}
[0.396632] (more_interfaces) StdoutLine: {'line': b'[ 97%] Built target ament_cmake_python_build_more_interfaces_egg\n'}
[0.400011] (-) TimerEvent: {}
[0.500286] (-) TimerEvent: {}
[0.600546] (-) TimerEvent: {}
[0.700796] (-) TimerEvent: {}
[0.801053] (-) TimerEvent: {}
[0.901318] (-) TimerEvent: {}
[1.001585] (-) TimerEvent: {}
[1.101933] (-) TimerEvent: {}
[1.202218] (-) TimerEvent: {}
[1.302482] (-) TimerEvent: {}
[1.402750] (-) TimerEvent: {}
[1.503032] (-) TimerEvent: {}
[1.603303] (-) TimerEvent: {}
[1.703577] (-) TimerEvent: {}
[1.803850] (-) TimerEvent: {}
[1.904125] (-) TimerEvent: {}
[2.004405] (-) TimerEvent: {}
[2.104680] (-) TimerEvent: {}
[2.204976] (-) TimerEvent: {}
[2.305265] (-) TimerEvent: {}
[2.405538] (-) TimerEvent: {}
[2.505808] (-) TimerEvent: {}
[2.606079] (-) TimerEvent: {}
[2.706351] (-) TimerEvent: {}
[2.806623] (-) TimerEvent: {}
[2.906899] (-) TimerEvent: {}
[3.007173] (-) TimerEvent: {}
[3.107464] (-) TimerEvent: {}
[3.207757] (-) TimerEvent: {}
[3.308068] (-) TimerEvent: {}
[3.408432] (-) TimerEvent: {}
[3.508729] (-) TimerEvent: {}
[3.609160] (-) TimerEvent: {}
[3.709550] (-) TimerEvent: {}
[3.809812] (-) TimerEvent: {}
[3.910103] (-) TimerEvent: {}
[4.010390] (-) TimerEvent: {}
[4.110668] (-) TimerEvent: {}
[4.210947] (-) TimerEvent: {}
[4.311277] (-) TimerEvent: {}
[4.411603] (-) TimerEvent: {}
[4.511871] (-) TimerEvent: {}
[4.612139] (-) TimerEvent: {}
[4.712394] (-) TimerEvent: {}
[4.812673] (-) TimerEvent: {}
[4.912945] (-) TimerEvent: {}
[5.013211] (-) TimerEvent: {}
[5.113472] (-) TimerEvent: {}
[5.213744] (-) TimerEvent: {}
[5.314072] (-) TimerEvent: {}
[5.414367] (-) TimerEvent: {}
[5.514669] (-) TimerEvent: {}
[5.614979] (-) TimerEvent: {}
[5.715255] (-) TimerEvent: {}
[5.815526] (-) TimerEvent: {}
[5.915791] (-) TimerEvent: {}
[6.016057] (-) TimerEvent: {}
[6.116313] (-) TimerEvent: {}
[6.216593] (-) TimerEvent: {}
[6.316933] (-) TimerEvent: {}
[6.417261] (-) TimerEvent: {}
[6.459699] (more_interfaces) StdoutLine: {'line': b'[100%] \x1b[32m\x1b[1mLinking CXX executable subscribe_address_book\x1b[0m\n'}
[6.517369] (-) TimerEvent: {}
[6.617658] (-) TimerEvent: {}
[6.717990] (-) TimerEvent: {}
[6.740712] (more_interfaces) StdoutLine: {'line': b'[100%] Built target subscribe_address_book\n'}
[6.753330] (more_interfaces) CommandEnded: {'returncode': 0}
[6.818061] (-) TimerEvent: {}
[6.831417] (more_interfaces) JobProgress: {'identifier': 'more_interfaces', 'progress': 'install'}
[6.841505] (more_interfaces) Command: {'cmd': ['/usr/bin/cmake', '--install', '/home/jacky/ros2_ws/build/more_interfaces'], 'cwd': '/home/jacky/ros2_ws/build/more_interfaces', 'env': OrderedDict([('LESSOPEN', '| /usr/bin/lesspipe %s'), ('USER', 'jacky'), ('LC_TIME', 'de_DE.UTF-8'), ('XDG_SESSION_TYPE', 'wayland'), ('SHLVL', '1'), ('LD_LIBRARY_PATH', '/home/jacky/ros2_ws/install/tutorial_interfaces/lib:/home/jacky/ros2_ws/install/turtlesim/lib:/home/jacky/ros2_ws/install/more_interfaces/lib:/home/jacky/ros2_ws/install/examples_rclcpp_wait_set/lib:/home/jacky/ros2_ws/install/examples_rclcpp_minimal_subscriber/lib:/home/jacky/ros2_ws/install/examples_rclcpp_minimal_composition/lib:/opt/ros/humble/opt/rviz_ogre_vendor/lib:/opt/ros/humble/lib/x86_64-linux-gnu:/opt/ros/humble/lib'), ('HOME', '/home/jacky'), ('OLDPWD', '/home/jacky'), ('DESKTOP_SESSION', 'ubuntu'), ('ROS_PYTHON_VERSION', '3'), ('GNOME_SHELL_SESSION_MODE', 'ubuntu'), ('GTK_MODULES', 'gail:atk-bridge'), ('LC_MONETARY', 'de_DE.UTF-8'), ('SYSTEMD_EXEC_PID', '1297'), ('DBUS_SESSION_BUS_ADDRESS', 'unix:path=/run/user/1000/bus'), ('COLORTERM', 'truecolor'), ('_colcon_cd_root', '/opt/ros/humble/'), ('IM_CONFIG_PHASE', '1'), ('WAYLAND_DISPLAY', 'wayland-0'), ('COLCON_PREFIX_PATH', '/home/jacky/ros2_ws/install'), ('ROS_DISTRO', 'humble'), ('LOGNAME', 'jacky'), ('_', '/usr/bin/colcon'), ('ROS_VERSION', '2'), ('XDG_SESSION_CLASS', 'user'), ('USERNAME', 'jacky'), ('TERM', 'xterm-256color'), ('GNOME_DESKTOP_SESSION_ID', 'this-is-deprecated'), ('ROS_LOCALHOST_ONLY', '0'), ('PATH', '/opt/ros/humble/bin:/home/jacky/.local/bin:/usr/local/sbin:/usr/local/bin:/usr/sbin:/usr/bin:/sbin:/bin:/usr/games:/usr/local/games:/snap/bin:/snap/bin'), ('SESSION_MANAGER', 'local/Alienware-m15-JK:@/tmp/.ICE-unix/1271,unix/Alienware-m15-JK:/tmp/.ICE-unix/1271'), ('XDG_MENU_PREFIX', 'gnome-'), ('LC_ADDRESS', 'de_DE.UTF-8'), ('GNOME_TERMINAL_SCREEN', '/org/gnome/Terminal/screen/a57c4a2b_74fb_49ab_ab3e_1cf6e183e98b'), ('GNOME_SETUP_DISPLAY', ':1'), ('XDG_RUNTIME_DIR', '/run/user/1000'), ('DISPLAY', ':0'), ('LANG', 'en_US.UTF-8'), ('XDG_CURRENT_DESKTOP', 'ubuntu:GNOME'), ('LC_TELEPHONE', 'de_DE.UTF-8'), ('XMODIFIERS', '@im=ibus'), ('XDG_SESSION_DESKTOP', 'ubuntu'), ('XAUTHORITY', '/run/user/1000/.mutter-Xwaylandauth.XRV6C2'), ('LS_COLORS', 'rs=0:di=01;34:ln=01;36:mh=00:pi=40;33:so=01;35:do=01;35:bd=40;33;01:cd=40;33;01:or=40;31;01:mi=00:su=37;41:sg=30;43:ca=30;41:tw=30;42:ow=34;42:st=37;44:ex=01;32:*.tar=01;31:*.tgz=01;31:*.arc=01;31:*.arj=01;31:*.taz=01;31:*.lha=01;31:*.lz4=01;31:*.lzh=01;31:*.lzma=01;31:*.tlz=01;31:*.txz=01;31:*.tzo=01;31:*.t7z=01;31:*.zip=01;31:*.z=01;31:*.dz=01;31:*.gz=01;31:*.lrz=01;31:*.lz=01;31:*.lzo=01;31:*.xz=01;31:*.zst=01;31:*.tzst=01;31:*.bz2=01;31:*.bz=01;31:*.tbz=01;31:*.tbz2=01;31:*.tz=01;31:*.deb=01;31:*.rpm=01;31:*.jar=01;31:*.war=01;31:*.ear=01;31:*.sar=01;31:*.rar=01;31:*.alz=01;31:*.ace=01;31:*.zoo=01;31:*.cpio=01;31:*.7z=01;31:*.rz=01;31:*.cab=01;31:*.wim=01;31:*.swm=01;31:*.dwm=01;31:*.esd=01;31:*.jpg=01;35:*.jpeg=01;35:*.mjpg=01;35:*.mjpeg=01;35:*.gif=01;35:*.bmp=01;35:*.pbm=01;35:*.pgm=01;35:*.ppm=01;35:*.tga=01;35:*.xbm=01;35:*.xpm=01;35:*.tif=01;35:*.tiff=01;35:*.png=01;35:*.svg=01;35:*.svgz=01;35:*.mng=01;35:*.pcx=01;35:*.mov=01;35:*.mpg=01;35:*.mpeg=01;35:*.m2v=01;35:*.mkv=01;35:*.webm=01;35:*.webp=01;35:*.ogm=01;35:*.mp4=01;35:*.m4v=01;35:*.mp4v=01;35:*.vob=01;35:*.qt=01;35:*.nuv=01;35:*.wmv=01;35:*.asf=01;35:*.rm=01;35:*.rmvb=01;35:*.flc=01;35:*.avi=01;35:*.fli=01;35:*.flv=01;35:*.gl=01;35:*.dl=01;35:*.xcf=01;35:*.xwd=01;35:*.yuv=01;35:*.cgm=01;35:*.emf=01;35:*.ogv=01;35:*.ogx=01;35:*.aac=00;36:*.au=00;36:*.flac=00;36:*.m4a=00;36:*.mid=00;36:*.midi=00;36:*.mka=00;36:*.mp3=00;36:*.mpc=00;36:*.ogg=00;36:*.ra=00;36:*.wav=00;36:*.oga=00;36:*.opus=00;36:*.spx=00;36:*.xspf=00;36:'), ('GNOME_TERMINAL_SERVICE', ':1.146'), ('SSH_AGENT_LAUNCHER', 'gnome-keyring'), ('SSH_AUTH_SOCK', '/run/user/1000/keyring/ssh'), ('AMENT_PREFIX_PATH', '/home/jacky/ros2_ws/install/cpp_srvcli:/home/jacky/ros2_ws/install/cpp_pubsub:/home/jacky/ros2_ws/install/tutorial_interfaces:/home/jacky/ros2_ws/install/turtlesim:/home/jacky/ros2_ws/install/py_srvcli:/home/jacky/ros2_ws/install/py_pubsub:/home/jacky/ros2_ws/install/my_py_package:/home/jacky/ros2_ws/install/more_interfaces:/home/jacky/ros2_ws/install/launch_testing_examples:/home/jacky/ros2_ws/install/examples_rclpy_pointcloud_publisher:/home/jacky/ros2_ws/install/examples_rclpy_minimal_subscriber:/home/jacky/ros2_ws/install/examples_rclpy_minimal_service:/home/jacky/ros2_ws/install/examples_rclpy_minimal_publisher:/home/jacky/ros2_ws/install/examples_rclpy_minimal_client:/home/jacky/ros2_ws/install/examples_rclpy_minimal_action_server:/home/jacky/ros2_ws/install/examples_rclpy_minimal_action_client:/home/jacky/ros2_ws/install/examples_rclpy_guard_conditions:/home/jacky/ros2_ws/install/examples_rclpy_executors:/home/jacky/ros2_ws/install/examples_rclcpp_wait_set:/home/jacky/ros2_ws/install/examples_rclcpp_multithreaded_executor:/home/jacky/ros2_ws/install/examples_rclcpp_minimal_timer:/home/jacky/ros2_ws/install/examples_rclcpp_minimal_subscriber:/home/jacky/ros2_ws/install/examples_rclcpp_minimal_service:/home/jacky/ros2_ws/install/examples_rclcpp_minimal_publisher:/home/jacky/ros2_ws/install/examples_rclcpp_minimal_composition:/home/jacky/ros2_ws/install/examples_rclcpp_minimal_client:/home/jacky/ros2_ws/install/examples_rclcpp_minimal_action_server:/home/jacky/ros2_ws/install/examples_rclcpp_minimal_action_client:/home/jacky/ros2_ws/install/examples_rclcpp_cbg_executor:/home/jacky/ros2_ws/install/examples_rclcpp_async_client:/opt/ros/humble'), ('SHELL', '/bin/bash'), ('LC_NAME', 'de_DE.UTF-8'), ('QT_ACCESSIBILITY', '1'), ('GDMSESSION', 'ubuntu'), ('LESSCLOSE', '/usr/bin/lesspipe %s %s'), ('LC_MEASUREMENT', 'de_DE.UTF-8'), ('LC_IDENTIFICATION', 'de_DE.UTF-8'), ('QT_IM_MODULE', 'ibus'), ('PWD', '/home/jacky/ros2_ws/build/more_interfaces'), ('LC_ALL', 'en_US.UTF-8'), ('XDG_CONFIG_DIRS', '/etc/xdg/xdg-ubuntu:/etc/xdg'), ('XDG_DATA_DIRS', '/usr/share/ubuntu:/usr/local/share/:/usr/share/:/var/lib/snapd/desktop'), ('PYTHONPATH', '/home/jacky/ros2_ws/install/tutorial_interfaces/local/lib/python3.10/dist-packages:/home/jacky/ros2_ws/install/turtlesim/local/lib/python3.10/dist-packages:/home/jacky/ros2_ws/install/py_srvcli/lib/python3.10/site-packages:/home/jacky/ros2_ws/install/py_pubsub/lib/python3.10/site-packages:/home/jacky/ros2_ws/install/my_py_package/lib/python3.10/site-packages:/home/jacky/ros2_ws/install/more_interfaces/local/lib/python3.10/dist-packages:/home/jacky/ros2_ws/install/launch_testing_examples/lib/python3.10/site-packages:/home/jacky/ros2_ws/install/examples_rclpy_pointcloud_publisher/lib/python3.10/site-packages:/home/jacky/ros2_ws/install/examples_rclpy_minimal_subscriber/lib/python3.10/site-packages:/home/jacky/ros2_ws/install/examples_rclpy_minimal_service/lib/python3.10/site-packages:/home/jacky/ros2_ws/install/examples_rclpy_minimal_publisher/lib/python3.10/site-packages:/home/jacky/ros2_ws/install/examples_rclpy_minimal_client/lib/python3.10/site-packages:/home/jacky/ros2_ws/install/examples_rclpy_minimal_action_server/lib/python3.10/site-packages:/home/jacky/ros2_ws/install/examples_rclpy_minimal_action_client/lib/python3.10/site-packages:/home/jacky/ros2_ws/install/examples_rclpy_guard_conditions/lib/python3.10/site-packages:/home/jacky/ros2_ws/install/examples_rclpy_executors/lib/python3.10/site-packages:/opt/ros/humble/lib/python3.10/site-packages:/opt/ros/humble/local/lib/python3.10/dist-packages'), ('LC_NUMERIC', 'de_DE.UTF-8'), ('LC_PAPER', 'de_DE.UTF-8'), ('COLCON', '1'), ('VTE_VERSION', '6800'), ('CMAKE_PREFIX_PATH', '/home/jacky/ros2_ws/install/cpp_srvcli:/home/jacky/ros2_ws/install/cpp_pubsub:/home/jacky/ros2_ws/install/tutorial_interfaces:/home/jacky/ros2_ws/install/turtlesim:/home/jacky/ros2_ws/install/more_interfaces:/home/jacky/ros2_ws/install/examples_rclcpp_wait_set:/home/jacky/ros2_ws/install/examples_rclcpp_multithreaded_executor:/home/jacky/ros2_ws/install/examples_rclcpp_minimal_timer:/home/jacky/ros2_ws/install/examples_rclcpp_minimal_subscriber:/home/jacky/ros2_ws/install/examples_rclcpp_minimal_service:/home/jacky/ros2_ws/install/examples_rclcpp_minimal_publisher:/home/jacky/ros2_ws/install/examples_rclcpp_minimal_composition:/home/jacky/ros2_ws/install/examples_rclcpp_minimal_client:/home/jacky/ros2_ws/install/examples_rclcpp_minimal_action_server:/home/jacky/ros2_ws/install/examples_rclcpp_minimal_action_client:/home/jacky/ros2_ws/install/examples_rclcpp_cbg_executor:/home/jacky/ros2_ws/install/examples_rclcpp_async_client:/home/jacky/ros2_ws/install/py_srvcli:/home/jacky/ros2_ws/install/py_pubsub:/home/jacky/ros2_ws/install/my_py_package:/home/jacky/ros2_ws/install/launch_testing_examples:/home/jacky/ros2_ws/install/examples_rclpy_pointcloud_publisher:/home/jacky/ros2_ws/install/examples_rclpy_minimal_subscriber:/home/jacky/ros2_ws/install/examples_rclpy_minimal_service:/home/jacky/ros2_ws/install/examples_rclpy_minimal_publisher:/home/jacky/ros2_ws/install/examples_rclpy_minimal_client:/home/jacky/ros2_ws/install/examples_rclpy_minimal_action_server:/home/jacky/ros2_ws/install/examples_rclpy_minimal_action_client:/home/jacky/ros2_ws/install/examples_rclpy_guard_conditions:/home/jacky/ros2_ws/install/examples_rclpy_executors:/opt/ros/humble')]), 'shell': False}
[6.850194] (more_interfaces) StdoutLine: {'line': b'-- Install configuration: ""\n'}
[6.850429] (more_interfaces) StdoutLine: {'line': b'-- Up-to-date: /home/jacky/ros2_ws/install/more_interfaces/lib/more_interfaces/publish_address_book\n'}
[6.850620] (more_interfaces) StdoutLine: {'line': b'-- Installing: /home/jacky/ros2_ws/install/more_interfaces/lib/more_interfaces/subscribe_address_book\n'}
[6.855537] (more_interfaces) StdoutLine: {'line': b'-- Set runtime path of "/home/jacky/ros2_ws/install/more_interfaces/lib/more_interfaces/subscribe_address_book" to ""\n'}
[6.855725] (more_interfaces) StdoutLine: {'line': b'-- Up-to-date: /home/jacky/ros2_ws/install/more_interfaces/share/ament_index/resource_index/rosidl_interfaces/more_interfaces\n'}
[6.855855] (more_interfaces) StdoutLine: {'line': b'-- Up-to-date: /home/jacky/ros2_ws/install/more_interfaces/include/more_interfaces/more_interfaces\n'}
[6.855954] (more_interfaces) StdoutLine: {'line': b'-- Up-to-date: /home/jacky/ros2_ws/install/more_interfaces/include/more_interfaces/more_interfaces/msg\n'}
[6.856018] (more_interfaces) StdoutLine: {'line': b'-- Up-to-date: /home/jacky/ros2_ws/install/more_interfaces/include/more_interfaces/more_interfaces/msg/rosidl_generator_c__visibility_control.h\n'}
[6.856094] (more_interfaces) StdoutLine: {'line': b'-- Up-to-date: /home/jacky/ros2_ws/install/more_interfaces/include/more_interfaces/more_interfaces/msg/address_book.h\n'}
[6.856156] (more_interfaces) StdoutLine: {'line': b'-- Up-to-date: /home/jacky/ros2_ws/install/more_interfaces/include/more_interfaces/more_interfaces/msg/detail\n'}
[6.856242] (more_interfaces) StdoutLine: {'line': b'-- Up-to-date: /home/jacky/ros2_ws/install/more_interfaces/include/more_interfaces/more_interfaces/msg/detail/address_book__functions.h\n'}
[6.856332] (more_interfaces) StdoutLine: {'line': b'-- Up-to-date: /home/jacky/ros2_ws/install/more_interfaces/include/more_interfaces/more_interfaces/msg/detail/address_book__functions.c\n'}
[6.856402] (more_interfaces) StdoutLine: {'line': b'-- Up-to-date: /home/jacky/ros2_ws/install/more_interfaces/include/more_interfaces/more_interfaces/msg/detail/address_book__type_support.h\n'}
[6.856480] (more_interfaces) StdoutLine: {'line': b'-- Up-to-date: /home/jacky/ros2_ws/install/more_interfaces/include/more_interfaces/more_interfaces/msg/detail/address_book__struct.h\n'}
[6.856539] (more_interfaces) StdoutLine: {'line': b'-- Up-to-date: /home/jacky/ros2_ws/install/more_interfaces/share/more_interfaces/environment/library_path.sh\n'}
[6.856603] (more_interfaces) StdoutLine: {'line': b'-- Up-to-date: /home/jacky/ros2_ws/install/more_interfaces/share/more_interfaces/environment/library_path.dsv\n'}
[6.856701] (more_interfaces) StdoutLine: {'line': b'-- Up-to-date: /home/jacky/ros2_ws/install/more_interfaces/lib/libmore_interfaces__rosidl_generator_c.so\n'}
[6.856772] (more_interfaces) StdoutLine: {'line': b'-- Up-to-date: /home/jacky/ros2_ws/install/more_interfaces/include/more_interfaces/more_interfaces\n'}
[6.856828] (more_interfaces) StdoutLine: {'line': b'-- Up-to-date: /home/jacky/ros2_ws/install/more_interfaces/include/more_interfaces/more_interfaces/msg\n'}
[6.856913] (more_interfaces) StdoutLine: {'line': b'-- Up-to-date: /home/jacky/ros2_ws/install/more_interfaces/include/more_interfaces/more_interfaces/msg/rosidl_typesupport_fastrtps_c__visibility_control.h\n'}
[6.856969] (more_interfaces) StdoutLine: {'line': b'-- Up-to-date: /home/jacky/ros2_ws/install/more_interfaces/include/more_interfaces/more_interfaces/msg/detail\n'}
[6.857016] (more_interfaces) StdoutLine: {'line': b'-- Up-to-date: /home/jacky/ros2_ws/install/more_interfaces/include/more_interfaces/more_interfaces/msg/detail/address_book__rosidl_typesupport_fastrtps_c.h\n'}
[6.857089] (more_interfaces) StdoutLine: {'line': b'-- Up-to-date: /home/jacky/ros2_ws/install/more_interfaces/lib/libmore_interfaces__rosidl_typesupport_fastrtps_c.so\n'}
[6.857133] (more_interfaces) StdoutLine: {'line': b'-- Up-to-date: /home/jacky/ros2_ws/install/more_interfaces/include/more_interfaces/more_interfaces\n'}
[6.857227] (more_interfaces) StdoutLine: {'line': b'-- Up-to-date: /home/jacky/ros2_ws/install/more_interfaces/include/more_interfaces/more_interfaces/msg\n'}
[6.857276] (more_interfaces) StdoutLine: {'line': b'-- Up-to-date: /home/jacky/ros2_ws/install/more_interfaces/include/more_interfaces/more_interfaces/msg/rosidl_typesupport_introspection_c__visibility_control.h\n'}
[6.857341] (more_interfaces) StdoutLine: {'line': b'-- Up-to-date: /home/jacky/ros2_ws/install/more_interfaces/include/more_interfaces/more_interfaces/msg/detail\n'}
[6.857388] (more_interfaces) StdoutLine: {'line': b'-- Up-to-date: /home/jacky/ros2_ws/install/more_interfaces/include/more_interfaces/more_interfaces/msg/detail/address_book__type_support.c\n'}
[6.857435] (more_interfaces) StdoutLine: {'line': b'-- Up-to-date: /home/jacky/ros2_ws/install/more_interfaces/include/more_interfaces/more_interfaces/msg/detail/address_book__rosidl_typesupport_introspection_c.h\n'}
[6.857523] (more_interfaces) StdoutLine: {'line': b'-- Up-to-date: /home/jacky/ros2_ws/install/more_interfaces/lib/libmore_interfaces__rosidl_typesupport_introspection_c.so\n'}
[6.857576] (more_interfaces) StdoutLine: {'line': b'-- Up-to-date: /home/jacky/ros2_ws/install/more_interfaces/lib/libmore_interfaces__rosidl_typesupport_c.so\n'}
[6.857623] (more_interfaces) StdoutLine: {'line': b'-- Up-to-date: /home/jacky/ros2_ws/install/more_interfaces/include/more_interfaces/more_interfaces\n'}
[6.857670] (more_interfaces) StdoutLine: {'line': b'-- Up-to-date: /home/jacky/ros2_ws/install/more_interfaces/include/more_interfaces/more_interfaces/msg\n'}
[6.857716] (more_interfaces) StdoutLine: {'line': b'-- Up-to-date: /home/jacky/ros2_ws/install/more_interfaces/include/more_interfaces/more_interfaces/msg/detail\n'}
[6.857762] (more_interfaces) StdoutLine: {'line': b'-- Up-to-date: /home/jacky/ros2_ws/install/more_interfaces/include/more_interfaces/more_interfaces/msg/detail/address_book__builder.hpp\n'}
[6.857861] (more_interfaces) StdoutLine: {'line': b'-- Up-to-date: /home/jacky/ros2_ws/install/more_interfaces/include/more_interfaces/more_interfaces/msg/detail/address_book__traits.hpp\n'}
[6.857910] (more_interfaces) StdoutLine: {'line': b'-- Up-to-date: /home/jacky/ros2_ws/install/more_interfaces/include/more_interfaces/more_interfaces/msg/detail/address_book__struct.hpp\n'}
[6.857956] (more_interfaces) StdoutLine: {'line': b'-- Up-to-date: /home/jacky/ros2_ws/install/more_interfaces/include/more_interfaces/more_interfaces/msg/address_book.hpp\n'}
[6.858002] (more_interfaces) StdoutLine: {'line': b'-- Up-to-date: /home/jacky/ros2_ws/install/more_interfaces/include/more_interfaces/more_interfaces\n'}
[6.858065] (more_interfaces) StdoutLine: {'line': b'-- Up-to-date: /home/jacky/ros2_ws/install/more_interfaces/include/more_interfaces/more_interfaces/msg\n'}
[6.858109] (more_interfaces) StdoutLine: {'line': b'-- Up-to-date: /home/jacky/ros2_ws/install/more_interfaces/include/more_interfaces/more_interfaces/msg/rosidl_typesupport_fastrtps_cpp__visibility_control.h\n'}
[6.858152] (more_interfaces) StdoutLine: {'line': b'-- Up-to-date: /home/jacky/ros2_ws/install/more_interfaces/include/more_interfaces/more_interfaces/msg/detail\n'}
[6.858195] (more_interfaces) StdoutLine: {'line': b'-- Up-to-date: /home/jacky/ros2_ws/install/more_interfaces/include/more_interfaces/more_interfaces/msg/detail/dds_fastrtps\n'}
[6.858246] (more_interfaces) StdoutLine: {'line': b'-- Up-to-date: /home/jacky/ros2_ws/install/more_interfaces/include/more_interfaces/more_interfaces/msg/detail/address_book__rosidl_typesupport_fastrtps_cpp.hpp\n'}
[6.858289] (more_interfaces) StdoutLine: {'line': b'-- Up-to-date: /home/jacky/ros2_ws/install/more_interfaces/lib/libmore_interfaces__rosidl_typesupport_fastrtps_cpp.so\n'}
[6.858332] (more_interfaces) StdoutLine: {'line': b'-- Up-to-date: /home/jacky/ros2_ws/install/more_interfaces/include/more_interfaces/more_interfaces\n'}
[6.858391] (more_interfaces) StdoutLine: {'line': b'-- Up-to-date: /home/jacky/ros2_ws/install/more_interfaces/include/more_interfaces/more_interfaces/msg\n'}
[6.858453] (more_interfaces) StdoutLine: {'line': b'-- Up-to-date: /home/jacky/ros2_ws/install/more_interfaces/include/more_interfaces/more_interfaces/msg/detail\n'}
[6.858510] (more_interfaces) StdoutLine: {'line': b'-- Up-to-date: /home/jacky/ros2_ws/install/more_interfaces/include/more_interfaces/more_interfaces/msg/detail/address_book__rosidl_typesupport_introspection_cpp.hpp\n'}
[6.858554] (more_interfaces) StdoutLine: {'line': b'-- Up-to-date: /home/jacky/ros2_ws/install/more_interfaces/include/more_interfaces/more_interfaces/msg/detail/address_book__type_support.cpp\n'}
[6.858596] (more_interfaces) StdoutLine: {'line': b'-- Up-to-date: /home/jacky/ros2_ws/install/more_interfaces/lib/libmore_interfaces__rosidl_typesupport_introspection_cpp.so\n'}
[6.858642] (more_interfaces) StdoutLine: {'line': b'-- Up-to-date: /home/jacky/ros2_ws/install/more_interfaces/lib/libmore_interfaces__rosidl_typesupport_cpp.so\n'}
[6.858705] (more_interfaces) StdoutLine: {'line': b'-- Up-to-date: /home/jacky/ros2_ws/install/more_interfaces/share/more_interfaces/environment/pythonpath.sh\n'}
[6.858762] (more_interfaces) StdoutLine: {'line': b'-- Up-to-date: /home/jacky/ros2_ws/install/more_interfaces/share/more_interfaces/environment/pythonpath.dsv\n'}
[6.858806] (more_interfaces) StdoutLine: {'line': b'-- Up-to-date: /home/jacky/ros2_ws/install/more_interfaces/local/lib/python3.10/dist-packages/more_interfaces-0.0.0-py3.10.egg-info\n'}
[6.858860] (more_interfaces) StdoutLine: {'line': b'-- Installing: /home/jacky/ros2_ws/install/more_interfaces/local/lib/python3.10/dist-packages/more_interfaces-0.0.0-py3.10.egg-info/SOURCES.txt\n'}
[6.858906] (more_interfaces) StdoutLine: {'line': b'-- Installing: /home/jacky/ros2_ws/install/more_interfaces/local/lib/python3.10/dist-packages/more_interfaces-0.0.0-py3.10.egg-info/PKG-INFO\n'}
[6.858973] (more_interfaces) StdoutLine: {'line': b'-- Installing: /home/jacky/ros2_ws/install/more_interfaces/local/lib/python3.10/dist-packages/more_interfaces-0.0.0-py3.10.egg-info/top_level.txt\n'}
[6.859038] (more_interfaces) StdoutLine: {'line': b'-- Installing: /home/jacky/ros2_ws/install/more_interfaces/local/lib/python3.10/dist-packages/more_interfaces-0.0.0-py3.10.egg-info/dependency_links.txt\n'}
[6.859107] (more_interfaces) StdoutLine: {'line': b'-- Up-to-date: /home/jacky/ros2_ws/install/more_interfaces/local/lib/python3.10/dist-packages/more_interfaces\n'}
[6.859159] (more_interfaces) StdoutLine: {'line': b'-- Up-to-date: /home/jacky/ros2_ws/install/more_interfaces/local/lib/python3.10/dist-packages/more_interfaces/_more_interfaces_s.ep.rosidl_typesupport_c.c\n'}
[6.859206] (more_interfaces) StdoutLine: {'line': b'-- Up-to-date: /home/jacky/ros2_ws/install/more_interfaces/local/lib/python3.10/dist-packages/more_interfaces/msg\n'}
[6.859768] (more_interfaces) StdoutLine: {'line': b'-- Up-to-date: /home/jacky/ros2_ws/install/more_interfaces/local/lib/python3.10/dist-packages/more_interfaces/msg/_address_book_s.c\n'}
[6.859865] (more_interfaces) StdoutLine: {'line': b'-- Up-to-date: /home/jacky/ros2_ws/install/more_interfaces/local/lib/python3.10/dist-packages/more_interfaces/msg/_address_book.py\n'}
[6.859913] (more_interfaces) StdoutLine: {'line': b'-- Up-to-date: /home/jacky/ros2_ws/install/more_interfaces/local/lib/python3.10/dist-packages/more_interfaces/msg/__init__.py\n'}
[6.859957] (more_interfaces) StdoutLine: {'line': b'-- Up-to-date: /home/jacky/ros2_ws/install/more_interfaces/local/lib/python3.10/dist-packages/more_interfaces/more_interfaces_s__rosidl_typesupport_fastrtps_c.cpython-310-x86_64-linux-gnu.so\n'}
[6.860012] (more_interfaces) StdoutLine: {'line': b'-- Up-to-date: /home/jacky/ros2_ws/install/more_interfaces/local/lib/python3.10/dist-packages/more_interfaces/libmore_interfaces__rosidl_generator_py.so\n'}
[6.860055] (more_interfaces) StdoutLine: {'line': b'-- Up-to-date: /home/jacky/ros2_ws/install/more_interfaces/local/lib/python3.10/dist-packages/more_interfaces/more_interfaces_s__rosidl_typesupport_c.cpython-310-x86_64-linux-gnu.so\n'}
[6.860098] (more_interfaces) StdoutLine: {'line': b'-- Up-to-date: /home/jacky/ros2_ws/install/more_interfaces/local/lib/python3.10/dist-packages/more_interfaces/_more_interfaces_s.ep.rosidl_typesupport_introspection_c.c\n'}
[6.860141] (more_interfaces) StdoutLine: {'line': b'-- Up-to-date: /home/jacky/ros2_ws/install/more_interfaces/local/lib/python3.10/dist-packages/more_interfaces/__init__.py\n'}
[6.860184] (more_interfaces) StdoutLine: {'line': b'-- Up-to-date: /home/jacky/ros2_ws/install/more_interfaces/local/lib/python3.10/dist-packages/more_interfaces/_more_interfaces_s.ep.rosidl_typesupport_fastrtps_c.c\n'}
[6.860228] (more_interfaces) StdoutLine: {'line': b'-- Up-to-date: /home/jacky/ros2_ws/install/more_interfaces/local/lib/python3.10/dist-packages/more_interfaces/more_interfaces_s__rosidl_typesupport_introspection_c.cpython-310-x86_64-linux-gnu.so\n'}
[6.890080] (more_interfaces) StdoutLine: {'line': b"Listing '/home/jacky/ros2_ws/install/more_interfaces/local/lib/python3.10/dist-packages/more_interfaces'...\n"}
[6.890238] (more_interfaces) StdoutLine: {'line': b"Listing '/home/jacky/ros2_ws/install/more_interfaces/local/lib/python3.10/dist-packages/more_interfaces/msg'...\n"}
[6.893691] (more_interfaces) StdoutLine: {'line': b'-- Up-to-date: /home/jacky/ros2_ws/install/more_interfaces/local/lib/python3.10/dist-packages/more_interfaces/more_interfaces_s__rosidl_typesupport_fastrtps_c.cpython-310-x86_64-linux-gnu.so\n'}
[6.893983] (more_interfaces) StdoutLine: {'line': b'-- Up-to-date: /home/jacky/ros2_ws/install/more_interfaces/local/lib/python3.10/dist-packages/more_interfaces/more_interfaces_s__rosidl_typesupport_introspection_c.cpython-310-x86_64-linux-gnu.so\n'}
[6.894249] (more_interfaces) StdoutLine: {'line': b'-- Up-to-date: /home/jacky/ros2_ws/install/more_interfaces/local/lib/python3.10/dist-packages/more_interfaces/more_interfaces_s__rosidl_typesupport_c.cpython-310-x86_64-linux-gnu.so\n'}
[6.894477] (more_interfaces) StdoutLine: {'line': b'-- Up-to-date: /home/jacky/ros2_ws/install/more_interfaces/lib/libmore_interfaces__rosidl_generator_py.so\n'}
[6.894612] (more_interfaces) StdoutLine: {'line': b'-- Up-to-date: /home/jacky/ros2_ws/install/more_interfaces/share/more_interfaces/msg/AddressBook.idl\n'}
[6.894703] (more_interfaces) StdoutLine: {'line': b'-- Up-to-date: /home/jacky/ros2_ws/install/more_interfaces/share/more_interfaces/msg/AddressBook.msg\n'}
[6.894790] (more_interfaces) StdoutLine: {'line': b'-- Up-to-date: /home/jacky/ros2_ws/install/more_interfaces/share/ament_index/resource_index/package_run_dependencies/more_interfaces\n'}
[6.894874] (more_interfaces) StdoutLine: {'line': b'-- Up-to-date: /home/jacky/ros2_ws/install/more_interfaces/share/ament_index/resource_index/parent_prefix_path/more_interfaces\n'}
[6.894965] (more_interfaces) StdoutLine: {'line': b'-- Up-to-date: /home/jacky/ros2_ws/install/more_interfaces/share/more_interfaces/environment/ament_prefix_path.sh\n'}
[6.895045] (more_interfaces) StdoutLine: {'line': b'-- Up-to-date: /home/jacky/ros2_ws/install/more_interfaces/share/more_interfaces/environment/ament_prefix_path.dsv\n'}
[6.895122] (more_interfaces) StdoutLine: {'line': b'-- Up-to-date: /home/jacky/ros2_ws/install/more_interfaces/share/more_interfaces/environment/path.sh\n'}
[6.895168] (more_interfaces) StdoutLine: {'line': b'-- Up-to-date: /home/jacky/ros2_ws/install/more_interfaces/share/more_interfaces/environment/path.dsv\n'}
[6.895212] (more_interfaces) StdoutLine: {'line': b'-- Up-to-date: /home/jacky/ros2_ws/install/more_interfaces/share/more_interfaces/local_setup.bash\n'}
[6.895280] (more_interfaces) StdoutLine: {'line': b'-- Up-to-date: /home/jacky/ros2_ws/install/more_interfaces/share/more_interfaces/local_setup.sh\n'}
[6.895346] (more_interfaces) StdoutLine: {'line': b'-- Up-to-date: /home/jacky/ros2_ws/install/more_interfaces/share/more_interfaces/local_setup.zsh\n'}
[6.895402] (more_interfaces) StdoutLine: {'line': b'-- Up-to-date: /home/jacky/ros2_ws/install/more_interfaces/share/more_interfaces/local_setup.dsv\n'}
[6.895447] (more_interfaces) StdoutLine: {'line': b'-- Installing: /home/jacky/ros2_ws/install/more_interfaces/share/more_interfaces/package.dsv\n'}
[6.895520] (more_interfaces) StdoutLine: {'line': b'-- Up-to-date: /home/jacky/ros2_ws/install/more_interfaces/share/ament_index/resource_index/packages/more_interfaces\n'}
[6.895571] (more_interfaces) StdoutLine: {'line': b'-- Up-to-date: /home/jacky/ros2_ws/install/more_interfaces/share/more_interfaces/cmake/export_more_interfaces__rosidl_generator_cExport.cmake\n'}
[6.895621] (more_interfaces) StdoutLine: {'line': b'-- Up-to-date: /home/jacky/ros2_ws/install/more_interfaces/share/more_interfaces/cmake/export_more_interfaces__rosidl_generator_cExport-noconfig.cmake\n'}
[6.895668] (more_interfaces) StdoutLine: {'line': b'-- Up-to-date: /home/jacky/ros2_ws/install/more_interfaces/share/more_interfaces/cmake/export_more_interfaces__rosidl_typesupport_fastrtps_cExport.cmake\n'}
[6.895770] (more_interfaces) StdoutLine: {'line': b'-- Up-to-date: /home/jacky/ros2_ws/install/more_interfaces/share/more_interfaces/cmake/export_more_interfaces__rosidl_typesupport_fastrtps_cExport-noconfig.cmake\n'}
[6.895975] (more_interfaces) StdoutLine: {'line': b'-- Up-to-date: /home/jacky/ros2_ws/install/more_interfaces/share/more_interfaces/cmake/more_interfaces__rosidl_typesupport_introspection_cExport.cmake\n'}
[6.896064] (more_interfaces) StdoutLine: {'line': b'-- Up-to-date: /home/jacky/ros2_ws/install/more_interfaces/share/more_interfaces/cmake/more_interfaces__rosidl_typesupport_introspection_cExport-noconfig.cmake\n'}
[6.896132] (more_interfaces) StdoutLine: {'line': b'-- Up-to-date: /home/jacky/ros2_ws/install/more_interfaces/share/more_interfaces/cmake/more_interfaces__rosidl_typesupport_cExport.cmake\n'}
[6.896187] (more_interfaces) StdoutLine: {'line': b'-- Up-to-date: /home/jacky/ros2_ws/install/more_interfaces/share/more_interfaces/cmake/more_interfaces__rosidl_typesupport_cExport-noconfig.cmake\n'}
[6.896273] (more_interfaces) StdoutLine: {'line': b'-- Up-to-date: /home/jacky/ros2_ws/install/more_interfaces/share/more_interfaces/cmake/export_more_interfaces__rosidl_generator_cppExport.cmake\n'}
[6.896356] (more_interfaces) StdoutLine: {'line': b'-- Up-to-date: /home/jacky/ros2_ws/install/more_interfaces/share/more_interfaces/cmake/export_more_interfaces__rosidl_typesupport_fastrtps_cppExport.cmake\n'}
[6.896462] (more_interfaces) StdoutLine: {'line': b'-- Up-to-date: /home/jacky/ros2_ws/install/more_interfaces/share/more_interfaces/cmake/export_more_interfaces__rosidl_typesupport_fastrtps_cppExport-noconfig.cmake\n'}
[6.896513] (more_interfaces) StdoutLine: {'line': b'-- Up-to-date: /home/jacky/ros2_ws/install/more_interfaces/share/more_interfaces/cmake/more_interfaces__rosidl_typesupport_introspection_cppExport.cmake\n'}
[6.896599] (more_interfaces) StdoutLine: {'line': b'-- Up-to-date: /home/jacky/ros2_ws/install/more_interfaces/share/more_interfaces/cmake/more_interfaces__rosidl_typesupport_introspection_cppExport-noconfig.cmake\n'}
[6.896671] (more_interfaces) StdoutLine: {'line': b'-- Up-to-date: /home/jacky/ros2_ws/install/more_interfaces/share/more_interfaces/cmake/more_interfaces__rosidl_typesupport_cppExport.cmake\n'}
[6.896717] (more_interfaces) StdoutLine: {'line': b'-- Up-to-date: /home/jacky/ros2_ws/install/more_interfaces/share/more_interfaces/cmake/more_interfaces__rosidl_typesupport_cppExport-noconfig.cmake\n'}
[6.896762] (more_interfaces) StdoutLine: {'line': b'-- Up-to-date: /home/jacky/ros2_ws/install/more_interfaces/share/more_interfaces/cmake/export_more_interfaces__rosidl_generator_pyExport.cmake\n'}
[6.896806] (more_interfaces) StdoutLine: {'line': b'-- Up-to-date: /home/jacky/ros2_ws/install/more_interfaces/share/more_interfaces/cmake/export_more_interfaces__rosidl_generator_pyExport-noconfig.cmake\n'}
[6.896848] (more_interfaces) StdoutLine: {'line': b'-- Up-to-date: /home/jacky/ros2_ws/install/more_interfaces/share/more_interfaces/cmake/rosidl_cmake-extras.cmake\n'}
[6.896891] (more_interfaces) StdoutLine: {'line': b'-- Up-to-date: /home/jacky/ros2_ws/install/more_interfaces/share/more_interfaces/cmake/ament_cmake_export_include_directories-extras.cmake\n'}
[6.896933] (more_interfaces) StdoutLine: {'line': b'-- Up-to-date: /home/jacky/ros2_ws/install/more_interfaces/share/more_interfaces/cmake/ament_cmake_export_libraries-extras.cmake\n'}
[6.896975] (more_interfaces) StdoutLine: {'line': b'-- Up-to-date: /home/jacky/ros2_ws/install/more_interfaces/share/more_interfaces/cmake/ament_cmake_export_targets-extras.cmake\n'}
[6.897017] (more_interfaces) StdoutLine: {'line': b'-- Up-to-date: /home/jacky/ros2_ws/install/more_interfaces/share/more_interfaces/cmake/rosidl_cmake_export_typesupport_targets-extras.cmake\n'}
[6.897060] (more_interfaces) StdoutLine: {'line': b'-- Up-to-date: /home/jacky/ros2_ws/install/more_interfaces/share/more_interfaces/cmake/ament_cmake_export_dependencies-extras.cmake\n'}
[6.897122] (more_interfaces) StdoutLine: {'line': b'-- Up-to-date: /home/jacky/ros2_ws/install/more_interfaces/share/more_interfaces/cmake/rosidl_cmake_export_typesupport_libraries-extras.cmake\n'}
[6.897169] (more_interfaces) StdoutLine: {'line': b'-- Up-to-date: /home/jacky/ros2_ws/install/more_interfaces/share/more_interfaces/cmake/more_interfacesConfig.cmake\n'}
[6.897213] (more_interfaces) StdoutLine: {'line': b'-- Up-to-date: /home/jacky/ros2_ws/install/more_interfaces/share/more_interfaces/cmake/more_interfacesConfig-version.cmake\n'}
[6.897258] (more_interfaces) StdoutLine: {'line': b'-- Up-to-date: /home/jacky/ros2_ws/install/more_interfaces/share/more_interfaces/package.xml\n'}
[6.898950] (more_interfaces) CommandEnded: {'returncode': 0}
[6.918156] (-) TimerEvent: {}
[7.018374] (-) TimerEvent: {}
[7.114766] (more_interfaces) JobEnded: {'identifier': 'more_interfaces', 'rc': 0}
[7.115324] (-) EventReactorShutdown: {}
