[0.799s] Invoking command in '/home/jacky/launch_ws/src/py_launch_example': PYTHONPATH=/home/jacky/launch_ws/build/py_launch_example/prefix_override:/home/jacky/launch_ws/install/py_launch_example/lib/python3.10/site-packages:${PYTHONPATH} /usr/bin/python3 setup.py egg_info --egg-base ../../build/py_launch_example build --build-base /home/jacky/launch_ws/build/py_launch_example/build install --record /home/jacky/launch_ws/build/py_launch_example/install.log --single-version-externally-managed
[0.973s] running egg_info
[0.986s] writing ../../build/py_launch_example/UNKNOWN.egg-info/PKG-INFO
[0.993s] writing dependency_links to ../../build/py_launch_example/UNKNOWN.egg-info/dependency_links.txt
[0.993s] writing top-level names to ../../build/py_launch_example/UNKNOWN.egg-info/top_level.txt
[1.006s] reading manifest file '../../build/py_launch_example/UNKNOWN.egg-info/SOURCES.txt'
[1.007s] writing manifest file '../../build/py_launch_example/UNKNOWN.egg-info/SOURCES.txt'
[1.007s] running build
[1.007s] running install
[1.007s] /home/jacky/.local/lib/python3.10/site-packages/setuptools/_distutils/cmd.py:66: SetuptoolsDeprecationWarning: setup.py install is deprecated.
[1.007s] !!
[1.007s] 
[1.007s]         ********************************************************************************
[1.007s]         Please avoid running ``setup.py`` directly.
[1.007s]         Instead, use pypa/build, pypa/installer or other
[1.007s]         standards-based tools.
[1.007s] 
[1.008s]         See https://blog.ganssle.io/articles/2021/10/setup-py-deprecated.html for details.
[1.008s]         ********************************************************************************
[1.008s] 
[1.008s] !!
[1.008s]   self.initialize_options()
[1.011s] running install_data
[1.024s] copying launch/_launch.py -> /home/jacky/launch_ws/install/py_launch_example/share/py_launch_example/launch
[1.024s] copying launch/my_script_launch.py -> /home/jacky/launch_ws/install/py_launch_example/share/py_launch_example/launch
[1.024s] running install_egg_info
[1.050s] removing '/home/jacky/launch_ws/install/py_launch_example/lib/python3.10/site-packages/UNKNOWN-0.0.0-py3.10.egg-info' (and everything under it)
[1.050s] Copying ../../build/py_launch_example/UNKNOWN.egg-info to /home/jacky/launch_ws/install/py_launch_example/lib/python3.10/site-packages/UNKNOWN-0.0.0-py3.10.egg-info
[1.051s] running install_scripts
[1.172s] writing list of installed files to '/home/jacky/launch_ws/build/py_launch_example/install.log'
[1.195s] Invoked command in '/home/jacky/launch_ws/src/py_launch_example' returned '0': PYTHONPATH=/home/jacky/launch_ws/build/py_launch_example/prefix_override:/home/jacky/launch_ws/install/py_launch_example/lib/python3.10/site-packages:${PYTHONPATH} /usr/bin/python3 setup.py egg_info --egg-base ../../build/py_launch_example build --build-base /home/jacky/launch_ws/build/py_launch_example/build install --record /home/jacky/launch_ws/build/py_launch_example/install.log --single-version-externally-managed
