-- Found ament_cmake: 1.3.5 (/opt/ros/humble/share/ament_cmake/cmake)
-- Override CMake install command with custom implementation using symlinks instead of copying resources
-- Found rclcpp: 16.0.6 (/opt/ros/humble/share/rclcpp/cmake)
-- Found rosidl_generator_c: 3.1.5 (/opt/ros/humble/share/rosidl_generator_c/cmake)
-- Found rosidl_adapter: 3.1.5 (/opt/ros/humble/share/rosidl_adapter/cmake)
-- Found rosidl_generator_cpp: 3.1.5 (/opt/ros/humble/share/rosidl_generator_cpp/cmake)
-- Using all available rosidl_typesupport_c: rosidl_typesupport_fastrtps_c;rosidl_typesupport_introspection_c
-- Using all available rosidl_typesupport_cpp: rosidl_typesupport_fastrtps_cpp;rosidl_typesupport_introspection_cpp
-- Found rmw_implementation_cmake: 6.1.1 (/opt/ros/humble/share/rmw_implementation_cmake/cmake)
-- Found rmw_fastrtps_cpp: 6.2.4 (/opt/ros/humble/share/rmw_fastrtps_cpp/cmake)
-- Using RMW implementation 'rmw_fastrtps_cpp' as default
-- Found rclcpp_components: 16.0.6 (/opt/ros/humble/share/rclcpp_components/cmake)
-- Found ament_lint_auto: 0.12.8 (/opt/ros/humble/share/ament_lint_auto/cmake)
-- Added test 'copyright' to check source files copyright and LICENSE
-- Added test 'cppcheck' to perform static code analysis on C / C++ code
-- Configured cppcheck include dirs: 
-- Configured cppcheck exclude dirs and/or files: 
-- Added test 'cpplint' to check C / C++ code against the Google style
-- Configured cpplint exclude dirs and/or files: 
-- Added test 'lint_cmake' to check CMake code style
-- Added test 'uncrustify' to check C / C++ code style
-- Configured uncrustify additional arguments: 
-- Added test 'xmllint' to check XML markup files
-- Configuring done
-- Generating done
-- Build files have been written to: /home/jacky/ros2_ws/build/examples_rclcpp_minimal_subscriber
[35m[1mConsolidate compiler generated dependencies of target subscriber_lambda[0m
[35m[1mConsolidate compiler generated dependencies of target subscriber_member_function[0m
[35m[1mConsolidate compiler generated dependencies of target subscriber_member_function_with_unique_network_flow_endpoints[0m
[35m[1mConsolidate compiler generated dependencies of target subscriber_member_function_with_type_adapter[0m
[35m[1mConsolidate compiler generated dependencies of target subscriber_not_composable[0m
[35m[1mConsolidate compiler generated dependencies of target subscriber_member_function_with_topic_statistics[0m
[35m[1mConsolidate compiler generated dependencies of target subscriber_content_filtering[0m
[  8%] Built target subscriber_member_function
[ 16%] Built target subscriber_lambda
[ 25%] Built target subscriber_member_function_with_type_adapter
[ 33%] Built target subscriber_not_composable
[ 41%] Built target subscriber_member_function_with_unique_network_flow_endpoints
[35m[1mConsolidate compiler generated dependencies of target wait_set_subscriber_library[0m
[ 50%] Built target subscriber_member_function_with_topic_statistics
[ 58%] Built target subscriber_content_filtering
[35m[1mConsolidate compiler generated dependencies of target wait_set_subscriber[0m
[35m[1mConsolidate compiler generated dependencies of target static_wait_set_subscriber[0m
[35m[1mConsolidate compiler generated dependencies of target time_triggered_wait_set_subscriber[0m
[ 75%] Built target wait_set_subscriber_library
[ 83%] Built target wait_set_subscriber
[ 91%] Built target static_wait_set_subscriber
[100%] Built target time_triggered_wait_set_subscriber
-- Install configuration: ""
-- Execute custom install script
-- Up-to-date symlink: /home/jacky/ros2_ws/install/examples_rclcpp_minimal_subscriber/lib/examples_rclcpp_minimal_subscriber/wait_set_subscriber
-- Up-to-date symlink: /home/jacky/ros2_ws/install/examples_rclcpp_minimal_subscriber/lib/examples_rclcpp_minimal_subscriber/static_wait_set_subscriber
-- Up-to-date symlink: /home/jacky/ros2_ws/install/examples_rclcpp_minimal_subscriber/lib/examples_rclcpp_minimal_subscriber/time_triggered_wait_set_subscriber
-- Up-to-date symlink: /home/jacky/ros2_ws/install/examples_rclcpp_minimal_subscriber/lib/libwait_set_subscriber_library.so
-- Up-to-date symlink: /home/jacky/ros2_ws/install/examples_rclcpp_minimal_subscriber/lib/examples_rclcpp_minimal_subscriber/subscriber_lambda
-- Up-to-date symlink: /home/jacky/ros2_ws/install/examples_rclcpp_minimal_subscriber/lib/examples_rclcpp_minimal_subscriber/subscriber_member_function
-- Up-to-date symlink: /home/jacky/ros2_ws/install/examples_rclcpp_minimal_subscriber/lib/examples_rclcpp_minimal_subscriber/subscriber_member_function_with_topic_statistics
-- Up-to-date symlink: /home/jacky/ros2_ws/install/examples_rclcpp_minimal_subscriber/lib/examples_rclcpp_minimal_subscriber/subscriber_member_function_with_type_adapter
-- Up-to-date symlink: /home/jacky/ros2_ws/install/examples_rclcpp_minimal_subscriber/lib/examples_rclcpp_minimal_subscriber/subscriber_member_function_with_unique_network_flow_endpoints
-- Up-to-date symlink: /home/jacky/ros2_ws/install/examples_rclcpp_minimal_subscriber/lib/examples_rclcpp_minimal_subscriber/subscriber_not_composable
-- Up-to-date symlink: /home/jacky/ros2_ws/install/examples_rclcpp_minimal_subscriber/lib/examples_rclcpp_minimal_subscriber/subscriber_content_filtering
-- Up-to-date symlink: /home/jacky/ros2_ws/install/examples_rclcpp_minimal_subscriber/share/ament_index/resource_index/package_run_dependencies/examples_rclcpp_minimal_subscriber
-- Up-to-date symlink: /home/jacky/ros2_ws/install/examples_rclcpp_minimal_subscriber/share/ament_index/resource_index/parent_prefix_path/examples_rclcpp_minimal_subscriber
-- Up-to-date symlink: /home/jacky/ros2_ws/install/examples_rclcpp_minimal_subscriber/share/examples_rclcpp_minimal_subscriber/environment/ament_prefix_path.sh
-- Up-to-date symlink: /home/jacky/ros2_ws/install/examples_rclcpp_minimal_subscriber/share/examples_rclcpp_minimal_subscriber/environment/ament_prefix_path.dsv
-- Up-to-date symlink: /home/jacky/ros2_ws/install/examples_rclcpp_minimal_subscriber/share/examples_rclcpp_minimal_subscriber/environment/path.sh
-- Up-to-date symlink: /home/jacky/ros2_ws/install/examples_rclcpp_minimal_subscriber/share/examples_rclcpp_minimal_subscriber/environment/path.dsv
-- Up-to-date symlink: /home/jacky/ros2_ws/install/examples_rclcpp_minimal_subscriber/share/examples_rclcpp_minimal_subscriber/local_setup.bash
-- Up-to-date symlink: /home/jacky/ros2_ws/install/examples_rclcpp_minimal_subscriber/share/examples_rclcpp_minimal_subscriber/local_setup.sh
-- Up-to-date symlink: /home/jacky/ros2_ws/install/examples_rclcpp_minimal_subscriber/share/examples_rclcpp_minimal_subscriber/local_setup.zsh
-- Up-to-date symlink: /home/jacky/ros2_ws/install/examples_rclcpp_minimal_subscriber/share/examples_rclcpp_minimal_subscriber/local_setup.dsv
-- Symlinking: /home/jacky/ros2_ws/install/examples_rclcpp_minimal_subscriber/share/examples_rclcpp_minimal_subscriber/package.dsv
-- Up-to-date symlink: /home/jacky/ros2_ws/install/examples_rclcpp_minimal_subscriber/share/ament_index/resource_index/packages/examples_rclcpp_minimal_subscriber
-- Up-to-date symlink: /home/jacky/ros2_ws/install/examples_rclcpp_minimal_subscriber/share/ament_index/resource_index/rclcpp_components/examples_rclcpp_minimal_subscriber
-- Up-to-date symlink: /home/jacky/ros2_ws/install/examples_rclcpp_minimal_subscriber/share/examples_rclcpp_minimal_subscriber/cmake/examples_rclcpp_minimal_subscriberConfig.cmake
-- Up-to-date symlink: /home/jacky/ros2_ws/install/examples_rclcpp_minimal_subscriber/share/examples_rclcpp_minimal_subscriber/cmake/examples_rclcpp_minimal_subscriberConfig-version.cmake
-- Up-to-date symlink: /home/jacky/ros2_ws/install/examples_rclcpp_minimal_subscriber/share/examples_rclcpp_minimal_subscriber/package.xml
