Invoking command in '/home/jacky/ros2_ws/build/examples_rclcpp_minimal_action_server': CMAKE_PREFIX_PATH=/opt/ros/humble /usr/bin/cmake --build /home/jacky/ros2_ws/build/examples_rclcpp_minimal_action_server -- -j16 -l16
Invoked command in '/home/jacky/ros2_ws/build/examples_rclcpp_minimal_action_server' returned '0': CMAKE_PREFIX_PATH=/opt/ros/humble /usr/bin/cmake --build /home/jacky/ros2_ws/build/examples_rclcpp_minimal_action_server -- -j16 -l16
Invoking command in '/home/jacky/ros2_ws/build/examples_rclcpp_minimal_action_server': CMAKE_PREFIX_PATH=/opt/ros/humble /usr/bin/cmake --install /home/jacky/ros2_ws/build/examples_rclcpp_minimal_action_server
Invoked command in '/home/jacky/ros2_ws/build/examples_rclcpp_minimal_action_server' returned '0': CMAKE_PREFIX_PATH=/opt/ros/humble /usr/bin/cmake --install /home/jacky/ros2_ws/build/examples_rclcpp_minimal_action_server
