[0.820s] Invoking command in '/home/jacky/ros2_ws/build/my_package': CMAKE_PREFIX_PATH=/opt/ros/humble /usr/bin/cmake --build /home/jacky/ros2_ws/build/my_package -- -j16 -l16
[1.298s] [35m[1mConsolidate compiler generated dependencies of target my_node[0m
[1.299s] [100%] Built target my_node
[1.602s] Invoked command in '/home/jacky/ros2_ws/build/my_package' returned '0': CMAKE_PREFIX_PATH=/opt/ros/humble /usr/bin/cmake --build /home/jacky/ros2_ws/build/my_package -- -j16 -l16
[2.131s] Invoking command in '/home/jacky/ros2_ws/build/my_package': CMAKE_PREFIX_PATH=/opt/ros/humble /usr/bin/cmake --install /home/jacky/ros2_ws/build/my_package
[2.134s] -- Install configuration: ""
[2.135s] -- Up-to-date: /home/jacky/ros2_ws/install/my_package/lib/my_package/my_node
[2.135s] -- Up-to-date: /home/jacky/ros2_ws/install/my_package/share/ament_index/resource_index/package_run_dependencies/my_package
[2.135s] -- Up-to-date: /home/jacky/ros2_ws/install/my_package/share/ament_index/resource_index/parent_prefix_path/my_package
[2.135s] -- Up-to-date: /home/jacky/ros2_ws/install/my_package/share/my_package/environment/ament_prefix_path.sh
[2.135s] -- Up-to-date: /home/jacky/ros2_ws/install/my_package/share/my_package/environment/ament_prefix_path.dsv
[2.135s] -- Up-to-date: /home/jacky/ros2_ws/install/my_package/share/my_package/environment/path.sh
[2.135s] -- Up-to-date: /home/jacky/ros2_ws/install/my_package/share/my_package/environment/path.dsv
[2.136s] -- Up-to-date: /home/jacky/ros2_ws/install/my_package/share/my_package/local_setup.bash
[2.136s] -- Up-to-date: /home/jacky/ros2_ws/install/my_package/share/my_package/local_setup.sh
[2.136s] -- Up-to-date: /home/jacky/ros2_ws/install/my_package/share/my_package/local_setup.zsh
[2.136s] -- Up-to-date: /home/jacky/ros2_ws/install/my_package/share/my_package/local_setup.dsv
[2.136s] -- Installing: /home/jacky/ros2_ws/install/my_package/share/my_package/package.dsv
[2.136s] -- Up-to-date: /home/jacky/ros2_ws/install/my_package/share/ament_index/resource_index/packages/my_package
[2.136s] -- Up-to-date: /home/jacky/ros2_ws/install/my_package/share/my_package/cmake/my_packageConfig.cmake
[2.136s] -- Up-to-date: /home/jacky/ros2_ws/install/my_package/share/my_package/cmake/my_packageConfig-version.cmake
[2.136s] -- Up-to-date: /home/jacky/ros2_ws/install/my_package/share/my_package/package.xml
[2.770s] Invoked command in '/home/jacky/ros2_ws/build/my_package' returned '0': CMAKE_PREFIX_PATH=/opt/ros/humble /usr/bin/cmake --install /home/jacky/ros2_ws/build/my_package
