Invoking command in '/home/jacky/ros2_ws/build/cpp_parameters': CMAKE_PREFIX_PATH=/opt/ros/humble /usr/bin/cmake /home/jacky/ros2_ws/src/cpp_parameters -DCMAKE_INSTALL_PREFIX=/home/jacky/ros2_ws/install/cpp_parameters
Invoked command in '/home/jacky/ros2_ws/build/cpp_parameters' returned '0': CMAKE_PREFIX_PATH=/opt/ros/humble /usr/bin/cmake /home/jacky/ros2_ws/src/cpp_parameters -DCMAKE_INSTALL_PREFIX=/home/jacky/ros2_ws/install/cpp_parameters
Invoking command in '/home/jacky/ros2_ws/build/cpp_parameters': CMAKE_PREFIX_PATH=/opt/ros/humble /usr/bin/cmake --build /home/jacky/ros2_ws/build/cpp_parameters -- -j16 -l16
Invoked command in '/home/jacky/ros2_ws/build/cpp_parameters' returned '0': CMAKE_PREFIX_PATH=/opt/ros/humble /usr/bin/cmake --build /home/jacky/ros2_ws/build/cpp_parameters -- -j16 -l16
Invoking command in '/home/jacky/ros2_ws/build/cpp_parameters': CMAKE_PREFIX_PATH=/opt/ros/humble /usr/bin/cmake --install /home/jacky/ros2_ws/build/cpp_parameters
Invoked command in '/home/jacky/ros2_ws/build/cpp_parameters' returned '0': CMAKE_PREFIX_PATH=/opt/ros/humble /usr/bin/cmake --install /home/jacky/ros2_ws/build/cpp_parameters
