[0.955s] DEBUG:colcon:Command line arguments: ['/usr/bin/colcon', 'build', '--packages-select', 'learning_tf2_cpp']
[0.955s] DEBUG:colcon:Parsed command line arguments: Namespace(log_base=None, log_level=None, verb_name='build', build_base='build', install_base='install', merge_install=False, symlink_install=False, test_result_base=None, continue_on_error=False, executor='parallel', parallel_workers=16, event_handlers=None, ignore_user_meta=False, metas=['./colcon.meta'], base_paths=['.'], packages_ignore=None, packages_ignore_regex=None, paths=None, packages_up_to=None, packages_up_to_regex=None, packages_above=None, packages_above_and_dependencies=None, packages_above_depth=None, packages_select_by_dep=None, packages_skip_by_dep=None, packages_skip_up_to=None, packages_select_build_failed=False, packages_skip_build_finished=False, packages_select_test_failures=False, packages_skip_test_passed=False, packages_select=['learning_tf2_cpp'], packages_skip=None, packages_select_regex=None, packages_skip_regex=None, packages_start=None, packages_end=None, allow_overriding=[], cmake_args=None, cmake_target=None, cmake_target_skip_unavailable=False, cmake_clean_cache=False, cmake_clean_first=False, cmake_force_configure=False, ament_cmake_args=None, catkin_cmake_args=None, catkin_skip_building_tests=False, verb_parser=<colcon_defaults.argument_parser.defaults.DefaultArgumentsDecorator object at 0x7f480950a500>, verb_extension=<colcon_core.verb.build.BuildVerb object at 0x7f48098b3c40>, main=<bound method BuildVerb.main of <colcon_core.verb.build.BuildVerb object at 0x7f48098b3c40>>)
[1.008s] Level 1:colcon.colcon_core.package_discovery:discover_packages(colcon_meta) check parameters
[1.008s] Level 1:colcon.colcon_core.package_discovery:discover_packages(recursive) check parameters
[1.008s] Level 1:colcon.colcon_core.package_discovery:discover_packages(ignore) check parameters
[1.008s] Level 1:colcon.colcon_core.package_discovery:discover_packages(path) check parameters
[1.008s] Level 1:colcon.colcon_core.package_discovery:discover_packages(colcon_meta) discover
[1.008s] Level 1:colcon.colcon_core.package_discovery:discover_packages(recursive) discover
[1.008s] INFO:colcon.colcon_core.package_discovery:Crawling recursively for packages in '/home/jacky/ros2_ws/src/learning_tf2_cpp'
[1.008s] Level 1:colcon.colcon_core.package_identification:_identify(.) by extensions ['ignore', 'ignore_ament_install']
[1.008s] Level 1:colcon.colcon_core.package_identification:_identify(.) by extension 'ignore'
[1.008s] Level 1:colcon.colcon_core.package_identification:_identify(.) by extension 'ignore_ament_install'
[1.008s] Level 1:colcon.colcon_core.package_identification:_identify(.) by extensions ['colcon_pkg']
[1.008s] Level 1:colcon.colcon_core.package_identification:_identify(.) by extension 'colcon_pkg'
[1.009s] Level 1:colcon.colcon_core.package_identification:_identify(.) by extensions ['colcon_meta']
[1.009s] Level 1:colcon.colcon_core.package_identification:_identify(.) by extension 'colcon_meta'
[1.009s] Level 1:colcon.colcon_core.package_identification:_identify(.) by extensions ['ros']
[1.009s] Level 1:colcon.colcon_core.package_identification:_identify(.) by extension 'ros'
[1.022s] DEBUG:colcon.colcon_core.package_identification:Package '.' with type 'ros.ament_cmake' and name 'learning_tf2_cpp'
[1.023s] Level 1:colcon.colcon_core.package_discovery:discover_packages(recursive) using defaults
[1.023s] Level 1:colcon.colcon_core.package_discovery:discover_packages(ignore) discover
[1.023s] Level 1:colcon.colcon_core.package_discovery:discover_packages(ignore) using defaults
[1.023s] Level 1:colcon.colcon_core.package_discovery:discover_packages(path) discover
[1.023s] Level 1:colcon.colcon_core.package_discovery:discover_packages(path) using defaults
[1.108s] Level 1:colcon.colcon_core.package_discovery:discover_packages(prefix_path) check parameters
[1.108s] Level 1:colcon.colcon_core.package_discovery:discover_packages(prefix_path) discover
[1.137s] DEBUG:colcon.colcon_installed_package_information.package_discovery:Found 1 installed packages in /home/jacky/ros2_ws/src/learning_tf2_cpp/install
[1.151s] DEBUG:colcon.colcon_installed_package_information.package_discovery:Found 37 installed packages in /home/jacky/ros2_ws/install
[1.165s] DEBUG:colcon.colcon_installed_package_information.package_discovery:Found 272 installed packages in /opt/ros/humble
[1.167s] Level 1:colcon.colcon_core.package_discovery:discover_packages(prefix_path) using defaults
[1.232s] Level 5:colcon.colcon_core.verb:set package 'learning_tf2_cpp' build argument 'cmake_args' from command line to 'None'
[1.232s] Level 5:colcon.colcon_core.verb:set package 'learning_tf2_cpp' build argument 'cmake_target' from command line to 'None'
[1.232s] Level 5:colcon.colcon_core.verb:set package 'learning_tf2_cpp' build argument 'cmake_target_skip_unavailable' from command line to 'False'
[1.232s] Level 5:colcon.colcon_core.verb:set package 'learning_tf2_cpp' build argument 'cmake_clean_cache' from command line to 'False'
[1.232s] Level 5:colcon.colcon_core.verb:set package 'learning_tf2_cpp' build argument 'cmake_clean_first' from command line to 'False'
[1.232s] Level 5:colcon.colcon_core.verb:set package 'learning_tf2_cpp' build argument 'cmake_force_configure' from command line to 'False'
[1.232s] Level 5:colcon.colcon_core.verb:set package 'learning_tf2_cpp' build argument 'ament_cmake_args' from command line to 'None'
[1.232s] Level 5:colcon.colcon_core.verb:set package 'learning_tf2_cpp' build argument 'catkin_cmake_args' from command line to 'None'
[1.232s] Level 5:colcon.colcon_core.verb:set package 'learning_tf2_cpp' build argument 'catkin_skip_building_tests' from command line to 'False'
[1.232s] DEBUG:colcon.colcon_core.verb:Building package 'learning_tf2_cpp' with the following arguments: {'ament_cmake_args': None, 'build_base': '/home/jacky/ros2_ws/src/learning_tf2_cpp/build/learning_tf2_cpp', 'catkin_cmake_args': None, 'catkin_skip_building_tests': False, 'cmake_args': None, 'cmake_clean_cache': False, 'cmake_clean_first': False, 'cmake_force_configure': False, 'cmake_target': None, 'cmake_target_skip_unavailable': False, 'install_base': '/home/jacky/ros2_ws/src/learning_tf2_cpp/install/learning_tf2_cpp', 'merge_install': False, 'path': '/home/jacky/ros2_ws/src/learning_tf2_cpp', 'symlink_install': False, 'test_result_base': None}
[1.245s] INFO:colcon.colcon_core.executor:Executing jobs using 'parallel' executor
[1.269s] DEBUG:colcon.colcon_parallel_executor.executor.parallel:run_until_complete
[1.269s] INFO:colcon.colcon_ros.task.ament_cmake.build:Building ROS package in '/home/jacky/ros2_ws/src/learning_tf2_cpp' with build type 'ament_cmake'
[1.270s] INFO:colcon.colcon_cmake.task.cmake.build:Building CMake package in '/home/jacky/ros2_ws/src/learning_tf2_cpp'
[1.286s] INFO:colcon.colcon_core.plugin_system:Skipping extension 'colcon_core.shell.bat': Not used on non-Windows systems
[1.286s] INFO:colcon.colcon_core.shell:Skip shell extension 'powershell' for command environment: Not usable outside of PowerShell
[1.286s] DEBUG:colcon.colcon_core.shell:Skip shell extension 'dsv' for command environment
[1.350s] DEBUG:colcon.colcon_core.event_handler.log_command:Invoking command in '/home/jacky/ros2_ws/src/learning_tf2_cpp/build/learning_tf2_cpp': CMAKE_PREFIX_PATH=${CMAKE_PREFIX_PATH}:/home/jacky/ros2_ws/install/cpp_srvcli:/home/jacky/ros2_ws/install/cpp_pubsub:/home/jacky/ros2_ws/install/py_srvcli:/home/jacky/ros2_ws/install/py_pubsub:/home/jacky/ros2_ws/install/my_py_package:/home/jacky/ros2_ws/install/launch_testing_examples:/home/jacky/ros2_ws/install/examples_rclpy_pointcloud_publisher:/home/jacky/ros2_ws/install/examples_rclpy_minimal_subscriber:/home/jacky/ros2_ws/install/examples_rclpy_minimal_service:/home/jacky/ros2_ws/install/examples_rclpy_minimal_publisher:/home/jacky/ros2_ws/install/examples_rclpy_minimal_client:/home/jacky/ros2_ws/install/examples_rclpy_minimal_action_server:/home/jacky/ros2_ws/install/examples_rclpy_minimal_action_client:/home/jacky/ros2_ws/install/examples_rclpy_guard_conditions:/home/jacky/ros2_ws/install/examples_rclpy_executors:/opt/ros/humble /usr/bin/cmake --build /home/jacky/ros2_ws/src/learning_tf2_cpp/build/learning_tf2_cpp -- -j16 -l16
[1.439s] DEBUG:colcon.colcon_core.event_handler.log_command:Invoked command in '/home/jacky/ros2_ws/src/learning_tf2_cpp/build/learning_tf2_cpp' returned '0': CMAKE_PREFIX_PATH=${CMAKE_PREFIX_PATH}:/home/jacky/ros2_ws/install/cpp_srvcli:/home/jacky/ros2_ws/install/cpp_pubsub:/home/jacky/ros2_ws/install/py_srvcli:/home/jacky/ros2_ws/install/py_pubsub:/home/jacky/ros2_ws/install/my_py_package:/home/jacky/ros2_ws/install/launch_testing_examples:/home/jacky/ros2_ws/install/examples_rclpy_pointcloud_publisher:/home/jacky/ros2_ws/install/examples_rclpy_minimal_subscriber:/home/jacky/ros2_ws/install/examples_rclpy_minimal_service:/home/jacky/ros2_ws/install/examples_rclpy_minimal_publisher:/home/jacky/ros2_ws/install/examples_rclpy_minimal_client:/home/jacky/ros2_ws/install/examples_rclpy_minimal_action_server:/home/jacky/ros2_ws/install/examples_rclpy_minimal_action_client:/home/jacky/ros2_ws/install/examples_rclpy_guard_conditions:/home/jacky/ros2_ws/install/examples_rclpy_executors:/opt/ros/humble /usr/bin/cmake --build /home/jacky/ros2_ws/src/learning_tf2_cpp/build/learning_tf2_cpp -- -j16 -l16
[1.497s] DEBUG:colcon.colcon_core.event_handler.log_command:Invoking command in '/home/jacky/ros2_ws/src/learning_tf2_cpp/build/learning_tf2_cpp': CMAKE_PREFIX_PATH=${CMAKE_PREFIX_PATH}:/home/jacky/ros2_ws/install/cpp_srvcli:/home/jacky/ros2_ws/install/cpp_pubsub:/home/jacky/ros2_ws/install/py_srvcli:/home/jacky/ros2_ws/install/py_pubsub:/home/jacky/ros2_ws/install/my_py_package:/home/jacky/ros2_ws/install/launch_testing_examples:/home/jacky/ros2_ws/install/examples_rclpy_pointcloud_publisher:/home/jacky/ros2_ws/install/examples_rclpy_minimal_subscriber:/home/jacky/ros2_ws/install/examples_rclpy_minimal_service:/home/jacky/ros2_ws/install/examples_rclpy_minimal_publisher:/home/jacky/ros2_ws/install/examples_rclpy_minimal_client:/home/jacky/ros2_ws/install/examples_rclpy_minimal_action_server:/home/jacky/ros2_ws/install/examples_rclpy_minimal_action_client:/home/jacky/ros2_ws/install/examples_rclpy_guard_conditions:/home/jacky/ros2_ws/install/examples_rclpy_executors:/opt/ros/humble /usr/bin/cmake --install /home/jacky/ros2_ws/src/learning_tf2_cpp/build/learning_tf2_cpp
[1.509s] Level 1:colcon.colcon_core.environment:create_environment_scripts_only(learning_tf2_cpp)
[1.510s] DEBUG:colcon.colcon_core.event_handler.log_command:Invoked command in '/home/jacky/ros2_ws/src/learning_tf2_cpp/build/learning_tf2_cpp' returned '0': CMAKE_PREFIX_PATH=${CMAKE_PREFIX_PATH}:/home/jacky/ros2_ws/install/cpp_srvcli:/home/jacky/ros2_ws/install/cpp_pubsub:/home/jacky/ros2_ws/install/py_srvcli:/home/jacky/ros2_ws/install/py_pubsub:/home/jacky/ros2_ws/install/my_py_package:/home/jacky/ros2_ws/install/launch_testing_examples:/home/jacky/ros2_ws/install/examples_rclpy_pointcloud_publisher:/home/jacky/ros2_ws/install/examples_rclpy_minimal_subscriber:/home/jacky/ros2_ws/install/examples_rclpy_minimal_service:/home/jacky/ros2_ws/install/examples_rclpy_minimal_publisher:/home/jacky/ros2_ws/install/examples_rclpy_minimal_client:/home/jacky/ros2_ws/install/examples_rclpy_minimal_action_server:/home/jacky/ros2_ws/install/examples_rclpy_minimal_action_client:/home/jacky/ros2_ws/install/examples_rclpy_guard_conditions:/home/jacky/ros2_ws/install/examples_rclpy_executors:/opt/ros/humble /usr/bin/cmake --install /home/jacky/ros2_ws/src/learning_tf2_cpp/build/learning_tf2_cpp
[1.526s] Level 1:colcon.colcon_core.environment:checking '/home/jacky/ros2_ws/src/learning_tf2_cpp/install/learning_tf2_cpp' for CMake module files
[1.527s] Level 1:colcon.colcon_core.environment:checking '/home/jacky/ros2_ws/src/learning_tf2_cpp/install/learning_tf2_cpp' for CMake config files
[1.527s] Level 1:colcon.colcon_core.shell:create_environment_hook('learning_tf2_cpp', 'cmake_prefix_path')
[1.541s] INFO:colcon.colcon_core.shell:Creating environment hook '/home/jacky/ros2_ws/src/learning_tf2_cpp/install/learning_tf2_cpp/share/learning_tf2_cpp/hook/cmake_prefix_path.ps1'
[1.542s] INFO:colcon.colcon_core.shell:Creating environment descriptor '/home/jacky/ros2_ws/src/learning_tf2_cpp/install/learning_tf2_cpp/share/learning_tf2_cpp/hook/cmake_prefix_path.dsv'
[1.542s] INFO:colcon.colcon_core.shell:Creating environment hook '/home/jacky/ros2_ws/src/learning_tf2_cpp/install/learning_tf2_cpp/share/learning_tf2_cpp/hook/cmake_prefix_path.sh'
[1.543s] Level 1:colcon.colcon_core.environment:checking '/home/jacky/ros2_ws/src/learning_tf2_cpp/install/learning_tf2_cpp/lib'
[1.543s] Level 1:colcon.colcon_core.environment:checking '/home/jacky/ros2_ws/src/learning_tf2_cpp/install/learning_tf2_cpp/bin'
[1.543s] Level 1:colcon.colcon_core.environment:checking '/home/jacky/ros2_ws/src/learning_tf2_cpp/install/learning_tf2_cpp/lib/pkgconfig/learning_tf2_cpp.pc'
[1.543s] Level 1:colcon.colcon_core.environment:checking '/home/jacky/ros2_ws/src/learning_tf2_cpp/install/learning_tf2_cpp/lib/python3.10/site-packages'
[1.543s] Level 1:colcon.colcon_core.environment:checking '/home/jacky/ros2_ws/src/learning_tf2_cpp/install/learning_tf2_cpp/bin'
[1.557s] INFO:colcon.colcon_core.shell:Creating package script '/home/jacky/ros2_ws/src/learning_tf2_cpp/install/learning_tf2_cpp/share/learning_tf2_cpp/package.ps1'
[1.558s] INFO:colcon.colcon_core.shell:Creating package descriptor '/home/jacky/ros2_ws/src/learning_tf2_cpp/install/learning_tf2_cpp/share/learning_tf2_cpp/package.dsv'
[1.558s] INFO:colcon.colcon_core.shell:Creating package script '/home/jacky/ros2_ws/src/learning_tf2_cpp/install/learning_tf2_cpp/share/learning_tf2_cpp/package.sh'
[1.559s] INFO:colcon.colcon_core.shell:Creating package script '/home/jacky/ros2_ws/src/learning_tf2_cpp/install/learning_tf2_cpp/share/learning_tf2_cpp/package.bash'
[1.559s] INFO:colcon.colcon_core.shell:Creating package script '/home/jacky/ros2_ws/src/learning_tf2_cpp/install/learning_tf2_cpp/share/learning_tf2_cpp/package.zsh'
[1.560s] Level 1:colcon.colcon_core.environment:create_file_with_runtime_dependencies(/home/jacky/ros2_ws/src/learning_tf2_cpp/install/learning_tf2_cpp/share/colcon-core/packages/learning_tf2_cpp)
[1.621s] Level 1:colcon.colcon_core.environment:create_environment_scripts_only(learning_tf2_cpp)
[1.635s] Level 1:colcon.colcon_core.environment:checking '/home/jacky/ros2_ws/src/learning_tf2_cpp/install/learning_tf2_cpp' for CMake module files
[1.635s] Level 1:colcon.colcon_core.environment:checking '/home/jacky/ros2_ws/src/learning_tf2_cpp/install/learning_tf2_cpp' for CMake config files
[1.636s] Level 1:colcon.colcon_core.shell:create_environment_hook('learning_tf2_cpp', 'cmake_prefix_path')
[1.649s] INFO:colcon.colcon_core.shell:Creating environment hook '/home/jacky/ros2_ws/src/learning_tf2_cpp/install/learning_tf2_cpp/share/learning_tf2_cpp/hook/cmake_prefix_path.ps1'
[1.649s] INFO:colcon.colcon_core.shell:Creating environment descriptor '/home/jacky/ros2_ws/src/learning_tf2_cpp/install/learning_tf2_cpp/share/learning_tf2_cpp/hook/cmake_prefix_path.dsv'
[1.649s] INFO:colcon.colcon_core.shell:Creating environment hook '/home/jacky/ros2_ws/src/learning_tf2_cpp/install/learning_tf2_cpp/share/learning_tf2_cpp/hook/cmake_prefix_path.sh'
[1.650s] Level 1:colcon.colcon_core.environment:checking '/home/jacky/ros2_ws/src/learning_tf2_cpp/install/learning_tf2_cpp/lib'
[1.650s] Level 1:colcon.colcon_core.environment:checking '/home/jacky/ros2_ws/src/learning_tf2_cpp/install/learning_tf2_cpp/bin'
[1.650s] Level 1:colcon.colcon_core.environment:checking '/home/jacky/ros2_ws/src/learning_tf2_cpp/install/learning_tf2_cpp/lib/pkgconfig/learning_tf2_cpp.pc'
[1.650s] Level 1:colcon.colcon_core.environment:checking '/home/jacky/ros2_ws/src/learning_tf2_cpp/install/learning_tf2_cpp/lib/python3.10/site-packages'
[1.650s] Level 1:colcon.colcon_core.environment:checking '/home/jacky/ros2_ws/src/learning_tf2_cpp/install/learning_tf2_cpp/bin'
[1.663s] INFO:colcon.colcon_core.shell:Creating package script '/home/jacky/ros2_ws/src/learning_tf2_cpp/install/learning_tf2_cpp/share/learning_tf2_cpp/package.ps1'
[1.663s] INFO:colcon.colcon_core.shell:Creating package descriptor '/home/jacky/ros2_ws/src/learning_tf2_cpp/install/learning_tf2_cpp/share/learning_tf2_cpp/package.dsv'
[1.664s] INFO:colcon.colcon_core.shell:Creating package script '/home/jacky/ros2_ws/src/learning_tf2_cpp/install/learning_tf2_cpp/share/learning_tf2_cpp/package.sh'
[1.664s] INFO:colcon.colcon_core.shell:Creating package script '/home/jacky/ros2_ws/src/learning_tf2_cpp/install/learning_tf2_cpp/share/learning_tf2_cpp/package.bash'
[1.664s] INFO:colcon.colcon_core.shell:Creating package script '/home/jacky/ros2_ws/src/learning_tf2_cpp/install/learning_tf2_cpp/share/learning_tf2_cpp/package.zsh'
[1.665s] Level 1:colcon.colcon_core.environment:create_file_with_runtime_dependencies(/home/jacky/ros2_ws/src/learning_tf2_cpp/install/learning_tf2_cpp/share/colcon-core/packages/learning_tf2_cpp)
[1.665s] DEBUG:colcon.colcon_parallel_executor.executor.parallel:closing loop
[1.665s] DEBUG:colcon.colcon_parallel_executor.executor.parallel:loop closed
[1.665s] DEBUG:colcon.colcon_parallel_executor.executor.parallel:run_until_complete finished with '0'
[1.665s] DEBUG:colcon.colcon_core.event_reactor:joining thread
[1.687s] INFO:colcon.colcon_core.plugin_system:Skipping extension 'colcon_notification.desktop_notification.terminal_notifier': Not used on non-Darwin systems
[1.687s] INFO:colcon.colcon_core.plugin_system:Skipping extension 'colcon_notification.desktop_notification.win32': Not used on non-Windows systems
[1.687s] INFO:colcon.colcon_notification.desktop_notification:Sending desktop notification using 'notify2'
[1.696s] DEBUG:colcon.colcon_core.event_reactor:joined thread
[1.715s] INFO:colcon.colcon_core.shell:Creating prefix script '/home/jacky/ros2_ws/src/learning_tf2_cpp/install/local_setup.ps1'
[1.716s] INFO:colcon.colcon_core.shell:Creating prefix util module '/home/jacky/ros2_ws/src/learning_tf2_cpp/install/_local_setup_util_ps1.py'
[1.718s] INFO:colcon.colcon_core.shell:Creating prefix chain script '/home/jacky/ros2_ws/src/learning_tf2_cpp/install/setup.ps1'
[1.733s] INFO:colcon.colcon_core.shell:Creating prefix script '/home/jacky/ros2_ws/src/learning_tf2_cpp/install/local_setup.sh'
[1.733s] INFO:colcon.colcon_core.shell:Creating prefix util module '/home/jacky/ros2_ws/src/learning_tf2_cpp/install/_local_setup_util_sh.py'
[1.734s] INFO:colcon.colcon_core.shell:Creating prefix chain script '/home/jacky/ros2_ws/src/learning_tf2_cpp/install/setup.sh'
[1.749s] INFO:colcon.colcon_core.shell:Creating prefix script '/home/jacky/ros2_ws/src/learning_tf2_cpp/install/local_setup.bash'
[1.750s] INFO:colcon.colcon_core.shell:Creating prefix chain script '/home/jacky/ros2_ws/src/learning_tf2_cpp/install/setup.bash'
[1.765s] INFO:colcon.colcon_core.shell:Creating prefix script '/home/jacky/ros2_ws/src/learning_tf2_cpp/install/local_setup.zsh'
[1.766s] INFO:colcon.colcon_core.shell:Creating prefix chain script '/home/jacky/ros2_ws/src/learning_tf2_cpp/install/setup.zsh'
