[1.064s] Invoking command in '/home/jacky/ros2_ws/src/examples/rclpy/services/minimal_client': AMENT_PREFIX_PATH=/home/jacky/ros2_ws/install/examples_rclpy_minimal_client:${AMENT_PREFIX_PATH} PYTEST_ADDOPTS=--tb=short --junit-xml=/home/jacky/ros2_ws/build/examples_rclpy_minimal_client/pytest.xml --junit-prefix=examples_rclpy_minimal_client -o cache_dir=/home/jacky/ros2_ws/build/examples_rclpy_minimal_client/.pytest_cache PYTHONPATH=/home/jacky/ros2_ws/install/examples_rclpy_minimal_client/lib/python3.10/site-packages:${PYTHONPATH} /usr/bin/python3 -m pytest
[2.031s] [1m============================= test session starts ==============================[0m
[2.032s] platform linux -- Python 3.10.12, pytest-6.2.5, py-1.10.0, pluggy-0.13.0
[2.032s] cachedir: /home/jacky/ros2_ws/build/examples_rclpy_minimal_client/.pytest_cache
[2.032s] rootdir: /home/jacky/ros2_ws/src/examples/rclpy, configfile: pytest.ini
[2.032s] plugins: ament-pep257-0.12.8, ament-xmllint-0.12.8, ament-copyright-0.12.8, ament-lint-0.12.8, ament-flake8-0.12.8, launch-testing-1.0.4, launch-testing-ros-0.19.6, timeout-2.1.0, mock-3.6.1, repeat-0.9.1, colcon-core-0.15.0, rerunfailures-10.2, cov-3.0.0
[2.032s] [1mcollecting ... [0m[1m
[2.032s] collected 3 items                                                              [0m
[2.032s] 
[2.033s] test/test_copyright.py [32m.[0m[32m                                                 [ 33%][0m
[2.033s] test/test_flake8.py [32m.[0m[33m                                                    [ 66%][0m
[2.033s] test/test_pep257.py [32m.[0m[33m                                                    [100%][0m
[2.033s] - generated xml file: /home/jacky/ros2_ws/build/examples_rclpy_minimal_client/pytest.xml -
[2.033s] [33m======================== [32m3 passed[0m, [33m[1m2 warnings[0m[33m in 0.50s[0m[33m =========================[0m
[2.035s] 
[2.036s] [33m=============================== warnings summary ===============================[0m
[2.036s] services/minimal_client/test/test_flake8.py::test_flake8
[2.036s] services/minimal_client/test/test_flake8.py::test_flake8
[2.036s]   Warning: SelectableGroups dict interface is deprecated. Use select.
[2.036s] 
[2.036s] -- Docs: https://docs.pytest.org/en/stable/warnings.html
[3.289s] Invoked command in '/home/jacky/ros2_ws/src/examples/rclpy/services/minimal_client' returned '0': AMENT_PREFIX_PATH=/home/jacky/ros2_ws/install/examples_rclpy_minimal_client:${AMENT_PREFIX_PATH} PYTEST_ADDOPTS=--tb=short --junit-xml=/home/jacky/ros2_ws/build/examples_rclpy_minimal_client/pytest.xml --junit-prefix=examples_rclpy_minimal_client -o cache_dir=/home/jacky/ros2_ws/build/examples_rclpy_minimal_client/.pytest_cache PYTHONPATH=/home/jacky/ros2_ws/install/examples_rclpy_minimal_client/lib/python3.10/site-packages:${PYTHONPATH} /usr/bin/python3 -m pytest
