UpdateCTestConfiguration  from :/home/jacky/ros2_test_ws/build/test_cpp/CTestConfiguration.ini
Parse Config file:/home/jacky/ros2_test_ws/build/test_cpp/CTestConfiguration.ini
   Site: Alienware-m15-JK
   Build name: (empty)
 Add coverage exclude regular expressions.
Create new tag: 20231104-2038 - Experimental
UpdateCTestConfiguration  from :/home/jacky/ros2_test_ws/build/test_cpp/CTestConfiguration.ini
Parse Config file:/home/jacky/ros2_test_ws/build/test_cpp/CTestConfiguration.ini
Test project /home/jacky/ros2_test_ws/build/test_cpp
Constructing a list of tests
Done constructing a list of tests
Updating test list for fixtures
Added 0 tests to meet fixture requirements
Checking test dependency graph...
Checking test dependency graph end
test 1
    Start 1: test_cpp_test

1: Test command: /usr/bin/python3.10 "-u" "/opt/ros/humble/share/ament_cmake_test/cmake/run_test.py" "/home/jacky/ros2_test_ws/build/test_cpp/test_results/test_cpp/test_cpp_test.gtest.xml" "--package-name" "test_cpp" "--output-file" "/home/jacky/ros2_test_ws/build/test_cpp/ament_cmake_gtest/test_cpp_test.txt" "--command" "/home/jacky/ros2_test_ws/build/test_cpp/test_cpp_test" "--gtest_output=xml:/home/jacky/ros2_test_ws/build/test_cpp/test_results/test_cpp/test_cpp_test.gtest.xml"
1: Test timeout computed to be: 60
1: -- run_test.py: invoking following command in '/home/jacky/ros2_test_ws/build/test_cpp':
1:  - /home/jacky/ros2_test_ws/build/test_cpp/test_cpp_test --gtest_output=xml:/home/jacky/ros2_test_ws/build/test_cpp/test_results/test_cpp/test_cpp_test.gtest.xml
1: [==========] Running 1 test from 1 test suite.
1: [----------] Global test environment set-up.
1: [----------] 1 test from package_name
1: [ RUN      ] package_name.failure
1: [       OK ] package_name.failure (0 ms)
1: [----------] 1 test from package_name (0 ms total)
1: 
1: [----------] Global test environment tear-down
1: [==========] 1 test from 1 test suite ran. (0 ms total)
1: [  PASSED  ] 1 test.
1: -- run_test.py: return code 0
1: -- run_test.py: inject classname prefix into gtest result file '/home/jacky/ros2_test_ws/build/test_cpp/test_results/test_cpp/test_cpp_test.gtest.xml'
1: -- run_test.py: verify result file '/home/jacky/ros2_test_ws/build/test_cpp/test_results/test_cpp/test_cpp_test.gtest.xml'
1/1 Test #1: test_cpp_test ....................   Passed    0.06 sec

[0;32m100% tests passed[0;0m, 0 tests failed[0;0m out of 1

Label Time Summary:
gtest    =   0.06 sec*proc (1 test)

Total Test time (real) =   0.06 sec
