[0.640s] Invoking command in '/home/jacky/ros2_ws/src/py_pubsub': PYTHONPATH=/home/jacky/ros2_ws/build/py_pubsub/prefix_override:/home/jacky/ros2_ws/install/py_pubsub/lib/python3.10/site-packages:${PYTHONPATH} /usr/bin/python3 setup.py egg_info --egg-base ../../build/py_pubsub build --build-base /home/jacky/ros2_ws/build/py_pubsub/build install --record /home/jacky/ros2_ws/build/py_pubsub/install.log --single-version-externally-managed
[0.837s] running egg_info
[0.837s] creating ../../build/py_pubsub/py_pubsub.egg-info
[0.838s] writing ../../build/py_pubsub/py_pubsub.egg-info/PKG-INFO
[0.838s] writing dependency_links to ../../build/py_pubsub/py_pubsub.egg-info/dependency_links.txt
[0.838s] writing entry points to ../../build/py_pubsub/py_pubsub.egg-info/entry_points.txt
[0.838s] writing requirements to ../../build/py_pubsub/py_pubsub.egg-info/requires.txt
[0.838s] writing top-level names to ../../build/py_pubsub/py_pubsub.egg-info/top_level.txt
[0.838s] writing manifest file '../../build/py_pubsub/py_pubsub.egg-info/SOURCES.txt'
[0.839s] reading manifest file '../../build/py_pubsub/py_pubsub.egg-info/SOURCES.txt'
[0.840s] writing manifest file '../../build/py_pubsub/py_pubsub.egg-info/SOURCES.txt'
[0.840s] running build
[0.840s] running build_py
[0.840s] creating /home/jacky/ros2_ws/build/py_pubsub/build
[0.840s] creating /home/jacky/ros2_ws/build/py_pubsub/build/lib
[0.840s] creating /home/jacky/ros2_ws/build/py_pubsub/build/lib/py_pubsub
[0.840s] copying py_pubsub/subscriber_member_function.py -> /home/jacky/ros2_ws/build/py_pubsub/build/lib/py_pubsub
[0.840s] copying py_pubsub/__init__.py -> /home/jacky/ros2_ws/build/py_pubsub/build/lib/py_pubsub
[0.840s] copying py_pubsub/publisher_member_function.py -> /home/jacky/ros2_ws/build/py_pubsub/build/lib/py_pubsub
[0.840s] running install
[0.841s] /usr/lib/python3/dist-packages/setuptools/command/install.py:34: SetuptoolsDeprecationWarning: setup.py install is deprecated. Use build and pip and other standards-based tools.
[0.841s]   warnings.warn(
[0.841s] running install_lib
[0.841s] creating /home/jacky/ros2_ws/install/py_pubsub/lib/python3.10/site-packages/py_pubsub
[0.841s] copying /home/jacky/ros2_ws/build/py_pubsub/build/lib/py_pubsub/subscriber_member_function.py -> /home/jacky/ros2_ws/install/py_pubsub/lib/python3.10/site-packages/py_pubsub
[0.841s] copying /home/jacky/ros2_ws/build/py_pubsub/build/lib/py_pubsub/__init__.py -> /home/jacky/ros2_ws/install/py_pubsub/lib/python3.10/site-packages/py_pubsub
[0.841s] copying /home/jacky/ros2_ws/build/py_pubsub/build/lib/py_pubsub/publisher_member_function.py -> /home/jacky/ros2_ws/install/py_pubsub/lib/python3.10/site-packages/py_pubsub
[0.842s] byte-compiling /home/jacky/ros2_ws/install/py_pubsub/lib/python3.10/site-packages/py_pubsub/subscriber_member_function.py to subscriber_member_function.cpython-310.pyc
[0.842s] byte-compiling /home/jacky/ros2_ws/install/py_pubsub/lib/python3.10/site-packages/py_pubsub/__init__.py to __init__.cpython-310.pyc
[0.842s] byte-compiling /home/jacky/ros2_ws/install/py_pubsub/lib/python3.10/site-packages/py_pubsub/publisher_member_function.py to publisher_member_function.cpython-310.pyc
[0.843s] running install_data
[0.843s] creating /home/jacky/ros2_ws/install/py_pubsub/share/ament_index
[0.843s] creating /home/jacky/ros2_ws/install/py_pubsub/share/ament_index/resource_index
[0.843s] creating /home/jacky/ros2_ws/install/py_pubsub/share/ament_index/resource_index/packages
[0.843s] copying resource/py_pubsub -> /home/jacky/ros2_ws/install/py_pubsub/share/ament_index/resource_index/packages
[0.843s] copying package.xml -> /home/jacky/ros2_ws/install/py_pubsub/share/py_pubsub
[0.843s] running install_egg_info
[0.845s] Copying ../../build/py_pubsub/py_pubsub.egg-info to /home/jacky/ros2_ws/install/py_pubsub/lib/python3.10/site-packages/py_pubsub-0.0.0-py3.10.egg-info
[0.845s] running install_scripts
[0.862s] Installing listener script to /home/jacky/ros2_ws/install/py_pubsub/lib/py_pubsub
[0.862s] Installing talker script to /home/jacky/ros2_ws/install/py_pubsub/lib/py_pubsub
[0.862s] writing list of installed files to '/home/jacky/ros2_ws/build/py_pubsub/install.log'
[0.879s] Invoked command in '/home/jacky/ros2_ws/src/py_pubsub' returned '0': PYTHONPATH=/home/jacky/ros2_ws/build/py_pubsub/prefix_override:/home/jacky/ros2_ws/install/py_pubsub/lib/python3.10/site-packages:${PYTHONPATH} /usr/bin/python3 setup.py egg_info --egg-base ../../build/py_pubsub build --build-base /home/jacky/ros2_ws/build/py_pubsub/build install --record /home/jacky/ros2_ws/build/py_pubsub/install.log --single-version-externally-managed
