[0.072s] Invoking command in '/home/jacky/ros2_ws/build/cpp_pubsub': CMAKE_PREFIX_PATH=/home/jacky/ros2_ws/install/tutorial_interfaces:/home/jacky/ros2_ws/install/cpp_pubsub:/home/jacky/ros2_ws/install/learning_tf2_cpp:/home/jacky/ros2_ws/install/turtlesim:/home/jacky/ros2_ws/install/polygon_plugins:/home/jacky/ros2_ws/install/polygon_base:/home/jacky/ros2_ws/install/my_package:/home/jacky/ros2_ws/install/more_interfaces:/home/jacky/ros2_ws/install/examples_rclcpp_wait_set:/home/jacky/ros2_ws/install/examples_rclcpp_multithreaded_executor:/home/jacky/ros2_ws/install/examples_rclcpp_minimal_timer:/home/jacky/ros2_ws/install/examples_rclcpp_minimal_subscriber:/home/jacky/ros2_ws/install/examples_rclcpp_minimal_service:/home/jacky/ros2_ws/install/examples_rclcpp_minimal_publisher:/home/jacky/ros2_ws/install/examples_rclcpp_minimal_composition:/home/jacky/ros2_ws/install/examples_rclcpp_minimal_client:/home/jacky/ros2_ws/install/examples_rclcpp_minimal_action_server:/home/jacky/ros2_ws/install/examples_rclcpp_minimal_action_client:/home/jacky/ros2_ws/install/examples_rclcpp_cbg_executor:/home/jacky/ros2_ws/install/examples_rclcpp_async_client:/home/jacky/ros2_ws/install/cpp_parameters:/home/jacky/ros2_ws/install/cpp_parameter_event_handler:/home/jacky/ros2_ws/install/action_tutorials_interfaces:/home/jacky/ros2_ws/install/cpp_srvcli:/home/jacky/ros2_ws/install/py_srvcli:/home/jacky/ros2_ws/install/py_pubsub:/home/jacky/ros2_ws/install/my_py_package:/home/jacky/ros2_ws/install/learning_tf2_py:/home/jacky/ros2_ws/install/launch_testing_examples:/home/jacky/ros2_ws/install/examples_rclpy_pointcloud_publisher:/home/jacky/ros2_ws/install/examples_rclpy_minimal_subscriber:/home/jacky/ros2_ws/install/examples_rclpy_minimal_service:/home/jacky/ros2_ws/install/examples_rclpy_minimal_publisher:/home/jacky/ros2_ws/install/examples_rclpy_minimal_client:/home/jacky/ros2_ws/install/examples_rclpy_minimal_action_server:/home/jacky/ros2_ws/install/examples_rclpy_minimal_action_client:/home/jacky/ros2_ws/install/examples_rclpy_guard_conditions:/home/jacky/ros2_ws/install/examples_rclpy_executors:/opt/ros/humble /usr/bin/cmake --build /home/jacky/ros2_ws/build/cpp_pubsub -- -j16 -l16
[0.098s] -- Found ament_cmake: 1.3.5 (/opt/ros/humble/share/ament_cmake/cmake)
[0.244s] -- Found rclcpp: 16.0.6 (/opt/ros/humble/share/rclcpp/cmake)
[0.269s] -- Found rosidl_generator_c: 3.1.5 (/opt/ros/humble/share/rosidl_generator_c/cmake)
[0.271s] -- Found rosidl_adapter: 3.1.5 (/opt/ros/humble/share/rosidl_adapter/cmake)
[0.276s] -- Found rosidl_generator_cpp: 3.1.5 (/opt/ros/humble/share/rosidl_generator_cpp/cmake)
[0.285s] -- Using all available rosidl_typesupport_c: rosidl_typesupport_fastrtps_c;rosidl_typesupport_introspection_c
[0.298s] -- Using all available rosidl_typesupport_cpp: rosidl_typesupport_fastrtps_cpp;rosidl_typesupport_introspection_cpp
[0.344s] -- Found rmw_implementation_cmake: 6.1.1 (/opt/ros/humble/share/rmw_implementation_cmake/cmake)
[0.346s] -- Found rmw_fastrtps_cpp: 6.2.4 (/opt/ros/humble/share/rmw_fastrtps_cpp/cmake)
[0.473s] -- Using RMW implementation 'rmw_fastrtps_cpp' as default
[0.593s] -- Found tutorial_interfaces: 0.0.0 (/home/jacky/ros2_ws/install/tutorial_interfaces/share/tutorial_interfaces/cmake)
[0.682s] -- Found ament_lint_auto: 0.12.8 (/opt/ros/humble/share/ament_lint_auto/cmake)
[0.751s] -- Added test 'cppcheck' to perform static code analysis on C / C++ code
[0.751s] -- Configured cppcheck include dirs: 
[0.751s] -- Configured cppcheck exclude dirs and/or files: 
[0.751s] -- Added test 'lint_cmake' to check CMake code style
[0.752s] -- Added test 'uncrustify' to check C / C++ code style
[0.752s] -- Configured uncrustify additional arguments: 
[0.752s] -- Added test 'xmllint' to check XML markup files
[0.753s] -- Configuring done
[0.768s] -- Generating done
[0.769s] -- Build files have been written to: /home/jacky/ros2_ws/build/cpp_pubsub
[0.799s] [35m[1mConsolidate compiler generated dependencies of target listener_with_topic_statistics[0m
[0.800s] [35m[1mConsolidate compiler generated dependencies of target listener[0m
[0.800s] [35m[1mConsolidate compiler generated dependencies of target talker[0m
[0.821s] [ 83%] Built target talker
[0.821s] [100%] Built target listener
[0.821s] [100%] Built target listener_with_topic_statistics
[0.835s] Invoked command in '/home/jacky/ros2_ws/build/cpp_pubsub' returned '0': CMAKE_PREFIX_PATH=/home/jacky/ros2_ws/install/tutorial_interfaces:/home/jacky/ros2_ws/install/cpp_pubsub:/home/jacky/ros2_ws/install/learning_tf2_cpp:/home/jacky/ros2_ws/install/turtlesim:/home/jacky/ros2_ws/install/polygon_plugins:/home/jacky/ros2_ws/install/polygon_base:/home/jacky/ros2_ws/install/my_package:/home/jacky/ros2_ws/install/more_interfaces:/home/jacky/ros2_ws/install/examples_rclcpp_wait_set:/home/jacky/ros2_ws/install/examples_rclcpp_multithreaded_executor:/home/jacky/ros2_ws/install/examples_rclcpp_minimal_timer:/home/jacky/ros2_ws/install/examples_rclcpp_minimal_subscriber:/home/jacky/ros2_ws/install/examples_rclcpp_minimal_service:/home/jacky/ros2_ws/install/examples_rclcpp_minimal_publisher:/home/jacky/ros2_ws/install/examples_rclcpp_minimal_composition:/home/jacky/ros2_ws/install/examples_rclcpp_minimal_client:/home/jacky/ros2_ws/install/examples_rclcpp_minimal_action_server:/home/jacky/ros2_ws/install/examples_rclcpp_minimal_action_client:/home/jacky/ros2_ws/install/examples_rclcpp_cbg_executor:/home/jacky/ros2_ws/install/examples_rclcpp_async_client:/home/jacky/ros2_ws/install/cpp_parameters:/home/jacky/ros2_ws/install/cpp_parameter_event_handler:/home/jacky/ros2_ws/install/action_tutorials_interfaces:/home/jacky/ros2_ws/install/cpp_srvcli:/home/jacky/ros2_ws/install/py_srvcli:/home/jacky/ros2_ws/install/py_pubsub:/home/jacky/ros2_ws/install/my_py_package:/home/jacky/ros2_ws/install/learning_tf2_py:/home/jacky/ros2_ws/install/launch_testing_examples:/home/jacky/ros2_ws/install/examples_rclpy_pointcloud_publisher:/home/jacky/ros2_ws/install/examples_rclpy_minimal_subscriber:/home/jacky/ros2_ws/install/examples_rclpy_minimal_service:/home/jacky/ros2_ws/install/examples_rclpy_minimal_publisher:/home/jacky/ros2_ws/install/examples_rclpy_minimal_client:/home/jacky/ros2_ws/install/examples_rclpy_minimal_action_server:/home/jacky/ros2_ws/install/examples_rclpy_minimal_action_client:/home/jacky/ros2_ws/install/examples_rclpy_guard_conditions:/home/jacky/ros2_ws/install/examples_rclpy_executors:/opt/ros/humble /usr/bin/cmake --build /home/jacky/ros2_ws/build/cpp_pubsub -- -j16 -l16
[0.888s] Invoking command in '/home/jacky/ros2_ws/build/cpp_pubsub': CMAKE_PREFIX_PATH=/home/jacky/ros2_ws/install/tutorial_interfaces:/home/jacky/ros2_ws/install/cpp_pubsub:/home/jacky/ros2_ws/install/learning_tf2_cpp:/home/jacky/ros2_ws/install/turtlesim:/home/jacky/ros2_ws/install/polygon_plugins:/home/jacky/ros2_ws/install/polygon_base:/home/jacky/ros2_ws/install/my_package:/home/jacky/ros2_ws/install/more_interfaces:/home/jacky/ros2_ws/install/examples_rclcpp_wait_set:/home/jacky/ros2_ws/install/examples_rclcpp_multithreaded_executor:/home/jacky/ros2_ws/install/examples_rclcpp_minimal_timer:/home/jacky/ros2_ws/install/examples_rclcpp_minimal_subscriber:/home/jacky/ros2_ws/install/examples_rclcpp_minimal_service:/home/jacky/ros2_ws/install/examples_rclcpp_minimal_publisher:/home/jacky/ros2_ws/install/examples_rclcpp_minimal_composition:/home/jacky/ros2_ws/install/examples_rclcpp_minimal_client:/home/jacky/ros2_ws/install/examples_rclcpp_minimal_action_server:/home/jacky/ros2_ws/install/examples_rclcpp_minimal_action_client:/home/jacky/ros2_ws/install/examples_rclcpp_cbg_executor:/home/jacky/ros2_ws/install/examples_rclcpp_async_client:/home/jacky/ros2_ws/install/cpp_parameters:/home/jacky/ros2_ws/install/cpp_parameter_event_handler:/home/jacky/ros2_ws/install/action_tutorials_interfaces:/home/jacky/ros2_ws/install/cpp_srvcli:/home/jacky/ros2_ws/install/py_srvcli:/home/jacky/ros2_ws/install/py_pubsub:/home/jacky/ros2_ws/install/my_py_package:/home/jacky/ros2_ws/install/learning_tf2_py:/home/jacky/ros2_ws/install/launch_testing_examples:/home/jacky/ros2_ws/install/examples_rclpy_pointcloud_publisher:/home/jacky/ros2_ws/install/examples_rclpy_minimal_subscriber:/home/jacky/ros2_ws/install/examples_rclpy_minimal_service:/home/jacky/ros2_ws/install/examples_rclpy_minimal_publisher:/home/jacky/ros2_ws/install/examples_rclpy_minimal_client:/home/jacky/ros2_ws/install/examples_rclpy_minimal_action_server:/home/jacky/ros2_ws/install/examples_rclpy_minimal_action_client:/home/jacky/ros2_ws/install/examples_rclpy_guard_conditions:/home/jacky/ros2_ws/install/examples_rclpy_executors:/opt/ros/humble /usr/bin/cmake --install /home/jacky/ros2_ws/build/cpp_pubsub
[0.896s] -- Install configuration: ""
[0.896s] -- Up-to-date: /home/jacky/ros2_ws/install/cpp_pubsub/lib/cpp_pubsub/talker
[0.897s] -- Up-to-date: /home/jacky/ros2_ws/install/cpp_pubsub/lib/cpp_pubsub/listener
[0.897s] -- Up-to-date: /home/jacky/ros2_ws/install/cpp_pubsub/lib/cpp_pubsub/listener_with_topic_statistics
[0.897s] -- Installing: /home/jacky/ros2_ws/install/cpp_pubsub/share/ament_index/resource_index/package_run_dependencies/cpp_pubsub
[0.897s] -- Up-to-date: /home/jacky/ros2_ws/install/cpp_pubsub/share/ament_index/resource_index/parent_prefix_path/cpp_pubsub
[0.898s] -- Up-to-date: /home/jacky/ros2_ws/install/cpp_pubsub/share/cpp_pubsub/environment/ament_prefix_path.sh
[0.898s] -- Installing: /home/jacky/ros2_ws/install/cpp_pubsub/share/cpp_pubsub/environment/ament_prefix_path.dsv
[0.898s] -- Up-to-date: /home/jacky/ros2_ws/install/cpp_pubsub/share/cpp_pubsub/environment/path.sh
[0.898s] -- Installing: /home/jacky/ros2_ws/install/cpp_pubsub/share/cpp_pubsub/environment/path.dsv
[0.898s] -- Up-to-date: /home/jacky/ros2_ws/install/cpp_pubsub/share/cpp_pubsub/local_setup.bash
[0.898s] -- Up-to-date: /home/jacky/ros2_ws/install/cpp_pubsub/share/cpp_pubsub/local_setup.sh
[0.898s] -- Up-to-date: /home/jacky/ros2_ws/install/cpp_pubsub/share/cpp_pubsub/local_setup.zsh
[0.898s] -- Installing: /home/jacky/ros2_ws/install/cpp_pubsub/share/cpp_pubsub/local_setup.dsv
[0.898s] -- Installing: /home/jacky/ros2_ws/install/cpp_pubsub/share/cpp_pubsub/package.dsv
[0.898s] -- Up-to-date: /home/jacky/ros2_ws/install/cpp_pubsub/share/ament_index/resource_index/packages/cpp_pubsub
[0.898s] -- Up-to-date: /home/jacky/ros2_ws/install/cpp_pubsub/share/cpp_pubsub/cmake/cpp_pubsubConfig.cmake
[0.898s] -- Up-to-date: /home/jacky/ros2_ws/install/cpp_pubsub/share/cpp_pubsub/cmake/cpp_pubsubConfig-version.cmake
[0.898s] -- Installing: /home/jacky/ros2_ws/install/cpp_pubsub/share/cpp_pubsub/package.xml
[0.901s] Invoked command in '/home/jacky/ros2_ws/build/cpp_pubsub' returned '0': CMAKE_PREFIX_PATH=/home/jacky/ros2_ws/install/tutorial_interfaces:/home/jacky/ros2_ws/install/cpp_pubsub:/home/jacky/ros2_ws/install/learning_tf2_cpp:/home/jacky/ros2_ws/install/turtlesim:/home/jacky/ros2_ws/install/polygon_plugins:/home/jacky/ros2_ws/install/polygon_base:/home/jacky/ros2_ws/install/my_package:/home/jacky/ros2_ws/install/more_interfaces:/home/jacky/ros2_ws/install/examples_rclcpp_wait_set:/home/jacky/ros2_ws/install/examples_rclcpp_multithreaded_executor:/home/jacky/ros2_ws/install/examples_rclcpp_minimal_timer:/home/jacky/ros2_ws/install/examples_rclcpp_minimal_subscriber:/home/jacky/ros2_ws/install/examples_rclcpp_minimal_service:/home/jacky/ros2_ws/install/examples_rclcpp_minimal_publisher:/home/jacky/ros2_ws/install/examples_rclcpp_minimal_composition:/home/jacky/ros2_ws/install/examples_rclcpp_minimal_client:/home/jacky/ros2_ws/install/examples_rclcpp_minimal_action_server:/home/jacky/ros2_ws/install/examples_rclcpp_minimal_action_client:/home/jacky/ros2_ws/install/examples_rclcpp_cbg_executor:/home/jacky/ros2_ws/install/examples_rclcpp_async_client:/home/jacky/ros2_ws/install/cpp_parameters:/home/jacky/ros2_ws/install/cpp_parameter_event_handler:/home/jacky/ros2_ws/install/action_tutorials_interfaces:/home/jacky/ros2_ws/install/cpp_srvcli:/home/jacky/ros2_ws/install/py_srvcli:/home/jacky/ros2_ws/install/py_pubsub:/home/jacky/ros2_ws/install/my_py_package:/home/jacky/ros2_ws/install/learning_tf2_py:/home/jacky/ros2_ws/install/launch_testing_examples:/home/jacky/ros2_ws/install/examples_rclpy_pointcloud_publisher:/home/jacky/ros2_ws/install/examples_rclpy_minimal_subscriber:/home/jacky/ros2_ws/install/examples_rclpy_minimal_service:/home/jacky/ros2_ws/install/examples_rclpy_minimal_publisher:/home/jacky/ros2_ws/install/examples_rclpy_minimal_client:/home/jacky/ros2_ws/install/examples_rclpy_minimal_action_server:/home/jacky/ros2_ws/install/examples_rclpy_minimal_action_client:/home/jacky/ros2_ws/install/examples_rclpy_guard_conditions:/home/jacky/ros2_ws/install/examples_rclpy_executors:/opt/ros/humble /usr/bin/cmake --install /home/jacky/ros2_ws/build/cpp_pubsub
