[1m============================= test session starts ==============================[0m
platform linux -- Python 3.10.12, pytest-6.2.5, py-1.10.0, pluggy-0.13.0
cachedir: /home/jacky/ros2_ws/build/my_py_package/.pytest_cache
rootdir: /home/jacky/ros2_ws/src/my_py_package
plugins: ament-pep257-0.12.8, ament-xmllint-0.12.8, ament-copyright-0.12.8, ament-lint-0.12.8, ament-flake8-0.12.8, launch-testing-1.0.4, launch-testing-ros-0.19.6, timeout-2.1.0, mock-3.6.1, repeat-0.9.1, colcon-core-0.15.0, rerunfailures-10.2, cov-3.0.0
[1mcollecting ... [0m[1m
collected 3 items                                                              [0m

test/test_copyright.py [33ms[0m[32m                                                 [ 33%][0m
test/test_flake8.py [31mF[0m[31m                                                    [ 66%][0m
test/test_pep257.py [32m.[0m[31m                                                    [100%][0m

=================================== FAILURES ===================================
[31m[1m_________________________________ test_flake8 __________________________________[0m
[1m[31mtest/test_flake8.py[0m:23: in test_flake8
    [94massert[39;49;00m rc == [94m0[39;49;00m, \
[1m[31mE   AssertionError: Found 3 code style errors / warnings:[0m
[1m[31mE     ./setup.py:16:1: W293 blank line contains whitespace[0m
[1m[31mE     ./my_py_package/my_node.py:3:22: W291 trailing whitespace[0m
[1m[31mE     ./my_py_package/my_node.py:5:1: E302 expected 2 blank lines, found 1[0m
[1m[31mE   assert 1 == 0[0m
----------------------------- Captured stdout call -----------------------------

./setup.py:16:1: W293 blank line contains whitespace
    
^

./my_py_package/my_node.py:3:22: W291 trailing whitespace
    assert 2 + 2 == 5  
                     ^

./my_py_package/my_node.py:5:1: E302 expected 2 blank lines, found 1
def main():
^

1     E302 expected 2 blank lines, found 1
1     W291 trailing whitespace
1     W293 blank line contains whitespace

6 files checked
3 errors

'E'-type errors: 1
'W'-type errors: 2

Checked files:

* ./setup.py
* ./my_py_package/__init__.py
* ./my_py_package/my_node.py
* ./test/test_flake8.py
* ./test/test_copyright.py
* ./test/test_pep257.py
----------------------------- Captured stderr call -----------------------------
option --max-complexity: please update from optparse string `type=` to argparse callable `type=` -- this will be an error in the future
option --application-import-names: please update from optparse string `type=` to argparse callable `type=` -- this will be an error in the future
option --application-package-names: please update from optparse string `type=` to argparse callable `type=` -- this will be an error in the future
option --import-order-style: please update from optparse string `type=` to argparse callable `type=` -- this will be an error in the future
option --quotes: please update from optparse string `type=` to argparse callable `type=` -- this will be an error in the future
option --inline-quotes: please update from optparse string `type=` to argparse callable `type=` -- this will be an error in the future
option --multiline-quotes: please update from optparse string `type=` to argparse callable `type=` -- this will be an error in the future
option --docstring-quotes: please update from optparse string `type=` to argparse callable `type=` -- this will be an error in the future
[33m=============================== warnings summary ===============================[0m
test/test_flake8.py::test_flake8
test/test_flake8.py::test_flake8
  Warning: SelectableGroups dict interface is deprecated. Use select.

-- Docs: https://docs.pytest.org/en/stable/warnings.html
---- generated xml file: /home/jacky/ros2_ws/build/my_py_package/pytest.xml ----
=========================== short test summary info ============================
FAILED test/test_flake8.py::test_flake8 - AssertionError: Found 3 code style ...
[31m============== [31m[1m1 failed[0m, [32m1 passed[0m, [33m1 skipped[0m, [33m2 warnings[0m[31m in 0.24s[0m[31m ==============[0m
