Invoking command in '/home/jacky/ros2_test_ws/build/test_cpp': CMAKE_PREFIX_PATH=/opt/ros/humble /usr/bin/cmake --build /home/jacky/ros2_test_ws/build/test_cpp -- -j16 -l16
Invoked command in '/home/jacky/ros2_test_ws/build/test_cpp' returned '0': CMAKE_PREFIX_PATH=/opt/ros/humble /usr/bin/cmake --build /home/jacky/ros2_test_ws/build/test_cpp -- -j16 -l16
Invoking command in '/home/jacky/ros2_test_ws/build/test_cpp': CMAKE_PREFIX_PATH=/opt/ros/humble /usr/bin/cmake --install /home/jacky/ros2_test_ws/build/test_cpp
Invoked command in '/home/jacky/ros2_test_ws/build/test_cpp' returned '0': CMAKE_PREFIX_PATH=/opt/ros/humble /usr/bin/cmake --install /home/jacky/ros2_test_ws/build/test_cpp
