[0.064s] Invoking command in '/home/jacky/ros2_ws/build/more_interfaces': CMAKE_PREFIX_PATH=${CMAKE_PREFIX_PATH}:/home/jacky/ros2_ws/install/py_srvcli:/home/jacky/ros2_ws/install/py_pubsub:/home/jacky/ros2_ws/install/my_py_package:/home/jacky/ros2_ws/install/launch_testing_examples:/home/jacky/ros2_ws/install/examples_rclpy_pointcloud_publisher:/home/jacky/ros2_ws/install/examples_rclpy_minimal_subscriber:/home/jacky/ros2_ws/install/examples_rclpy_minimal_service:/home/jacky/ros2_ws/install/examples_rclpy_minimal_publisher:/home/jacky/ros2_ws/install/examples_rclpy_minimal_client:/home/jacky/ros2_ws/install/examples_rclpy_minimal_action_server:/home/jacky/ros2_ws/install/examples_rclpy_minimal_action_client:/home/jacky/ros2_ws/install/examples_rclpy_guard_conditions:/home/jacky/ros2_ws/install/examples_rclpy_executors:/opt/ros/humble /usr/bin/cmake --build /home/jacky/ros2_ws/build/more_interfaces -- -j16 -l16
[0.121s] [  2%] Built target more_interfaces__cpp
[0.121s] [ 11%] Built target more_interfaces__rosidl_generator_c
[0.133s] [ 11%] Built target ament_cmake_python_copy_more_interfaces
[0.146s] [ 34%] Built target more_interfaces__rosidl_typesupport_fastrtps_cpp
[0.146s] [ 37%] Built target more_interfaces__rosidl_typesupport_introspection_cpp
[0.146s] [ 37%] Built target more_interfaces__rosidl_typesupport_cpp
[0.158s] [ 62%] Built target more_interfaces__rosidl_typesupport_introspection_c
[0.158s] [ 62%] Built target more_interfaces__rosidl_typesupport_fastrtps_c
[0.158s] [ 62%] Built target more_interfaces__rosidl_typesupport_c
[0.159s] [35m[1mConsolidate compiler generated dependencies of target subscribe_address_book[0m
[0.174s] [ 68%] Built target publish_address_book
[0.180s] [ 71%] [32mBuilding CXX object CMakeFiles/subscribe_address_book.dir/src/subscribe_address_book.cpp.o[0m
[0.181s] [ 71%] Built target more_interfaces
[0.206s] [ 74%] Built target more_interfaces__py
[0.232s] [ 80%] Built target more_interfaces__rosidl_generator_py
[0.258s] [ 97%] Built target more_interfaces__rosidl_typesupport_introspection_c__pyext
[0.258s] [ 97%] Built target more_interfaces__rosidl_typesupport_c__pyext
[0.258s] [ 97%] Built target more_interfaces__rosidl_typesupport_fastrtps_c__pyext
[0.381s] running egg_info
[0.381s] writing more_interfaces.egg-info/PKG-INFO
[0.381s] writing dependency_links to more_interfaces.egg-info/dependency_links.txt
[0.382s] writing top-level names to more_interfaces.egg-info/top_level.txt
[0.383s] reading manifest file 'more_interfaces.egg-info/SOURCES.txt'
[0.384s] writing manifest file 'more_interfaces.egg-info/SOURCES.txt'
[0.415s] [ 97%] Built target ament_cmake_python_build_more_interfaces_egg
[6.460s] [100%] [32m[1mLinking CXX executable subscribe_address_book[0m
[6.752s] [100%] Built target subscribe_address_book
[6.765s] Invoked command in '/home/jacky/ros2_ws/build/more_interfaces' returned '0': CMAKE_PREFIX_PATH=${CMAKE_PREFIX_PATH}:/home/jacky/ros2_ws/install/py_srvcli:/home/jacky/ros2_ws/install/py_pubsub:/home/jacky/ros2_ws/install/my_py_package:/home/jacky/ros2_ws/install/launch_testing_examples:/home/jacky/ros2_ws/install/examples_rclpy_pointcloud_publisher:/home/jacky/ros2_ws/install/examples_rclpy_minimal_subscriber:/home/jacky/ros2_ws/install/examples_rclpy_minimal_service:/home/jacky/ros2_ws/install/examples_rclpy_minimal_publisher:/home/jacky/ros2_ws/install/examples_rclpy_minimal_client:/home/jacky/ros2_ws/install/examples_rclpy_minimal_action_server:/home/jacky/ros2_ws/install/examples_rclpy_minimal_action_client:/home/jacky/ros2_ws/install/examples_rclpy_guard_conditions:/home/jacky/ros2_ws/install/examples_rclpy_executors:/opt/ros/humble /usr/bin/cmake --build /home/jacky/ros2_ws/build/more_interfaces -- -j16 -l16
[6.857s] Invoking command in '/home/jacky/ros2_ws/build/more_interfaces': CMAKE_PREFIX_PATH=${CMAKE_PREFIX_PATH}:/home/jacky/ros2_ws/install/py_srvcli:/home/jacky/ros2_ws/install/py_pubsub:/home/jacky/ros2_ws/install/my_py_package:/home/jacky/ros2_ws/install/launch_testing_examples:/home/jacky/ros2_ws/install/examples_rclpy_pointcloud_publisher:/home/jacky/ros2_ws/install/examples_rclpy_minimal_subscriber:/home/jacky/ros2_ws/install/examples_rclpy_minimal_service:/home/jacky/ros2_ws/install/examples_rclpy_minimal_publisher:/home/jacky/ros2_ws/install/examples_rclpy_minimal_client:/home/jacky/ros2_ws/install/examples_rclpy_minimal_action_server:/home/jacky/ros2_ws/install/examples_rclpy_minimal_action_client:/home/jacky/ros2_ws/install/examples_rclpy_guard_conditions:/home/jacky/ros2_ws/install/examples_rclpy_executors:/opt/ros/humble /usr/bin/cmake --install /home/jacky/ros2_ws/build/more_interfaces
[6.865s] -- Install configuration: ""
[6.865s] -- Up-to-date: /home/jacky/ros2_ws/install/more_interfaces/lib/more_interfaces/publish_address_book
[6.866s] -- Installing: /home/jacky/ros2_ws/install/more_interfaces/lib/more_interfaces/subscribe_address_book
[6.871s] -- Set runtime path of "/home/jacky/ros2_ws/install/more_interfaces/lib/more_interfaces/subscribe_address_book" to ""
[6.871s] -- Up-to-date: /home/jacky/ros2_ws/install/more_interfaces/share/ament_index/resource_index/rosidl_interfaces/more_interfaces
[6.871s] -- Up-to-date: /home/jacky/ros2_ws/install/more_interfaces/include/more_interfaces/more_interfaces
[6.871s] -- Up-to-date: /home/jacky/ros2_ws/install/more_interfaces/include/more_interfaces/more_interfaces/msg
[6.871s] -- Up-to-date: /home/jacky/ros2_ws/install/more_interfaces/include/more_interfaces/more_interfaces/msg/rosidl_generator_c__visibility_control.h
[6.871s] -- Up-to-date: /home/jacky/ros2_ws/install/more_interfaces/include/more_interfaces/more_interfaces/msg/address_book.h
[6.871s] -- Up-to-date: /home/jacky/ros2_ws/install/more_interfaces/include/more_interfaces/more_interfaces/msg/detail
[6.871s] -- Up-to-date: /home/jacky/ros2_ws/install/more_interfaces/include/more_interfaces/more_interfaces/msg/detail/address_book__functions.h
[6.871s] -- Up-to-date: /home/jacky/ros2_ws/install/more_interfaces/include/more_interfaces/more_interfaces/msg/detail/address_book__functions.c
[6.872s] -- Up-to-date: /home/jacky/ros2_ws/install/more_interfaces/include/more_interfaces/more_interfaces/msg/detail/address_book__type_support.h
[6.872s] -- Up-to-date: /home/jacky/ros2_ws/install/more_interfaces/include/more_interfaces/more_interfaces/msg/detail/address_book__struct.h
[6.872s] -- Up-to-date: /home/jacky/ros2_ws/install/more_interfaces/share/more_interfaces/environment/library_path.sh
[6.872s] -- Up-to-date: /home/jacky/ros2_ws/install/more_interfaces/share/more_interfaces/environment/library_path.dsv
[6.872s] -- Up-to-date: /home/jacky/ros2_ws/install/more_interfaces/lib/libmore_interfaces__rosidl_generator_c.so
[6.872s] -- Up-to-date: /home/jacky/ros2_ws/install/more_interfaces/include/more_interfaces/more_interfaces
[6.872s] -- Up-to-date: /home/jacky/ros2_ws/install/more_interfaces/include/more_interfaces/more_interfaces/msg
[6.872s] -- Up-to-date: /home/jacky/ros2_ws/install/more_interfaces/include/more_interfaces/more_interfaces/msg/rosidl_typesupport_fastrtps_c__visibility_control.h
[6.872s] -- Up-to-date: /home/jacky/ros2_ws/install/more_interfaces/include/more_interfaces/more_interfaces/msg/detail
[6.872s] -- Up-to-date: /home/jacky/ros2_ws/install/more_interfaces/include/more_interfaces/more_interfaces/msg/detail/address_book__rosidl_typesupport_fastrtps_c.h
[6.872s] -- Up-to-date: /home/jacky/ros2_ws/install/more_interfaces/lib/libmore_interfaces__rosidl_typesupport_fastrtps_c.so
[6.872s] -- Up-to-date: /home/jacky/ros2_ws/install/more_interfaces/include/more_interfaces/more_interfaces
[6.872s] -- Up-to-date: /home/jacky/ros2_ws/install/more_interfaces/include/more_interfaces/more_interfaces/msg
[6.873s] -- Up-to-date: /home/jacky/ros2_ws/install/more_interfaces/include/more_interfaces/more_interfaces/msg/rosidl_typesupport_introspection_c__visibility_control.h
[6.873s] -- Up-to-date: /home/jacky/ros2_ws/install/more_interfaces/include/more_interfaces/more_interfaces/msg/detail
[6.873s] -- Up-to-date: /home/jacky/ros2_ws/install/more_interfaces/include/more_interfaces/more_interfaces/msg/detail/address_book__type_support.c
[6.873s] -- Up-to-date: /home/jacky/ros2_ws/install/more_interfaces/include/more_interfaces/more_interfaces/msg/detail/address_book__rosidl_typesupport_introspection_c.h
[6.873s] -- Up-to-date: /home/jacky/ros2_ws/install/more_interfaces/lib/libmore_interfaces__rosidl_typesupport_introspection_c.so
[6.873s] -- Up-to-date: /home/jacky/ros2_ws/install/more_interfaces/lib/libmore_interfaces__rosidl_typesupport_c.so
[6.873s] -- Up-to-date: /home/jacky/ros2_ws/install/more_interfaces/include/more_interfaces/more_interfaces
[6.873s] -- Up-to-date: /home/jacky/ros2_ws/install/more_interfaces/include/more_interfaces/more_interfaces/msg
[6.873s] -- Up-to-date: /home/jacky/ros2_ws/install/more_interfaces/include/more_interfaces/more_interfaces/msg/detail
[6.873s] -- Up-to-date: /home/jacky/ros2_ws/install/more_interfaces/include/more_interfaces/more_interfaces/msg/detail/address_book__builder.hpp
[6.873s] -- Up-to-date: /home/jacky/ros2_ws/install/more_interfaces/include/more_interfaces/more_interfaces/msg/detail/address_book__traits.hpp
[6.873s] -- Up-to-date: /home/jacky/ros2_ws/install/more_interfaces/include/more_interfaces/more_interfaces/msg/detail/address_book__struct.hpp
[6.873s] -- Up-to-date: /home/jacky/ros2_ws/install/more_interfaces/include/more_interfaces/more_interfaces/msg/address_book.hpp
[6.874s] -- Up-to-date: /home/jacky/ros2_ws/install/more_interfaces/include/more_interfaces/more_interfaces
[6.874s] -- Up-to-date: /home/jacky/ros2_ws/install/more_interfaces/include/more_interfaces/more_interfaces/msg
[6.874s] -- Up-to-date: /home/jacky/ros2_ws/install/more_interfaces/include/more_interfaces/more_interfaces/msg/rosidl_typesupport_fastrtps_cpp__visibility_control.h
[6.874s] -- Up-to-date: /home/jacky/ros2_ws/install/more_interfaces/include/more_interfaces/more_interfaces/msg/detail
[6.874s] -- Up-to-date: /home/jacky/ros2_ws/install/more_interfaces/include/more_interfaces/more_interfaces/msg/detail/dds_fastrtps
[6.874s] -- Up-to-date: /home/jacky/ros2_ws/install/more_interfaces/include/more_interfaces/more_interfaces/msg/detail/address_book__rosidl_typesupport_fastrtps_cpp.hpp
[6.874s] -- Up-to-date: /home/jacky/ros2_ws/install/more_interfaces/lib/libmore_interfaces__rosidl_typesupport_fastrtps_cpp.so
[6.874s] -- Up-to-date: /home/jacky/ros2_ws/install/more_interfaces/include/more_interfaces/more_interfaces
[6.874s] -- Up-to-date: /home/jacky/ros2_ws/install/more_interfaces/include/more_interfaces/more_interfaces/msg
[6.874s] -- Up-to-date: /home/jacky/ros2_ws/install/more_interfaces/include/more_interfaces/more_interfaces/msg/detail
[6.874s] -- Up-to-date: /home/jacky/ros2_ws/install/more_interfaces/include/more_interfaces/more_interfaces/msg/detail/address_book__rosidl_typesupport_introspection_cpp.hpp
[6.874s] -- Up-to-date: /home/jacky/ros2_ws/install/more_interfaces/include/more_interfaces/more_interfaces/msg/detail/address_book__type_support.cpp
[6.874s] -- Up-to-date: /home/jacky/ros2_ws/install/more_interfaces/lib/libmore_interfaces__rosidl_typesupport_introspection_cpp.so
[6.874s] -- Up-to-date: /home/jacky/ros2_ws/install/more_interfaces/lib/libmore_interfaces__rosidl_typesupport_cpp.so
[6.874s] -- Up-to-date: /home/jacky/ros2_ws/install/more_interfaces/share/more_interfaces/environment/pythonpath.sh
[6.874s] -- Up-to-date: /home/jacky/ros2_ws/install/more_interfaces/share/more_interfaces/environment/pythonpath.dsv
[6.874s] -- Up-to-date: /home/jacky/ros2_ws/install/more_interfaces/local/lib/python3.10/dist-packages/more_interfaces-0.0.0-py3.10.egg-info
[6.875s] -- Installing: /home/jacky/ros2_ws/install/more_interfaces/local/lib/python3.10/dist-packages/more_interfaces-0.0.0-py3.10.egg-info/SOURCES.txt
[6.875s] -- Installing: /home/jacky/ros2_ws/install/more_interfaces/local/lib/python3.10/dist-packages/more_interfaces-0.0.0-py3.10.egg-info/PKG-INFO
[6.875s] -- Installing: /home/jacky/ros2_ws/install/more_interfaces/local/lib/python3.10/dist-packages/more_interfaces-0.0.0-py3.10.egg-info/top_level.txt
[6.875s] -- Installing: /home/jacky/ros2_ws/install/more_interfaces/local/lib/python3.10/dist-packages/more_interfaces-0.0.0-py3.10.egg-info/dependency_links.txt
[6.875s] -- Up-to-date: /home/jacky/ros2_ws/install/more_interfaces/local/lib/python3.10/dist-packages/more_interfaces
[6.875s] -- Up-to-date: /home/jacky/ros2_ws/install/more_interfaces/local/lib/python3.10/dist-packages/more_interfaces/_more_interfaces_s.ep.rosidl_typesupport_c.c
[6.875s] -- Up-to-date: /home/jacky/ros2_ws/install/more_interfaces/local/lib/python3.10/dist-packages/more_interfaces/msg
[6.875s] -- Up-to-date: /home/jacky/ros2_ws/install/more_interfaces/local/lib/python3.10/dist-packages/more_interfaces/msg/_address_book_s.c
[6.875s] -- Up-to-date: /home/jacky/ros2_ws/install/more_interfaces/local/lib/python3.10/dist-packages/more_interfaces/msg/_address_book.py
[6.875s] -- Up-to-date: /home/jacky/ros2_ws/install/more_interfaces/local/lib/python3.10/dist-packages/more_interfaces/msg/__init__.py
[6.875s] -- Up-to-date: /home/jacky/ros2_ws/install/more_interfaces/local/lib/python3.10/dist-packages/more_interfaces/more_interfaces_s__rosidl_typesupport_fastrtps_c.cpython-310-x86_64-linux-gnu.so
[6.875s] -- Up-to-date: /home/jacky/ros2_ws/install/more_interfaces/local/lib/python3.10/dist-packages/more_interfaces/libmore_interfaces__rosidl_generator_py.so
[6.875s] -- Up-to-date: /home/jacky/ros2_ws/install/more_interfaces/local/lib/python3.10/dist-packages/more_interfaces/more_interfaces_s__rosidl_typesupport_c.cpython-310-x86_64-linux-gnu.so
[6.875s] -- Up-to-date: /home/jacky/ros2_ws/install/more_interfaces/local/lib/python3.10/dist-packages/more_interfaces/_more_interfaces_s.ep.rosidl_typesupport_introspection_c.c
[6.875s] -- Up-to-date: /home/jacky/ros2_ws/install/more_interfaces/local/lib/python3.10/dist-packages/more_interfaces/__init__.py
[6.876s] -- Up-to-date: /home/jacky/ros2_ws/install/more_interfaces/local/lib/python3.10/dist-packages/more_interfaces/_more_interfaces_s.ep.rosidl_typesupport_fastrtps_c.c
[6.876s] -- Up-to-date: /home/jacky/ros2_ws/install/more_interfaces/local/lib/python3.10/dist-packages/more_interfaces/more_interfaces_s__rosidl_typesupport_introspection_c.cpython-310-x86_64-linux-gnu.so
[6.905s] Listing '/home/jacky/ros2_ws/install/more_interfaces/local/lib/python3.10/dist-packages/more_interfaces'...
[6.905s] Listing '/home/jacky/ros2_ws/install/more_interfaces/local/lib/python3.10/dist-packages/more_interfaces/msg'...
[6.909s] -- Up-to-date: /home/jacky/ros2_ws/install/more_interfaces/local/lib/python3.10/dist-packages/more_interfaces/more_interfaces_s__rosidl_typesupport_fastrtps_c.cpython-310-x86_64-linux-gnu.so
[6.909s] -- Up-to-date: /home/jacky/ros2_ws/install/more_interfaces/local/lib/python3.10/dist-packages/more_interfaces/more_interfaces_s__rosidl_typesupport_introspection_c.cpython-310-x86_64-linux-gnu.so
[6.909s] -- Up-to-date: /home/jacky/ros2_ws/install/more_interfaces/local/lib/python3.10/dist-packages/more_interfaces/more_interfaces_s__rosidl_typesupport_c.cpython-310-x86_64-linux-gnu.so
[6.910s] -- Up-to-date: /home/jacky/ros2_ws/install/more_interfaces/lib/libmore_interfaces__rosidl_generator_py.so
[6.910s] -- Up-to-date: /home/jacky/ros2_ws/install/more_interfaces/share/more_interfaces/msg/AddressBook.idl
[6.910s] -- Up-to-date: /home/jacky/ros2_ws/install/more_interfaces/share/more_interfaces/msg/AddressBook.msg
[6.910s] -- Up-to-date: /home/jacky/ros2_ws/install/more_interfaces/share/ament_index/resource_index/package_run_dependencies/more_interfaces
[6.910s] -- Up-to-date: /home/jacky/ros2_ws/install/more_interfaces/share/ament_index/resource_index/parent_prefix_path/more_interfaces
[6.910s] -- Up-to-date: /home/jacky/ros2_ws/install/more_interfaces/share/more_interfaces/environment/ament_prefix_path.sh
[6.911s] -- Up-to-date: /home/jacky/ros2_ws/install/more_interfaces/share/more_interfaces/environment/ament_prefix_path.dsv
[6.911s] -- Up-to-date: /home/jacky/ros2_ws/install/more_interfaces/share/more_interfaces/environment/path.sh
[6.911s] -- Up-to-date: /home/jacky/ros2_ws/install/more_interfaces/share/more_interfaces/environment/path.dsv
[6.911s] -- Up-to-date: /home/jacky/ros2_ws/install/more_interfaces/share/more_interfaces/local_setup.bash
[6.911s] -- Up-to-date: /home/jacky/ros2_ws/install/more_interfaces/share/more_interfaces/local_setup.sh
[6.911s] -- Up-to-date: /home/jacky/ros2_ws/install/more_interfaces/share/more_interfaces/local_setup.zsh
[6.911s] -- Up-to-date: /home/jacky/ros2_ws/install/more_interfaces/share/more_interfaces/local_setup.dsv
[6.911s] -- Installing: /home/jacky/ros2_ws/install/more_interfaces/share/more_interfaces/package.dsv
[6.911s] -- Up-to-date: /home/jacky/ros2_ws/install/more_interfaces/share/ament_index/resource_index/packages/more_interfaces
[6.911s] -- Up-to-date: /home/jacky/ros2_ws/install/more_interfaces/share/more_interfaces/cmake/export_more_interfaces__rosidl_generator_cExport.cmake
[6.911s] -- Up-to-date: /home/jacky/ros2_ws/install/more_interfaces/share/more_interfaces/cmake/export_more_interfaces__rosidl_generator_cExport-noconfig.cmake
[6.911s] -- Up-to-date: /home/jacky/ros2_ws/install/more_interfaces/share/more_interfaces/cmake/export_more_interfaces__rosidl_typesupport_fastrtps_cExport.cmake
[6.911s] -- Up-to-date: /home/jacky/ros2_ws/install/more_interfaces/share/more_interfaces/cmake/export_more_interfaces__rosidl_typesupport_fastrtps_cExport-noconfig.cmake
[6.911s] -- Up-to-date: /home/jacky/ros2_ws/install/more_interfaces/share/more_interfaces/cmake/more_interfaces__rosidl_typesupport_introspection_cExport.cmake
[6.912s] -- Up-to-date: /home/jacky/ros2_ws/install/more_interfaces/share/more_interfaces/cmake/more_interfaces__rosidl_typesupport_introspection_cExport-noconfig.cmake
[6.912s] -- Up-to-date: /home/jacky/ros2_ws/install/more_interfaces/share/more_interfaces/cmake/more_interfaces__rosidl_typesupport_cExport.cmake
[6.912s] -- Up-to-date: /home/jacky/ros2_ws/install/more_interfaces/share/more_interfaces/cmake/more_interfaces__rosidl_typesupport_cExport-noconfig.cmake
[6.912s] -- Up-to-date: /home/jacky/ros2_ws/install/more_interfaces/share/more_interfaces/cmake/export_more_interfaces__rosidl_generator_cppExport.cmake
[6.912s] -- Up-to-date: /home/jacky/ros2_ws/install/more_interfaces/share/more_interfaces/cmake/export_more_interfaces__rosidl_typesupport_fastrtps_cppExport.cmake
[6.912s] -- Up-to-date: /home/jacky/ros2_ws/install/more_interfaces/share/more_interfaces/cmake/export_more_interfaces__rosidl_typesupport_fastrtps_cppExport-noconfig.cmake
[6.912s] -- Up-to-date: /home/jacky/ros2_ws/install/more_interfaces/share/more_interfaces/cmake/more_interfaces__rosidl_typesupport_introspection_cppExport.cmake
[6.912s] -- Up-to-date: /home/jacky/ros2_ws/install/more_interfaces/share/more_interfaces/cmake/more_interfaces__rosidl_typesupport_introspection_cppExport-noconfig.cmake
[6.912s] -- Up-to-date: /home/jacky/ros2_ws/install/more_interfaces/share/more_interfaces/cmake/more_interfaces__rosidl_typesupport_cppExport.cmake
[6.912s] -- Up-to-date: /home/jacky/ros2_ws/install/more_interfaces/share/more_interfaces/cmake/more_interfaces__rosidl_typesupport_cppExport-noconfig.cmake
[6.912s] -- Up-to-date: /home/jacky/ros2_ws/install/more_interfaces/share/more_interfaces/cmake/export_more_interfaces__rosidl_generator_pyExport.cmake
[6.912s] -- Up-to-date: /home/jacky/ros2_ws/install/more_interfaces/share/more_interfaces/cmake/export_more_interfaces__rosidl_generator_pyExport-noconfig.cmake
[6.912s] -- Up-to-date: /home/jacky/ros2_ws/install/more_interfaces/share/more_interfaces/cmake/rosidl_cmake-extras.cmake
[6.912s] -- Up-to-date: /home/jacky/ros2_ws/install/more_interfaces/share/more_interfaces/cmake/ament_cmake_export_include_directories-extras.cmake
[6.912s] -- Up-to-date: /home/jacky/ros2_ws/install/more_interfaces/share/more_interfaces/cmake/ament_cmake_export_libraries-extras.cmake
[6.913s] -- Up-to-date: /home/jacky/ros2_ws/install/more_interfaces/share/more_interfaces/cmake/ament_cmake_export_targets-extras.cmake
[6.913s] -- Up-to-date: /home/jacky/ros2_ws/install/more_interfaces/share/more_interfaces/cmake/rosidl_cmake_export_typesupport_targets-extras.cmake
[6.913s] -- Up-to-date: /home/jacky/ros2_ws/install/more_interfaces/share/more_interfaces/cmake/ament_cmake_export_dependencies-extras.cmake
[6.913s] -- Up-to-date: /home/jacky/ros2_ws/install/more_interfaces/share/more_interfaces/cmake/rosidl_cmake_export_typesupport_libraries-extras.cmake
[6.913s] -- Up-to-date: /home/jacky/ros2_ws/install/more_interfaces/share/more_interfaces/cmake/more_interfacesConfig.cmake
[6.913s] -- Up-to-date: /home/jacky/ros2_ws/install/more_interfaces/share/more_interfaces/cmake/more_interfacesConfig-version.cmake
[6.913s] -- Up-to-date: /home/jacky/ros2_ws/install/more_interfaces/share/more_interfaces/package.xml
[6.915s] Invoked command in '/home/jacky/ros2_ws/build/more_interfaces' returned '0': CMAKE_PREFIX_PATH=${CMAKE_PREFIX_PATH}:/home/jacky/ros2_ws/install/py_srvcli:/home/jacky/ros2_ws/install/py_pubsub:/home/jacky/ros2_ws/install/my_py_package:/home/jacky/ros2_ws/install/launch_testing_examples:/home/jacky/ros2_ws/install/examples_rclpy_pointcloud_publisher:/home/jacky/ros2_ws/install/examples_rclpy_minimal_subscriber:/home/jacky/ros2_ws/install/examples_rclpy_minimal_service:/home/jacky/ros2_ws/install/examples_rclpy_minimal_publisher:/home/jacky/ros2_ws/install/examples_rclpy_minimal_client:/home/jacky/ros2_ws/install/examples_rclpy_minimal_action_server:/home/jacky/ros2_ws/install/examples_rclpy_minimal_action_client:/home/jacky/ros2_ws/install/examples_rclpy_guard_conditions:/home/jacky/ros2_ws/install/examples_rclpy_executors:/opt/ros/humble /usr/bin/cmake --install /home/jacky/ros2_ws/build/more_interfaces
