UpdateCTestConfiguration  from :/home/jacky/ros2_ws/build/examples_rclcpp_minimal_client/CTestConfiguration.ini
Parse Config file:/home/jacky/ros2_ws/build/examples_rclcpp_minimal_client/CTestConfiguration.ini
   Site: Alienware-m15-JK
   Build name: (empty)
 Add coverage exclude regular expressions.
Create new tag: 20231029-1937 - Experimental
UpdateCTestConfiguration  from :/home/jacky/ros2_ws/build/examples_rclcpp_minimal_client/CTestConfiguration.ini
Parse Config file:/home/jacky/ros2_ws/build/examples_rclcpp_minimal_client/CTestConfiguration.ini
Test project /home/jacky/ros2_ws/build/examples_rclcpp_minimal_client
Constructing a list of tests
Done constructing a list of tests
Updating test list for fixtures
Added 0 tests to meet fixture requirements
Checking test dependency graph...
Checking test dependency graph end
test 1
    Start 1: copyright

1: Test command: /usr/bin/python3.10 "-u" "/opt/ros/humble/share/ament_cmake_test/cmake/run_test.py" "/home/jacky/ros2_ws/build/examples_rclcpp_minimal_client/test_results/examples_rclcpp_minimal_client/copyright.xunit.xml" "--package-name" "examples_rclcpp_minimal_client" "--output-file" "/home/jacky/ros2_ws/build/examples_rclcpp_minimal_client/ament_copyright/copyright.txt" "--command" "/opt/ros/humble/bin/ament_copyright" "--xunit-file" "/home/jacky/ros2_ws/build/examples_rclcpp_minimal_client/test_results/examples_rclcpp_minimal_client/copyright.xunit.xml"
1: Test timeout computed to be: 200
1: -- run_test.py: invoking following command in '/home/jacky/ros2_ws/src/examples/rclcpp/services/minimal_client':
1:  - /opt/ros/humble/bin/ament_copyright --xunit-file /home/jacky/ros2_ws/build/examples_rclcpp_minimal_client/test_results/examples_rclcpp_minimal_client/copyright.xunit.xml
1: No problems found, checked 1 files
1: -- run_test.py: return code 0
1: -- run_test.py: verify result file '/home/jacky/ros2_ws/build/examples_rclcpp_minimal_client/test_results/examples_rclcpp_minimal_client/copyright.xunit.xml'
1/6 Test #1: copyright ........................   Passed    0.30 sec
test 2
    Start 2: cppcheck

2: Test command: /usr/bin/python3.10 "-u" "/opt/ros/humble/share/ament_cmake_test/cmake/run_test.py" "/home/jacky/ros2_ws/build/examples_rclcpp_minimal_client/test_results/examples_rclcpp_minimal_client/cppcheck.xunit.xml" "--package-name" "examples_rclcpp_minimal_client" "--output-file" "/home/jacky/ros2_ws/build/examples_rclcpp_minimal_client/ament_cppcheck/cppcheck.txt" "--command" "/opt/ros/humble/bin/ament_cppcheck" "--xunit-file" "/home/jacky/ros2_ws/build/examples_rclcpp_minimal_client/test_results/examples_rclcpp_minimal_client/cppcheck.xunit.xml"
2: Test timeout computed to be: 300
2: -- run_test.py: invoking following command in '/home/jacky/ros2_ws/src/examples/rclcpp/services/minimal_client':
2:  - /opt/ros/humble/bin/ament_cppcheck --xunit-file /home/jacky/ros2_ws/build/examples_rclcpp_minimal_client/test_results/examples_rclcpp_minimal_client/cppcheck.xunit.xml
2: cppcheck 2.7 has known performance issues and therefore will not be used, set the AMENT_CPPCHECK_ALLOW_SLOW_VERSIONS environment variable to override this.
2: -- run_test.py: return code 0
2: -- run_test.py: verify result file '/home/jacky/ros2_ws/build/examples_rclcpp_minimal_client/test_results/examples_rclcpp_minimal_client/cppcheck.xunit.xml'
2/6 Test #2: cppcheck .........................   Passed    0.25 sec
test 3
    Start 3: cpplint

3: Test command: /usr/bin/python3.10 "-u" "/opt/ros/humble/share/ament_cmake_test/cmake/run_test.py" "/home/jacky/ros2_ws/build/examples_rclcpp_minimal_client/test_results/examples_rclcpp_minimal_client/cpplint.xunit.xml" "--package-name" "examples_rclcpp_minimal_client" "--output-file" "/home/jacky/ros2_ws/build/examples_rclcpp_minimal_client/ament_cpplint/cpplint.txt" "--command" "/opt/ros/humble/bin/ament_cpplint" "--xunit-file" "/home/jacky/ros2_ws/build/examples_rclcpp_minimal_client/test_results/examples_rclcpp_minimal_client/cpplint.xunit.xml"
3: Test timeout computed to be: 120
3: -- run_test.py: invoking following command in '/home/jacky/ros2_ws/src/examples/rclcpp/services/minimal_client':
3:  - /opt/ros/humble/bin/ament_cpplint --xunit-file /home/jacky/ros2_ws/build/examples_rclcpp_minimal_client/test_results/examples_rclcpp_minimal_client/cpplint.xunit.xml
3: Using '--root=..' argument
3: 
3: Done processing /home/jacky/ros2_ws/src/examples/rclcpp/services/minimal_client/main.cpp
3: 
3: No problems found
3: -- run_test.py: return code 0
3: -- run_test.py: verify result file '/home/jacky/ros2_ws/build/examples_rclcpp_minimal_client/test_results/examples_rclcpp_minimal_client/cpplint.xunit.xml'
3/6 Test #3: cpplint ..........................   Passed    0.25 sec
test 4
    Start 4: lint_cmake

4: Test command: /usr/bin/python3.10 "-u" "/opt/ros/humble/share/ament_cmake_test/cmake/run_test.py" "/home/jacky/ros2_ws/build/examples_rclcpp_minimal_client/test_results/examples_rclcpp_minimal_client/lint_cmake.xunit.xml" "--package-name" "examples_rclcpp_minimal_client" "--output-file" "/home/jacky/ros2_ws/build/examples_rclcpp_minimal_client/ament_lint_cmake/lint_cmake.txt" "--command" "/opt/ros/humble/bin/ament_lint_cmake" "--xunit-file" "/home/jacky/ros2_ws/build/examples_rclcpp_minimal_client/test_results/examples_rclcpp_minimal_client/lint_cmake.xunit.xml"
4: Test timeout computed to be: 60
4: -- run_test.py: invoking following command in '/home/jacky/ros2_ws/src/examples/rclcpp/services/minimal_client':
4:  - /opt/ros/humble/bin/ament_lint_cmake --xunit-file /home/jacky/ros2_ws/build/examples_rclcpp_minimal_client/test_results/examples_rclcpp_minimal_client/lint_cmake.xunit.xml
4: 
4: No problems found
4: -- run_test.py: return code 0
4: -- run_test.py: verify result file '/home/jacky/ros2_ws/build/examples_rclcpp_minimal_client/test_results/examples_rclcpp_minimal_client/lint_cmake.xunit.xml'
4/6 Test #4: lint_cmake .......................   Passed    0.20 sec
test 5
    Start 5: uncrustify

5: Test command: /usr/bin/python3.10 "-u" "/opt/ros/humble/share/ament_cmake_test/cmake/run_test.py" "/home/jacky/ros2_ws/build/examples_rclcpp_minimal_client/test_results/examples_rclcpp_minimal_client/uncrustify.xunit.xml" "--package-name" "examples_rclcpp_minimal_client" "--output-file" "/home/jacky/ros2_ws/build/examples_rclcpp_minimal_client/ament_uncrustify/uncrustify.txt" "--command" "/opt/ros/humble/bin/ament_uncrustify" "--xunit-file" "/home/jacky/ros2_ws/build/examples_rclcpp_minimal_client/test_results/examples_rclcpp_minimal_client/uncrustify.xunit.xml"
5: Test timeout computed to be: 60
5: -- run_test.py: invoking following command in '/home/jacky/ros2_ws/src/examples/rclcpp/services/minimal_client':
5:  - /opt/ros/humble/bin/ament_uncrustify --xunit-file /home/jacky/ros2_ws/build/examples_rclcpp_minimal_client/test_results/examples_rclcpp_minimal_client/uncrustify.xunit.xml
5: No code style divergence in file 'main.cpp'
5: 
5: No problems found
5: -- run_test.py: return code 0
5: -- run_test.py: verify result file '/home/jacky/ros2_ws/build/examples_rclcpp_minimal_client/test_results/examples_rclcpp_minimal_client/uncrustify.xunit.xml'
5/6 Test #5: uncrustify .......................   Passed    0.22 sec
test 6
    Start 6: xmllint

6: Test command: /usr/bin/python3.10 "-u" "/opt/ros/humble/share/ament_cmake_test/cmake/run_test.py" "/home/jacky/ros2_ws/build/examples_rclcpp_minimal_client/test_results/examples_rclcpp_minimal_client/xmllint.xunit.xml" "--package-name" "examples_rclcpp_minimal_client" "--output-file" "/home/jacky/ros2_ws/build/examples_rclcpp_minimal_client/ament_xmllint/xmllint.txt" "--command" "/opt/ros/humble/bin/ament_xmllint" "--xunit-file" "/home/jacky/ros2_ws/build/examples_rclcpp_minimal_client/test_results/examples_rclcpp_minimal_client/xmllint.xunit.xml"
6: Test timeout computed to be: 60
6: -- run_test.py: invoking following command in '/home/jacky/ros2_ws/src/examples/rclcpp/services/minimal_client':
6:  - /opt/ros/humble/bin/ament_xmllint --xunit-file /home/jacky/ros2_ws/build/examples_rclcpp_minimal_client/test_results/examples_rclcpp_minimal_client/xmllint.xunit.xml
6: File 'package.xml' is valid
6: 
6: No problems found
6: -- run_test.py: return code 0
6: -- run_test.py: verify result file '/home/jacky/ros2_ws/build/examples_rclcpp_minimal_client/test_results/examples_rclcpp_minimal_client/xmllint.xunit.xml'
6/6 Test #6: xmllint ..........................   Passed    2.08 sec

[0;32m100% tests passed[0;0m, 0 tests failed[0;0m out of 6

Label Time Summary:
copyright     =   0.30 sec*proc (1 test)
cppcheck      =   0.25 sec*proc (1 test)
cpplint       =   0.25 sec*proc (1 test)
lint_cmake    =   0.20 sec*proc (1 test)
linter        =   3.31 sec*proc (6 tests)
uncrustify    =   0.22 sec*proc (1 test)
xmllint       =   2.08 sec*proc (1 test)

Total Test time (real) =   3.32 sec
