[0.703s] Invoking command in '/home/jacky/launch_ws/src/launch_tutorial': PYTHONPATH=/home/jacky/launch_ws/build/launch_tutorial/prefix_override:/home/jacky/launch_ws/install/launch_tutorial/lib/python3.10/site-packages:${PYTHONPATH} /usr/bin/python3 setup.py egg_info --egg-base ../../build/launch_tutorial build --build-base /home/jacky/launch_ws/build/launch_tutorial/build install --record /home/jacky/launch_ws/build/launch_tutorial/install.log --single-version-externally-managed
[0.876s] error: Multiple top-level packages discovered in a flat-layout: ['launch', 'config', 'resource', 'launch_tutorial'].
[0.876s] 
[0.876s] To avoid accidental inclusion of unwanted files or directories,
[0.876s] setuptools will not proceed with this build.
[0.876s] 
[0.876s] If you are trying to create a single distribution with multiple packages
[0.876s] on purpose, you should not rely on automatic discovery.
[0.876s] Instead, consider the following options:
[0.876s] 
[0.876s] 1. set up custom discovery (`find` directive with `include` or `exclude`)
[0.876s] 2. use a `src-layout`
[0.876s] 3. explicitly set `py_modules` or `packages` with a list of names
[0.877s] 
[0.877s] To find more information, look for "package discovery" on setuptools docs.
[0.889s] Invoked command in '/home/jacky/launch_ws/src/launch_tutorial' returned '1': PYTHONPATH=/home/jacky/launch_ws/build/launch_tutorial/prefix_override:/home/jacky/launch_ws/install/launch_tutorial/lib/python3.10/site-packages:${PYTHONPATH} /usr/bin/python3 setup.py egg_info --egg-base ../../build/launch_tutorial build --build-base /home/jacky/launch_ws/build/launch_tutorial/build install --record /home/jacky/launch_ws/build/launch_tutorial/install.log --single-version-externally-managed
