[35m[1mConsolidate compiler generated dependencies of target listener_with_topic_statistics[0m
[ 66%] Built target talker
[ 66%] Built target listener
[ 83%] [32mBuilding CXX object CMakeFiles/listener_with_topic_statistics.dir/src/member_function_with_topic_statistics.cpp.o[0m
[01m[K/home/jacky/ros2_ws/src/cpp_pubsub/src/member_function_with_topic_statistics.cpp:[m[K In constructor ‘[01m[KMinimalSubscriberWithTopicStatistics::MinimalSubscriberWithTopicStatistics()[m[K’:
[01m[K/home/jacky/ros2_ws/src/cpp_pubsub/src/member_function_with_topic_statistics.cpp:39:5:[m[K [01;31m[Kerror: [m[Kexpected ‘[01m[K;[m[K’ before ‘[01m[Kauto[m[K’
   39 |     [01;31m[Kauto[m[K callback = [this](const std_msgs::msg::String & msg) {
      |     [01;31m[K^~~~[m[K
[01m[K/home/jacky/ros2_ws/src/cpp_pubsub/src/member_function_with_topic_statistics.cpp:44:20:[m[K [01;31m[Kerror: [m[K‘[01m[Kcallback[m[K’ was not declared in this scope; did you mean ‘[01m[Kcalloc[m[K’?
   44 |       "topic", 10, [01;31m[Kcallback[m[K, options);
      |                    [01;31m[K^~~~~~~~[m[K
      |                    [32m[Kcalloc[m[K
gmake[2]: *** [CMakeFiles/listener_with_topic_statistics.dir/build.make:76: CMakeFiles/listener_with_topic_statistics.dir/src/member_function_with_topic_statistics.cpp.o] Error 1
gmake[1]: *** [CMakeFiles/Makefile2:193: CMakeFiles/listener_with_topic_statistics.dir/all] Error 2
gmake: *** [Makefile:146: all] Error 2
