[1m============================= test session starts ==============================[0m
platform linux -- Python 3.10.12, pytest-6.2.5, py-1.10.0, pluggy-0.13.0
cachedir: /home/jacky/ros2_ws/build/examples_rclpy_executors/.pytest_cache
rootdir: /home/jacky/ros2_ws/src/examples/rclpy, configfile: pytest.ini
plugins: ament-pep257-0.12.8, ament-xmllint-0.12.8, ament-copyright-0.12.8, ament-lint-0.12.8, ament-flake8-0.12.8, launch-testing-1.0.4, launch-testing-ros-0.19.6, timeout-2.1.0, mock-3.6.1, repeat-0.9.1, colcon-core-0.15.0, rerunfailures-10.2, cov-3.0.0
[1mcollecting ... [0m[1m
collected 3 items                                                              [0m

test/test_copyright.py [32m.[0m[32m                                                 [ 33%][0m
test/test_flake8.py [32m.[0m[33m                                                    [ 66%][0m
test/test_pep257.py [32m.[0m[33m                                                    [100%][0m

[33m=============================== warnings summary ===============================[0m
executors/test/test_flake8.py::test_flake8
executors/test/test_flake8.py::test_flake8
  Warning: SelectableGroups dict interface is deprecated. Use select.

-- Docs: https://docs.pytest.org/en/stable/warnings.html
- generated xml file: /home/jacky/ros2_ws/build/examples_rclpy_executors/pytest.xml -
[33m======================== [32m3 passed[0m, [33m[1m2 warnings[0m[33m in 0.64s[0m[33m =========================[0m
